[gd_scene load_steps=3 format=2]

[ext_resource path="res://kerno/menuo/resursoj/fonts/Buttons_stylel.tres" type="StyleBox" id=4]

[sub_resource type="FontFile" id=1]

[node name="Profilo" type="Button"]
offset_right = 32.0
offset_bottom = 32.0
custom_minimum_size = Vector2( 32, 32 )
theme_override_styles/focus = ExtResource( 4 )
theme_override_fonts/font = SubResource( 1 )
shortcut_in_tooltip = false
__meta__ = {
"_edit_group_": true,
"_edit_use_anchors_": false
}
