[gd_scene load_steps=4 format=2]

[ext_resource path="res://blokoj/kosmostacioj/resursoj/CapKosmostacio/textures/Stars Sphere.jpg" type="Texture2D" id=1]
[ext_resource path="res://blokoj/kosmostacioj/Kosmostacio.gd" type="Script" id=2]
[ext_resource path="res://blokoj/rajtigo/tero.png" type="Texture2D" id=3]

[node name="Node2D" type="Node2D"]
script = ExtResource( 2 )

[node name="ParallaxBackground2" type="ParallaxBackground" parent="."]

[node name="TextureRect" type="TextureRect" parent="ParallaxBackground2"]
anchor_right = 1.0
anchor_bottom = 1.0
texture = ExtResource( 1 )
expand = true
stretch_mode = 1
__meta__ = {
"_edit_use_anchors_": false
}

[node name="ParallaxBackground" type="ParallaxBackground" parent="."]
layer = -98
follow_viewport_enabled = true

[node name="TextureRect" type="TextureRect" parent="ParallaxBackground"]
anchor_left = 0.5
anchor_top = 0.5
anchor_right = 0.5
anchor_bottom = 0.5
offset_left = -512.0
offset_top = -384.0
offset_right = 512.0
offset_bottom = 384.0
texture = ExtResource( 3 )
__meta__ = {
"_edit_use_anchors_": false
}

[node name="Status" type="Label" parent="ParallaxBackground"]
anchor_left = 0.5
anchor_top = 1.0
anchor_right = 0.594
anchor_bottom = 1.0
offset_left = -5.54797
offset_top = -26.556
offset_right = 0.195984
offset_bottom = -9.55603
__meta__ = {
"_edit_use_anchors_": false
}

[node name="GreetingLabel" type="Label" parent="ParallaxBackground"]
anchor_left = 1.0
anchor_top = 1.0
anchor_right = 1.0
anchor_bottom = 1.0
offset_left = -625.216
offset_top = -30.0
align = 1
valign = 1
__meta__ = {
"_edit_use_anchors_": false
}
