[gd_scene load_steps=2 format=2]

[ext_resource path="res://blokoj/kosmo/skriptoj/main_camera.gd" type="Script" id=1]

[node name="main_camera" type="Camera3D"]
far = 8192.0
script = ExtResource( 1 )

[node name="down" type="RayCast3D" parent="."]
enabled = true

[node name="up" type="RayCast3D" parent="."]
enabled = true
target_position = Vector3( 0, 1, 0 )

[node name="forward" type="RayCast3D" parent="."]
enabled = true
target_position = Vector3( 0, 0, -1 )

[node name="back" type="RayCast3D" parent="."]
enabled = true
target_position = Vector3( 0, 0, 1 )

[node name="right" type="RayCast3D" parent="."]
enabled = true
target_position = Vector3( 1, 0, 0 )

[node name="left" type="RayCast3D" parent="."]
enabled = true
target_position = Vector3( -1, 0, 0 )
