[gd_scene load_steps=4 format=2]

[ext_resource path="res://kerno/menuo/resursoj/icons/tab2_3.png" type="Texture2D" id=1]
[ext_resource path="res://blokoj/objektoj/scenoj/ITEM_konservejo.gd" type="Script" id=2]
[ext_resource path="res://kerno/menuo/resursoj/icons/photo_2020-07-30_21-14-44.jpg" type="Texture2D" id=3]

[node name="ITEM_konservejo" type="TextureRect"]
self_modulate = Color( 0.247059, 0.25098, 0.321569, 0 )
offset_right = 575.0
offset_bottom = 15.0
mouse_default_cursor_shape = 2
texture = ExtResource( 1 )
stretch_mode = 1
script = ExtResource( 2 )
__meta__ = {
"_edit_use_anchors_": false
}

[node name="HBox" type="HBoxContainer" parent="."]
anchor_right = 1.0
anchor_bottom = 1.0
__meta__ = {
"_edit_use_anchors_": false
}

[node name="Item_icon" type="TextureRect" parent="HBox"]
visible = false
offset_right = 17.0
offset_bottom = 17.0
custom_minimum_size = Vector2( 17, 17 )
texture = ExtResource( 3 )
expand = true
[connection signal="gui_input" from="." to="." method="_on_ITEM_konservejo_gui_input"]
