[gd_scene load_steps=4 format=2]

[ext_resource path="res://blokoj/asteroidoj/resursoj/ast_ice_shards_2.glb" type="PackedScene" id=1]
[ext_resource path="res://blokoj/asteroidoj/skriptoj/ast_.gd" type="Script" id=2]

[sub_resource type="ConcavePolygonShape3D" id=1]
data = PackedVector3Array( 0.1903, 0.0917, -0.0209, -0.0004, -0.1308, -0.2072, 0.025, -0.2043, -0.1996, 0.1903, 0.0917, -0.0209, 0.0118, -0.1111, -0.1944, -0.0004, -0.1308, -0.2072, 0.1903, 0.0917, -0.0209, 0.0173, 0.1557, -0.1454, 0.0118, -0.1111, -0.1944, 0.1583, 0.1179, -0.0415, 0.0173, 0.1557, -0.1454, 0.1903, 0.0917, -0.0209, 0.0929, 0.1684, -0.0842, 0.0173, 0.1557, -0.1454, 0.1583, 0.1179, -0.0415, 0.0929, 0.1684, -0.0842, 0.0206, 0.1778, -0.1391, 0.0173, 0.1557, -0.1454, 0.0329, 0.1831, -0.1286, 0.0206, 0.1778, -0.1391, 0.0929, 0.1684, -0.0842, -0.1461, 0.1301, 0.0549, 0.1318, 0.0966, 0.1486, -0.0078, 0.064, 0.2633, -0.1461, 0.1301, 0.0549, 0.1039, 0.1551, -0.0412, 0.1318, 0.0966, 0.1486, -0.1028, 0.1768, -0.1002, 0.1039, 0.1551, -0.0412, -0.1461, 0.1301, 0.0549, -0.1028, 0.1768, -0.1002, 0.0929, 0.1684, -0.0842, 0.1039, 0.1551, -0.0412, -0.1028, 0.1768, -0.1002, 0.0329, 0.1831, -0.1286, 0.0929, 0.1684, -0.0842, -0.0773, 0.1806, -0.1142, 0.0329, 0.1831, -0.1286, -0.1028, 0.1768, -0.1002, -0.0763, 0.1807, -0.1145, 0.0329, 0.1831, -0.1286, -0.0773, 0.1806, -0.1142, -0.0741, 0.1808, -0.115, 0.0329, 0.1831, -0.1286, -0.0763, 0.1807, -0.1145, -0.1297, 0.0182, 0.2568, -0.0078, 0.064, 0.2633, -0.022, 0.0477, 0.2812, -0.022, 0.0477, 0.2812, -0.0078, 0.064, 0.2633, 0.0065, -0.054, 0.3105, -0.1461, 0.1301, 0.0549, -0.0078, 0.064, 0.2633, -0.1297, 0.0182, 0.2568, -0.022, 0.0477, 0.2812, 0.0065, -0.054, 0.3105, -0.1297, 0.0182, 0.2568, -0.0044, -0.26, -0.1658, -0.2319, -0.0578, 0.1555, -0.2116, -0.3178, 0.2097, -0.0092, -0.1266, -0.2034, -0.2319, -0.0578, 0.1555, -0.0044, -0.26, -0.1658, -0.0194, -0.1106, -0.1912, -0.2319, -0.0578, 0.1555, -0.0092, -0.1266, -0.2034, -0.0742, 0.0571, -0.1545, -0.2319, -0.0578, 0.1555, -0.0194, -0.1106, -0.1912, -0.0742, 0.0571, -0.1545, -0.1131, 0.1409, -0.1165, -0.2319, -0.0578, 0.1555, -0.1051, 0.1256, -0.1251, -0.1131, 0.1409, -0.1165, -0.0742, 0.0571, -0.1545, -0.1964, -0.3314, 0.2277, 0.0467, -0.1154, 0.312, -0.0616, -0.3984, 0.2505, 0.0065, -0.054, 0.3105, 0.0467, -0.1154, 0.312, -0.1964, -0.3314, 0.2277, -0.1461, 0.1301, 0.0549, -0.1297, 0.0182, 0.2568, -0.2319, -0.0578, 0.1555, -0.1131, 0.1409, -0.1165, -0.1461, 0.1301, 0.0549, -0.2319, -0.0578, 0.1555, -0.1131, 0.1409, -0.1165, -0.1026, 0.1763, -0.1019, -0.1461, 0.1301, 0.0549, -0.1022, 0.1749, -0.1076, -0.1026, 0.1763, -0.1019, -0.1131, 0.1409, -0.1165, 0.0065, -0.054, 0.3105, 0.232, -0.0418, 0.1449, 0.0467, -0.1154, 0.312, -0.0078, 0.064, 0.2633, 0.232, -0.0418, 0.1449, 0.0065, -0.054, 0.3105, -0.0078, 0.064, 0.2633, 0.2344, 0.0331, 0.1067, 0.232, -0.0418, 0.1449, -0.0078, 0.064, 0.2633, 0.2186, 0.0447, 0.1123, 0.2344, 0.0331, 0.1067, -0.0078, 0.064, 0.2633, 0.1318, 0.0966, 0.1486, 0.2186, 0.0447, 0.1123, 0.0982, -0.3952, 0.0664, -0.1964, -0.3314, 0.2277, -0.0616, -0.3984, 0.2505, 0.0187, -0.2653, -0.1776, -0.1964, -0.3314, 0.2277, 0.0982, -0.3952, 0.0664, 0.0187, -0.2653, -0.1776, -0.2116, -0.3178, 0.2097, -0.1964, -0.3314, 0.2277, 0.0187, -0.2653, -0.1776, -0.0044, -0.26, -0.1658, -0.2116, -0.3178, 0.2097, 0.0065, -0.054, 0.3105, -0.1964, -0.3314, 0.2277, -0.1297, 0.0182, 0.2568, -0.2116, -0.3178, 0.2097, -0.1297, 0.0182, 0.2568, -0.1964, -0.3314, 0.2277, -0.2319, -0.0578, 0.1555, -0.1297, 0.0182, 0.2568, -0.2116, -0.3178, 0.2097, 0.232, -0.0418, 0.1449, 0.0187, -0.2653, -0.1776, 0.0982, -0.3952, 0.0664, 0.232, -0.0418, 0.1449, 0.025, -0.2043, -0.1996, 0.0187, -0.2653, -0.1776, 0.232, -0.0418, 0.1449, 0.1903, 0.0917, -0.0209, 0.025, -0.2043, -0.1996, 0.2344, 0.0331, 0.1067, 0.1903, 0.0917, -0.0209, 0.232, -0.0418, 0.1449, 0.2285, 0.0428, 0.0886, 0.1903, 0.0917, -0.0209, 0.2344, 0.0331, 0.1067, -0.0763, 0.1807, -0.1145, -0.1131, 0.1409, -0.1165, -0.1051, 0.1256, -0.1251, -0.0763, 0.1807, -0.1145, -0.1022, 0.1749, -0.1076, -0.1131, 0.1409, -0.1165, -0.0763, 0.1807, -0.1145, -0.0773, 0.1806, -0.1142, -0.1022, 0.1749, -0.1076, 0.0173, 0.1557, -0.1454, -0.0194, -0.1106, -0.1912, 0.0118, -0.1111, -0.1944, 0.0173, 0.1557, -0.1454, -0.0742, 0.0571, -0.1545, -0.0194, -0.1106, -0.1912, 0.0118, -0.1111, -0.1944, -0.0092, -0.1266, -0.2034, -0.0004, -0.1308, -0.2072, 0.0118, -0.1111, -0.1944, -0.0194, -0.1106, -0.1912, -0.0092, -0.1266, -0.2034, 0.0467, -0.1154, 0.312, 0.0982, -0.3952, 0.0664, -0.0616, -0.3984, 0.2505, 0.0467, -0.1154, 0.312, 0.232, -0.0418, 0.1449, 0.0982, -0.3952, 0.0664, 0.0173, 0.1557, -0.1454, -0.1051, 0.1256, -0.1251, -0.0742, 0.0571, -0.1545, 0.0173, 0.1557, -0.1454, -0.0763, 0.1807, -0.1145, -0.1051, 0.1256, -0.1251, 0.0206, 0.1778, -0.1391, -0.0763, 0.1807, -0.1145, 0.0173, 0.1557, -0.1454, -0.0741, 0.1808, -0.115, -0.0763, 0.1807, -0.1145, 0.0206, 0.1778, -0.1391, 0.025, -0.2043, -0.1996, -0.0044, -0.26, -0.1658, 0.0187, -0.2653, -0.1776, 0.025, -0.2043, -0.1996, -0.0092, -0.1266, -0.2034, -0.0044, -0.26, -0.1658, -0.0004, -0.1308, -0.2072, -0.0092, -0.1266, -0.2034, 0.025, -0.2043, -0.1996, -0.1028, 0.1768, -0.1002, -0.1461, 0.1301, 0.0549, -0.1026, 0.1763, -0.1019, 0.1583, 0.1179, -0.0415, 0.1039, 0.1551, -0.0412, 0.0929, 0.1684, -0.0842, -0.0773, 0.1806, -0.1142, -0.1026, 0.1763, -0.1019, -0.1022, 0.1749, -0.1076, -0.0773, 0.1806, -0.1142, -0.1028, 0.1768, -0.1002, -0.1026, 0.1763, -0.1019, 0.2186, 0.0447, 0.1123, 0.1903, 0.0917, -0.0209, 0.2285, 0.0428, 0.0886, 0.1318, 0.0966, 0.1486, 0.1903, 0.0917, -0.0209, 0.2186, 0.0447, 0.1123, 0.1318, 0.0966, 0.1486, 0.1583, 0.1179, -0.0415, 0.1903, 0.0917, -0.0209, 0.1039, 0.1551, -0.0412, 0.1583, 0.1179, -0.0415, 0.1318, 0.0966, 0.1486, 0.2186, 0.0447, 0.1123, 0.2285, 0.0428, 0.0886, 0.2344, 0.0331, 0.1067, -0.0741, 0.1808, -0.115, 0.0206, 0.1778, -0.1391, 0.0329, 0.1831, -0.1286, -2.968, -8.2562, -0.6277, -2.9877, -7.9302, -0.6623, -2.9078, -8.2984, -0.5373, -3.0093, -8.2543, -0.7305, -2.9468, -8.3548, -0.7234, -2.95, -8.3574, -0.7356, -3.0093, -8.2543, -0.7305, -2.968, -8.2562, -0.6277, -2.9468, -8.3548, -0.7234, -2.9078, -8.2984, -0.5373, -2.8902, -8.2852, -0.4207, -2.8998, -8.316, -0.5456, -2.9157, -8.2386, -0.4186, -2.8902, -8.2852, -0.4207, -2.9078, -8.2984, -0.5373, -2.968, -8.2562, -0.6277, -2.8998, -8.316, -0.5456, -2.9175, -8.3331, -0.6221, -2.968, -8.2562, -0.6277, -2.9078, -8.2984, -0.5373, -2.8998, -8.316, -0.5456, -3.0925, -7.9822, -0.7471, -2.9877, -7.9302, -0.6623, -3.0917, -8.0179, -0.7347, -3.0075, -7.8941, -0.6932, -2.9877, -7.9302, -0.6623, -3.0925, -7.9822, -0.7471, -2.9877, -7.9302, -0.6623, -2.968, -8.2562, -0.6277, -3.0917, -8.0179, -0.7347, -2.8204, -8.3461, -0.7965, -2.95, -8.3574, -0.7356, -2.9187, -8.3654, -0.7481, -2.8204, -8.3461, -0.7965, -3.0093, -8.2543, -0.7305, -2.95, -8.3574, -0.7356, -2.8907, -7.9221, -0.8544, -3.0093, -8.2543, -0.7305, -2.8204, -8.3461, -0.7965, -2.8907, -7.9221, -0.8544, -3.0923, -8.0242, -0.7417, -3.0093, -8.2543, -0.7305, -2.8907, -7.9221, -0.8544, -3.0941, -8.0166, -0.7425, -3.0923, -8.0242, -0.7417, -2.8907, -7.9221, -0.8544, -3.0935, -7.9843, -0.7496, -3.0941, -8.0166, -0.7425, -2.8789, -7.8674, -0.7798, -2.5334, -7.8354, -0.5731, -2.5373, -7.8336, -0.5726, -2.5373, -7.8336, -0.5726, -2.5334, -7.8354, -0.5731, -2.6725, -7.8547, -0.5066, -2.842, -7.9776, -0.369, -2.4271, -7.9667, -0.5411, -2.6838, -8.1066, -0.3591, -2.6725, -7.8547, -0.5066, -2.4271, -7.9667, -0.5411, -2.842, -7.9776, -0.369, -2.6725, -7.8547, -0.5066, -2.5334, -7.8354, -0.5731, -2.4271, -7.9667, -0.5411, -2.818, -8.2931, -0.409, -2.4067, -8.0159, -0.633, -2.7066, -8.3785, -0.6751, -2.6838, -8.1066, -0.3591, -2.4067, -8.0159, -0.633, -2.818, -8.2931, -0.409, -2.4271, -7.9667, -0.5411, -2.4067, -8.0159, -0.633, -2.6838, -8.1066, -0.3591, -2.4271, -7.9667, -0.5411, -2.4593, -7.963, -0.698, -2.4067, -8.0159, -0.633, -2.5334, -7.8354, -0.5731, -2.4593, -7.963, -0.698, -2.4271, -7.9667, -0.5411, -2.4067, -8.0159, -0.633, -2.6945, -8.3743, -0.6869, -2.7066, -8.3785, -0.6751, -2.8907, -7.9221, -0.8544, -2.8204, -8.3461, -0.7965, -2.4593, -7.963, -0.698, -2.9187, -8.3654, -0.7481, -2.818, -8.2931, -0.409, -2.7066, -8.3785, -0.6751, -2.95, -8.3574, -0.7356, -2.818, -8.2931, -0.409, -2.9187, -8.3654, -0.7481, -2.9468, -8.3548, -0.7234, -2.818, -8.2931, -0.409, -2.95, -8.3574, -0.7356, -2.9175, -8.3331, -0.6221, -2.818, -8.2931, -0.409, -2.9468, -8.3548, -0.7234, -2.8998, -8.316, -0.5456, -2.818, -8.2931, -0.409, -2.9175, -8.3331, -0.6221, -2.8902, -8.2852, -0.4207, -2.818, -8.2931, -0.409, -2.8998, -8.316, -0.5456, -2.9989, -7.9535, -0.4431, -2.9114, -7.9724, -0.3805, -2.9687, -8.0891, -0.407, -2.9989, -7.9535, -0.4431, -3.0066, -7.9195, -0.4522, -2.9114, -7.9724, -0.3805, -2.9114, -7.9724, -0.3805, -2.842, -7.9776, -0.369, -2.6838, -8.1066, -0.3591, -2.9114, -7.9724, -0.3805, -2.6725, -7.8547, -0.5066, -2.842, -7.9776, -0.369, -3.0066, -7.9195, -0.4522, -2.6725, -7.8547, -0.5066, -2.9114, -7.9724, -0.3805, -3.0096, -7.9002, -0.476, -2.6725, -7.8547, -0.5066, -3.0066, -7.9195, -0.4522, -2.8902, -8.2852, -0.4207, -2.6838, -8.1066, -0.3591, -2.818, -8.2931, -0.409, -2.9157, -8.2386, -0.4186, -2.6838, -8.1066, -0.3591, -2.8902, -8.2852, -0.4207, -2.9534, -8.1504, -0.4129, -2.6838, -8.1066, -0.3591, -2.9157, -8.2386, -0.4186, -2.9687, -8.0891, -0.407, -2.6838, -8.1066, -0.3591, -2.9534, -8.1504, -0.4129, -2.9687, -8.0891, -0.407, -2.9114, -7.9724, -0.3805, -2.6838, -8.1066, -0.3591, -2.6945, -8.3743, -0.6869, -2.9187, -8.3654, -0.7481, -2.7066, -8.3785, -0.6751, -2.8204, -8.3461, -0.7965, -2.9187, -8.3654, -0.7481, -2.6945, -8.3743, -0.6869, -3.0093, -8.2543, -0.7305, -3.0917, -8.0179, -0.7347, -2.968, -8.2562, -0.6277, -3.0923, -8.0242, -0.7417, -3.0917, -8.0179, -0.7347, -3.0093, -8.2543, -0.7305, -2.5334, -7.8354, -0.5731, -2.8907, -7.9221, -0.8544, -2.4593, -7.963, -0.698, -2.5334, -7.8354, -0.5731, -2.8789, -7.8674, -0.7798, -2.8907, -7.9221, -0.8544, -3.0941, -8.0166, -0.7425, -3.0925, -7.9822, -0.7471, -3.0917, -8.0179, -0.7347, -3.0935, -7.9843, -0.7496, -3.0925, -7.9822, -0.7471, -3.0941, -8.0166, -0.7425, -3.0075, -7.8941, -0.6932, -2.9927, -7.8877, -0.6761, -2.9877, -7.9302, -0.6623, -3.003, -7.8883, -0.6886, -2.9927, -7.8877, -0.6761, -3.0075, -7.8941, -0.6932, -3.0006, -7.8916, -0.6206, -2.6725, -7.8547, -0.5066, -3.0096, -7.9002, -0.476, -2.9927, -7.8877, -0.6761, -2.6725, -7.8547, -0.5066, -3.0006, -7.8916, -0.6206, -2.8789, -7.8674, -0.7798, -2.9927, -7.8877, -0.6761, -3.003, -7.8883, -0.6886, -2.8789, -7.8674, -0.7798, -2.6725, -7.8547, -0.5066, -2.9927, -7.8877, -0.6761, -2.5373, -7.8336, -0.5726, -2.6725, -7.8547, -0.5066, -2.8789, -7.8674, -0.7798, -3.0941, -8.0166, -0.7425, -3.0917, -8.0179, -0.7347, -3.0923, -8.0242, -0.7417, -2.9157, -8.2386, -0.4186, -2.9078, -8.2984, -0.5373, -2.9534, -8.1504, -0.4129, -2.9877, -7.9302, -0.6623, -2.9534, -8.1504, -0.4129, -2.9078, -8.2984, -0.5373, -2.9877, -7.9302, -0.6623, -2.9687, -8.0891, -0.407, -2.9534, -8.1504, -0.4129, -2.9877, -7.9302, -0.6623, -2.9989, -7.9535, -0.4431, -2.9687, -8.0891, -0.407, -2.9877, -7.9302, -0.6623, -3.0066, -7.9195, -0.4522, -2.9989, -7.9535, -0.4431, -3.0006, -7.8916, -0.6206, -3.0066, -7.9195, -0.4522, -2.9877, -7.9302, -0.6623, -3.0006, -7.8916, -0.6206, -3.0096, -7.9002, -0.476, -3.0066, -7.9195, -0.4522, -2.8907, -7.9221, -0.8544, -3.0925, -7.9822, -0.7471, -3.0935, -7.9843, -0.7496, -2.8907, -7.9221, -0.8544, -3.0075, -7.8941, -0.6932, -3.0925, -7.9822, -0.7471, -2.8789, -7.8674, -0.7798, -3.0075, -7.8941, -0.6932, -2.8907, -7.9221, -0.8544, -2.8789, -7.8674, -0.7798, -3.003, -7.8883, -0.6886, -3.0075, -7.8941, -0.6932, -3.0006, -7.8916, -0.6206, -2.9877, -7.9302, -0.6623, -2.9927, -7.8877, -0.6761, -2.9468, -8.3548, -0.7234, -2.968, -8.2562, -0.6277, -2.9175, -8.3331, -0.6221, -2.4067, -8.0159, -0.633, -2.8204, -8.3461, -0.7965, -2.6945, -8.3743, -0.6869, -2.4067, -8.0159, -0.633, -2.4593, -7.963, -0.698, -2.8204, -8.3461, -0.7965, 2.653, -13.2244, 5.5381, 2.6981, -13.2351, 5.3922, 2.5443, -13.281, 5.5312, 2.653, -13.2244, 5.5381, 2.7055, -13.2231, 5.4284, 2.6981, -13.2351, 5.3922, 2.6889, -13.2225, 5.4671, 2.7055, -13.2231, 5.4284, 2.653, -13.2244, 5.5381, 2.5443, -13.281, 5.5312, 2.5027, -13.318, 5.3915, 2.4339, -13.2868, 5.3964, 2.5744, -13.0721, 5.6812, 2.707, -12.7644, 5.4072, 2.5792, -13.0781, 5.6757, 2.5546, -12.8482, 5.6533, 2.707, -12.7644, 5.4072, 2.5744, -13.0721, 5.6812, 2.2849, -12.8178, 5.3444, 2.5546, -12.8482, 5.6533, 2.2441, -12.8752, 5.5561, 2.2849, -12.8178, 5.3444, 2.707, -12.7644, 5.4072, 2.5546, -12.8482, 5.6533, 2.5443, -13.281, 5.5312, 2.6442, -13.2621, 5.3626, 2.5027, -13.318, 5.3915, 2.6981, -13.2351, 5.3922, 2.6442, -13.2621, 5.3626, 2.5443, -13.281, 5.5312, 2.6981, -13.2351, 5.3922, 2.6938, -13.2398, 5.3712, 2.6442, -13.2621, 5.3626, 2.3611, -13.1611, 5.6212, 2.5744, -13.0721, 5.6812, 2.4092, -13.1758, 5.6381, 2.268, -13.1046, 5.5858, 2.5744, -13.0721, 5.6812, 2.3611, -13.1611, 5.6212, 2.213, -13.0636, 5.5642, 2.5744, -13.0721, 5.6812, 2.268, -13.1046, 5.5858, 2.213, -13.0636, 5.5642, 2.5546, -12.8482, 5.6533, 2.5744, -13.0721, 5.6812, 2.1806, -13.029, 5.5504, 2.5546, -12.8482, 5.6533, 2.213, -13.0636, 5.5642, 2.2441, -12.8752, 5.5561, 2.5546, -12.8482, 5.6533, 2.1806, -13.029, 5.5504, 2.6889, -13.2225, 5.4671, 2.707, -12.7644, 5.4072, 2.7055, -13.2231, 5.4284, 2.3189, -13.2214, 5.4026, 2.3611, -13.1611, 5.6212, 2.3533, -13.248, 5.4019, 2.268, -13.1046, 5.5858, 2.3611, -13.1611, 5.6212, 2.3189, -13.2214, 5.4026, 2.1737, -13.0678, 5.434, 2.1783, -13.0865, 5.4016, 2.1724, -13.0774, 5.401, 2.2849, -12.8178, 5.3444, 2.1737, -13.0678, 5.434, 2.1724, -13.0774, 5.401, 2.2849, -12.8178, 5.3444, 2.1806, -13.029, 5.5504, 2.1737, -13.0678, 5.434, 2.2849, -12.8178, 5.3444, 2.2441, -12.8752, 5.5561, 2.1806, -13.029, 5.5504, 2.1783, -13.0865, 5.4016, 2.213, -13.0636, 5.5642, 2.2049, -13.1189, 5.4029, 2.1737, -13.0678, 5.434, 2.213, -13.0636, 5.5642, 2.1783, -13.0865, 5.4016, 2.1806, -13.029, 5.5504, 2.213, -13.0636, 5.5642, 2.1737, -13.0678, 5.434, 2.4092, -13.1758, 5.6381, 2.6043, -13.1334, 5.6291, 2.5443, -13.281, 5.5312, 2.5744, -13.0721, 5.6812, 2.6043, -13.1334, 5.6291, 2.4092, -13.1758, 5.6381, 2.5744, -13.0721, 5.6812, 2.5792, -13.0781, 5.6757, 2.6043, -13.1334, 5.6291, 2.3533, -13.248, 5.4019, 2.5443, -13.281, 5.5312, 2.4339, -13.2868, 5.3964, 2.3533, -13.248, 5.4019, 2.4092, -13.1758, 5.6381, 2.5443, -13.281, 5.5312, 2.3611, -13.1611, 5.6212, 2.4092, -13.1758, 5.6381, 2.3533, -13.248, 5.4019, 2.653, -13.2244, 5.5381, 2.5443, -13.281, 5.5312, 2.6043, -13.1334, 5.6291, 2.6981, -13.2351, 5.3922, 2.707, -12.7644, 5.4072, 2.6938, -13.2398, 5.3712, 2.7055, -13.2231, 5.4284, 2.707, -12.7644, 5.4072, 2.6981, -13.2351, 5.3922, 2.6938, -13.2398, 5.3712, 2.2849, -12.8178, 5.3444, 2.6442, -13.2621, 5.3626, 2.707, -12.7644, 5.4072, 2.2849, -12.8178, 5.3444, 2.6938, -13.2398, 5.3712, 2.6043, -13.1334, 5.6291, 2.6889, -13.2225, 5.4671, 2.653, -13.2244, 5.5381, 2.6043, -13.1334, 5.6291, 2.707, -12.7644, 5.4072, 2.6889, -13.2225, 5.4671, 2.5792, -13.0781, 5.6757, 2.707, -12.7644, 5.4072, 2.6043, -13.1334, 5.6291, 2.2049, -13.1189, 5.4029, 2.268, -13.1046, 5.5858, 2.3189, -13.2214, 5.4026, 2.213, -13.0636, 5.5642, 2.268, -13.1046, 5.5858, 2.2049, -13.1189, 5.4029, 2.6442, -13.2621, 5.3626, 2.4339, -13.2868, 5.3964, 2.5027, -13.318, 5.3915, 2.6442, -13.2621, 5.3626, 2.3533, -13.248, 5.4019, 2.4339, -13.2868, 5.3964, 2.2849, -12.8178, 5.3444, 2.3533, -13.248, 5.4019, 2.6442, -13.2621, 5.3626, 2.2849, -12.8178, 5.3444, 2.3189, -13.2214, 5.4026, 2.3533, -13.248, 5.4019, 2.2849, -12.8178, 5.3444, 2.2049, -13.1189, 5.4029, 2.3189, -13.2214, 5.4026, 2.2849, -12.8178, 5.3444, 2.1783, -13.0865, 5.4016, 2.2049, -13.1189, 5.4029, 2.2849, -12.8178, 5.3444, 2.1724, -13.0774, 5.401, 2.1783, -13.0865, 5.4016, 8.3859, -1.4924, -2.0711, 8.2774, -1.4033, -2.1347, 8.3619, -1.5029, -2.1212, 8.3686, -1.4659, -2.0666, 8.2774, -1.4033, -2.1347, 8.3859, -1.4924, -2.0711, 8.2774, -1.4033, -2.1347, 8.1959, -1.4607, -2.291, 8.3619, -1.5029, -2.1212, 8.2774, -1.4033, -2.1347, 8.1958, -1.3847, -2.2202, 8.1959, -1.4607, -2.291, 8.2485, -1.3849, -2.154, 8.1958, -1.3847, -2.2202, 8.2774, -1.4033, -2.1347, 8.3922, -1.6306, -2.103, 8.323, -1.6098, -2.242, 8.3773, -1.6418, -2.1386, 8.3965, -1.6077, -2.0856, 8.323, -1.6098, -2.242, 8.3922, -1.6306, -2.103, 8.3965, -1.6077, -2.0856, 8.3619, -1.5029, -2.1212, 8.323, -1.6098, -2.242, 8.3931, -1.5573, -2.0754, 8.3619, -1.5029, -2.1212, 8.3965, -1.6077, -2.0856, 8.3927, -1.5536, -2.0751, 8.3619, -1.5029, -2.1212, 8.3931, -1.5573, -2.0754, 8.3859, -1.4924, -2.0711, 8.3619, -1.5029, -2.1212, 8.3927, -1.5536, -2.0751, 8.3619, -1.5029, -2.1212, 8.25, -1.6095, -2.3295, 8.323, -1.6098, -2.242, 8.3619, -1.5029, -2.1212, 8.1959, -1.4607, -2.291, 8.25, -1.6095, -2.3295, 8.19, -1.6101, -2.4001, 8.1176, -1.5362, -2.4173, 8.1838, -1.6109, -2.4065, 8.1959, -1.4607, -2.291, 8.1176, -1.5362, -2.4173, 8.19, -1.6101, -2.4001, 8.1959, -1.4607, -2.291, 8.0619, -1.4333, -2.3987, 8.1176, -1.5362, -2.4173, 8.0619, -1.4333, -2.3987, 7.955, -1.4913, -2.3839, 8.1176, -1.5362, -2.4173, 8.0619, -1.4333, -2.3987, 7.9498, -1.4666, -2.381, 7.955, -1.4913, -2.3839, 8.0619, -1.4333, -2.3987, 7.9707, -1.406, -2.3798, 7.9498, -1.4666, -2.381, 8.035, -1.3961, -2.3908, 7.9707, -1.406, -2.3798, 8.0619, -1.4333, -2.3987, 8.035, -1.3961, -2.3908, 8.0309, -1.3908, -2.3896, 7.9707, -1.406, -2.3798, 7.9099, -1.5133, -1.9825, 8.3927, -1.5536, -2.0751, 8.0262, -1.8448, -2.0194, 7.9099, -1.5133, -1.9825, 8.3859, -1.4924, -2.0711, 8.3927, -1.5536, -2.0751, 7.9098, -1.4911, -1.9815, 8.3859, -1.4924, -2.0711, 7.9099, -1.5133, -1.9825, 7.9098, -1.4911, -1.9815, 8.3686, -1.4659, -2.0666, 8.3859, -1.4924, -2.0711, 8.1065, -1.4413, -2.0162, 8.3686, -1.4659, -2.0666, 7.9098, -1.4911, -1.9815, 7.894, -1.4965, -2.0027, 7.9099, -1.5133, -1.9825, 7.8691, -1.7286, -2.0964, 8.0495, -1.8734, -2.2499, 7.955, -1.4913, -2.3839, 8.0332, -1.8879, -2.2323, 8.0495, -1.8734, -2.2499, 8.0332, -1.8879, -2.2323, 8.0347, -1.8903, -2.2261, 7.9098, -1.4911, -1.9815, 7.9099, -1.5133, -1.9825, 7.894, -1.4965, -2.0027, 7.9547, -1.8505, -2.1367, 8.0466, -1.8737, -2.0614, 8.0201, -1.8953, -2.1528, 7.9547, -1.8505, -2.1367, 8.0391, -1.8534, -2.0223, 8.0466, -1.8737, -2.0614, 7.9547, -1.8505, -2.1367, 8.0262, -1.8448, -2.0194, 8.0391, -1.8534, -2.0223, 7.955, -1.4913, -2.3839, 7.8691, -1.7286, -2.0964, 8.0332, -1.8879, -2.2323, 8.0332, -1.8879, -2.2323, 7.8691, -1.7286, -2.0964, 7.9547, -1.8505, -2.1367, 7.894, -1.4965, -2.0027, 7.8691, -1.7286, -2.0964, 7.8617, -1.5237, -2.1551, 8.0332, -1.8879, -2.2323, 7.9547, -1.8505, -2.1367, 8.0347, -1.8903, -2.2261, 8.0347, -1.8903, -2.2261, 7.9547, -1.8505, -2.1367, 8.0221, -1.8957, -2.1584, 8.0347, -1.8903, -2.2261, 8.0221, -1.8957, -2.1584, 8.0638, -1.8911, -2.2021, 8.0638, -1.8911, -2.2021, 8.0221, -1.8957, -2.1584, 8.0774, -1.8871, -2.2, 7.8695, -1.4745, -2.1239, 8.1065, -1.4413, -2.0162, 7.9098, -1.4911, -1.9815, 7.9707, -1.406, -2.3798, 8.1065, -1.4413, -2.0162, 7.8695, -1.4745, -2.1239, 7.9707, -1.406, -2.3798, 8.2485, -1.3849, -2.154, 8.1065, -1.4413, -2.0162, 8.0309, -1.3908, -2.3896, 8.2485, -1.3849, -2.154, 7.9707, -1.406, -2.3798, 8.0455, -1.3902, -2.3748, 8.2485, -1.3849, -2.154, 8.0309, -1.3908, -2.3896, 8.1958, -1.3847, -2.2202, 8.2485, -1.3849, -2.154, 8.0455, -1.3902, -2.3748, 7.9498, -1.4666, -2.381, 7.8695, -1.4745, -2.1239, 7.8617, -1.5237, -2.1551, 7.9498, -1.4666, -2.381, 7.9707, -1.406, -2.3798, 7.8695, -1.4745, -2.1239, 8.0262, -1.8448, -2.0194, 8.3931, -1.5573, -2.0754, 8.0391, -1.8534, -2.0223, 8.3927, -1.5536, -2.0751, 8.3931, -1.5573, -2.0754, 8.0262, -1.8448, -2.0194, 8.2447, -1.8224, -2.0788, 8.0495, -1.8734, -2.2499, 8.0774, -1.8871, -2.2, 8.2447, -1.8224, -2.0788, 8.1838, -1.6109, -2.4065, 8.0495, -1.8734, -2.2499, 8.385, -1.6532, -2.1157, 8.1838, -1.6109, -2.4065, 8.2447, -1.8224, -2.0788, 8.3773, -1.6418, -2.1386, 8.1838, -1.6109, -2.4065, 8.385, -1.6532, -2.1157, 8.323, -1.6098, -2.242, 8.1838, -1.6109, -2.4065, 8.3773, -1.6418, -2.1386, 8.323, -1.6098, -2.242, 8.19, -1.6101, -2.4001, 8.1838, -1.6109, -2.4065, 8.323, -1.6098, -2.242, 8.25, -1.6095, -2.3295, 8.19, -1.6101, -2.4001, 7.9099, -1.5133, -1.9825, 8.0262, -1.8448, -2.0194, 7.8691, -1.7286, -2.0964, 7.8691, -1.7286, -2.0964, 8.0262, -1.8448, -2.0194, 7.9547, -1.8505, -2.1367, 8.1838, -1.6109, -2.4065, 7.955, -1.4913, -2.3839, 8.0495, -1.8734, -2.2499, 8.1176, -1.5362, -2.4173, 7.955, -1.4913, -2.3839, 8.1838, -1.6109, -2.4065, 7.955, -1.4913, -2.3839, 7.8617, -1.5237, -2.1551, 7.8691, -1.7286, -2.0964, 7.955, -1.4913, -2.3839, 7.9498, -1.4666, -2.381, 7.8617, -1.5237, -2.1551, 7.9547, -1.8505, -2.1367, 8.0201, -1.8953, -2.1528, 8.0221, -1.8957, -2.1584, 8.0221, -1.8957, -2.1584, 8.0201, -1.8953, -2.1528, 8.0466, -1.8737, -2.0614, 8.0466, -1.8737, -2.0614, 8.0774, -1.8871, -2.2, 8.0221, -1.8957, -2.1584, 8.0466, -1.8737, -2.0614, 8.2447, -1.8224, -2.0788, 8.0774, -1.8871, -2.2, 8.2447, -1.8224, -2.0788, 8.0466, -1.8737, -2.0614, 8.0391, -1.8534, -2.0223, 8.3931, -1.5573, -2.0754, 8.2447, -1.8224, -2.0788, 8.0391, -1.8534, -2.0223, 8.3931, -1.5573, -2.0754, 8.3965, -1.6077, -2.0856, 8.2447, -1.8224, -2.0788, 8.3965, -1.6077, -2.0856, 8.385, -1.6532, -2.1157, 8.2447, -1.8224, -2.0788, 8.3965, -1.6077, -2.0856, 8.3922, -1.6306, -2.103, 8.385, -1.6532, -2.1157, 7.9098, -1.4911, -1.9815, 7.894, -1.4965, -2.0027, 7.8695, -1.4745, -2.1239, 7.8695, -1.4745, -2.1239, 7.894, -1.4965, -2.0027, 7.8617, -1.5237, -2.1551, 8.1065, -1.4413, -2.0162, 8.2774, -1.4033, -2.1347, 8.3686, -1.4659, -2.0666, 8.2485, -1.3849, -2.154, 8.2774, -1.4033, -2.1347, 8.1065, -1.4413, -2.0162, 8.3922, -1.6306, -2.103, 8.3773, -1.6418, -2.1386, 8.385, -1.6532, -2.1157, 8.035, -1.3961, -2.3908, 8.0455, -1.3902, -2.3748, 8.0309, -1.3908, -2.3896, 8.1958, -1.3847, -2.2202, 8.0619, -1.4333, -2.3987, 8.1959, -1.4607, -2.291, 8.1958, -1.3847, -2.2202, 8.035, -1.3961, -2.3908, 8.0619, -1.4333, -2.3987, 8.1958, -1.3847, -2.2202, 8.0455, -1.3902, -2.3748, 8.035, -1.3961, -2.3908, 8.0774, -1.8871, -2.2, 8.0347, -1.8903, -2.2261, 8.0638, -1.8911, -2.2021, 8.0774, -1.8871, -2.2, 8.0495, -1.8734, -2.2499, 8.0347, -1.8903, -2.2261, 8.25, -1.6095, -2.3295, 8.1959, -1.4607, -2.291, 8.19, -1.6101, -2.4001, 9.7303, -9.5053, -1.1038, 9.7982, -9.498, -1.1751, 9.8183, -9.492, -1.1721, 9.7882, -9.8114, -0.9894, 9.8869, -9.8986, -0.9804, 9.8493, -9.9217, -0.9879, 9.7882, -9.8114, -0.9894, 10.0891, -9.7373, -0.9375, 9.8869, -9.8986, -0.9804, 9.7696, -9.4733, -0.9681, 10.0891, -9.7373, -0.9375, 9.7882, -9.8114, -0.9894, 9.7696, -9.4733, -0.9681, 10.1282, -9.6915, -0.9282, 10.0891, -9.7373, -0.9375, 9.7696, -9.4733, -0.9681, 10.168, -9.6207, -0.9169, 10.1282, -9.6915, -0.9282, 9.7696, -9.4733, -0.9681, 10.1904, -9.544, -0.908, 10.168, -9.6207, -0.9169, 9.7696, -9.4733, -0.9681, 10.0438, -9.4173, -0.9216, 10.1904, -9.544, -0.908, 9.8183, -9.492, -1.1721, 9.7696, -9.4733, -0.9681, 9.7303, -9.5053, -1.1038, 10.0669, -9.3958, -0.9919, 9.7696, -9.4733, -0.9681, 9.8183, -9.492, -1.1721, 10.0669, -9.3958, -0.9919, 10.0426, -9.3968, -0.9558, 9.7696, -9.4733, -0.9681, 10.038, -9.6931, -1.2998, 9.7982, -9.498, -1.1751, 10.0367, -9.6942, -1.3004, 9.8183, -9.492, -1.1721, 9.7982, -9.498, -1.1751, 10.038, -9.6931, -1.2998, 9.7696, -9.4733, -0.9681, 10.0426, -9.3968, -0.9558, 10.0438, -9.4173, -0.9216, 9.7303, -9.5056, -1.1038, 9.7696, -9.4733, -0.9681, 9.7882, -9.8114, -0.9894, 9.7303, -9.5053, -1.1038, 9.7696, -9.4733, -0.9681, 9.7303, -9.5056, -1.1038, 10.0668, -9.6693, -1.2863, 9.8183, -9.492, -1.1721, 10.038, -9.6931, -1.2998, 10.1087, -9.6245, -1.2605, 9.8183, -9.492, -1.1721, 10.0668, -9.6693, -1.2863, 10.1435, -9.5696, -1.2284, 9.8183, -9.492, -1.1721, 10.1087, -9.6245, -1.2605, 10.1694, -9.5017, -1.1883, 9.8183, -9.492, -1.1721, 10.1435, -9.5696, -1.2284, 10.2103, -9.4524, -1.0964, 9.8183, -9.492, -1.1721, 10.1694, -9.5017, -1.1883, 10.2103, -9.4524, -1.0964, 10.0669, -9.3958, -0.9919, 9.8183, -9.492, -1.1721, 10.0426, -9.3968, -0.9558, 10.2103, -9.4524, -1.0964, 10.2118, -9.4577, -1.0893, 10.0426, -9.3968, -0.9558, 10.0669, -9.3958, -0.9919, 10.2103, -9.4524, -1.0964, 10.0438, -9.4173, -0.9216, 10.2118, -9.4577, -1.0893, 10.2147, -9.4675, -1.0762, 10.0438, -9.4173, -0.9216, 10.0426, -9.3968, -0.9558, 10.2118, -9.4577, -1.0893, 9.7303, -9.5056, -1.1038, 9.7882, -9.8114, -0.9894, 9.7304, -9.5053, -1.1041, 9.7303, -9.5056, -1.1038, 9.7304, -9.5053, -1.1041, 9.7303, -9.5053, -1.1038, 10.0438, -9.4173, -0.9216, 10.2105, -9.5248, -0.9702, 10.1904, -9.544, -0.908, 10.0438, -9.4173, -0.9216, 10.219, -9.4819, -1.0572, 10.2105, -9.5248, -0.9702, 10.0438, -9.4173, -0.9216, 10.2147, -9.4675, -1.0762, 10.219, -9.4819, -1.0572, 9.9037, -9.8858, -1.0617, 9.7882, -9.8114, -0.9894, 9.8493, -9.9217, -0.9879, 9.9592, -9.8423, -1.1408, 9.7882, -9.8114, -0.9894, 9.9037, -9.8858, -1.0617, 10.0127, -9.747, -1.2471, 9.7882, -9.8114, -0.9894, 9.9592, -9.8423, -1.1408, 10.0127, -9.747, -1.2471, 9.7304, -9.5053, -1.1041, 9.7882, -9.8114, -0.9894, 10.0367, -9.6942, -1.3004, 9.7304, -9.5053, -1.1041, 10.0127, -9.747, -1.2471, 9.7982, -9.498, -1.1751, 9.7304, -9.5053, -1.1041, 10.0367, -9.6942, -1.3004, 9.7304, -9.5053, -1.1041, 9.7982, -9.498, -1.1751, 9.7303, -9.5053, -1.1038, 10.0891, -9.7373, -0.9375, 10.0127, -9.747, -1.2471, 9.9592, -9.8423, -1.1408, 10.0891, -9.7373, -0.9375, 10.0668, -9.6693, -1.2863, 10.0127, -9.747, -1.2471, 10.1282, -9.6915, -0.9282, 10.0668, -9.6693, -1.2863, 10.0891, -9.7373, -0.9375, 10.1087, -9.6245, -1.2605, 10.0668, -9.6693, -1.2863, 10.1282, -9.6915, -0.9282, 10.168, -9.6207, -0.9169, 10.1087, -9.6245, -1.2605, 10.1282, -9.6915, -0.9282, 10.168, -9.6207, -0.9169, 10.1435, -9.5696, -1.2284, 10.1087, -9.6245, -1.2605, 10.2105, -9.5248, -0.9702, 10.1435, -9.5696, -1.2284, 10.168, -9.6207, -0.9169, 10.2105, -9.5248, -0.9702, 10.219, -9.4819, -1.0572, 10.1435, -9.5696, -1.2284, 10.2105, -9.5248, -0.9702, 10.168, -9.6207, -0.9169, 10.1904, -9.544, -0.908, 9.8869, -9.8986, -0.9804, 9.9037, -9.8858, -1.0617, 9.8493, -9.9217, -0.9879, 10.219, -9.4819, -1.0572, 10.1694, -9.5017, -1.1883, 10.1435, -9.5696, -1.2284, 10.219, -9.4819, -1.0572, 10.2118, -9.4577, -1.0893, 10.1694, -9.5017, -1.1883, 10.2118, -9.4577, -1.0893, 10.2103, -9.4524, -1.0964, 10.1694, -9.5017, -1.1883, 10.2147, -9.4675, -1.0762, 10.2118, -9.4577, -1.0893, 10.219, -9.4819, -1.0572, 10.0891, -9.7373, -0.9375, 9.9037, -9.8858, -1.0617, 9.8869, -9.8986, -0.9804, 10.0891, -9.7373, -0.9375, 9.9592, -9.8423, -1.1408, 9.9037, -9.8858, -1.0617, 10.0668, -9.6693, -1.2863, 10.0367, -9.6942, -1.3004, 10.0127, -9.747, -1.2471, 10.0668, -9.6693, -1.2863, 10.038, -9.6931, -1.2998, 10.0367, -9.6942, -1.3004, 5.0783, -7.7951, -2.999, 5.0911, -7.8068, -2.9629, 5.1597, -7.804, -2.9687, 5.0866, -7.7872, -3.1541, 5.0783, -7.7951, -2.999, 5.2622, -7.6818, -3.1777, 5.2832, -7.7883, -2.9766, 5.0783, -7.7951, -2.999, 5.1597, -7.804, -2.9687, 5.2832, -7.7883, -2.9766, 5.2622, -7.6818, -3.1777, 5.0783, -7.7951, -2.999, 5.3149, -7.7332, -3.0732, 5.2622, -7.6818, -3.1777, 5.2832, -7.7883, -2.9766, 5.2622, -7.6818, -3.1777, 5.3149, -7.7332, -3.0732, 5.3726, -7.6165, -3.2187, 5.2622, -7.6818, -3.1777, 5.0561, -7.7389, -3.267, 5.0866, -7.7872, -3.1541, 5.2622, -7.6818, -3.1777, 5.1431, -7.6881, -3.2763, 5.0561, -7.7389, -3.267, 5.1431, -7.6881, -3.2763, 4.9497, -7.7291, -3.2739, 5.0561, -7.7389, -3.267, 5.1431, -7.6881, -3.2763, 4.9185, -7.7206, -3.2774, 4.9497, -7.7291, -3.2739, 5.1431, -7.6881, -3.2763, 4.9515, -7.3847, -3.3611, 4.9185, -7.7206, -3.2774, 5.3859, -7.5113, -3.3109, 4.9515, -7.3847, -3.3611, 5.1431, -7.6881, -3.2763, 5.0034, -7.3396, -3.3704, 4.9515, -7.3847, -3.3611, 5.3859, -7.5113, -3.3109, 5.0034, -7.3396, -3.3704, 4.8845, -7.347, -3.2654, 4.9515, -7.3847, -3.3611, 5.0034, -7.3396, -3.3704, 4.9076, -7.2979, -3.2441, 4.8845, -7.347, -3.2654, 5.0054, -7.3058, -3.3427, 4.9076, -7.2979, -3.2441, 5.0034, -7.3396, -3.3704, 5.3967, -7.3517, -2.8899, 5.4139, -7.5167, -3.301, 5.4142, -7.5187, -3.2992, 5.3967, -7.3517, -2.8899, 5.403, -7.434, -3.2415, 5.4139, -7.5167, -3.301, 5.403, -7.434, -3.2415, 5.3967, -7.3517, -2.8899, 5.2586, -7.2341, -2.9619, 4.8835, -7.6133, -3.0294, 5.2981, -7.2843, -2.8648, 5.0109, -7.6418, -2.9184, 4.9534, -7.2786, -3.1317, 5.2981, -7.2843, -2.8648, 4.8835, -7.6133, -3.0294, 4.9534, -7.2786, -3.1317, 5.2446, -7.2305, -2.9308, 5.2981, -7.2843, -2.8648, 4.9185, -7.7206, -3.2774, 4.8257, -7.6833, -3.1433, 4.8739, -7.7475, -3.2083, 4.9515, -7.3847, -3.3611, 4.8257, -7.6833, -3.1433, 4.9185, -7.7206, -3.2774, 4.9515, -7.3847, -3.3611, 4.8845, -7.347, -3.2654, 4.8257, -7.6833, -3.1433, 4.8835, -7.6133, -3.0294, 4.8257, -7.6833, -3.1433, 4.8238, -7.6775, -3.141, 4.8238, -7.6775, -3.141, 4.8257, -7.6833, -3.1433, 4.8845, -7.347, -3.2654, 5.403, -7.434, -3.2415, 5.3872, -7.511, -3.3101, 5.4139, -7.5167, -3.301, 5.3872, -7.511, -3.3101, 5.0034, -7.3396, -3.3704, 5.3859, -7.5113, -3.3109, 5.403, -7.434, -3.2415, 5.0034, -7.3396, -3.3704, 5.3872, -7.511, -3.3101, 5.1174, -7.2883, -3.272, 5.0034, -7.3396, -3.3704, 5.403, -7.434, -3.2415, 5.1174, -7.2883, -3.272, 5.0054, -7.3058, -3.3427, 5.0034, -7.3396, -3.3704, 4.9212, -7.769, -3.1719, 5.0591, -7.8025, -2.995, 5.0279, -7.8117, -3.0756, 4.9212, -7.769, -3.1719, 5.0607, -7.8011, -2.9887, 5.0591, -7.8025, -2.995, 4.9212, -7.769, -3.1719, 4.8257, -7.6833, -3.1433, 5.0607, -7.8011, -2.9887, 4.8896, -7.7558, -3.199, 4.8257, -7.6833, -3.1433, 4.9212, -7.769, -3.1719, 4.8739, -7.7475, -3.2083, 4.8257, -7.6833, -3.1433, 4.8896, -7.7558, -3.199, 5.3967, -7.3517, -2.8899, 5.3964, -7.3524, -2.8891, 5.2981, -7.2843, -2.8648, 4.8845, -7.347, -3.2654, 4.8835, -7.6133, -3.0294, 4.8238, -7.6775, -3.141, 4.8845, -7.347, -3.2654, 4.9534, -7.2786, -3.1317, 4.8835, -7.6133, -3.0294, 4.9076, -7.2979, -3.2441, 4.9534, -7.2786, -3.1317, 4.8845, -7.347, -3.2654, 5.0109, -7.6418, -2.9184, 5.0911, -7.8068, -2.9629, 5.0898, -7.8068, -2.9628, 5.0109, -7.6418, -2.9184, 5.1597, -7.804, -2.9687, 5.0911, -7.8068, -2.9629, 5.0109, -7.6418, -2.9184, 5.2832, -7.7883, -2.9766, 5.1597, -7.804, -2.9687, 5.0109, -7.6418, -2.9184, 5.3964, -7.3524, -2.8891, 5.2832, -7.7883, -2.9766, 5.2981, -7.2843, -2.8648, 5.3964, -7.3524, -2.8891, 5.0109, -7.6418, -2.9184, 5.2981, -7.2843, -2.8648, 5.2586, -7.2341, -2.9619, 5.3967, -7.3517, -2.8899, 5.2446, -7.2305, -2.9308, 5.2586, -7.2341, -2.9619, 5.2981, -7.2843, -2.8648, 5.1174, -7.2883, -3.272, 5.403, -7.434, -3.2415, 5.2586, -7.2341, -2.9619, 5.1174, -7.2883, -3.272, 4.9076, -7.2979, -3.2441, 5.0054, -7.3058, -3.3427, 5.1174, -7.2883, -3.272, 4.9534, -7.2786, -3.1317, 4.9076, -7.2979, -3.2441, 5.2586, -7.2341, -2.9619, 4.9534, -7.2786, -3.1317, 5.1174, -7.2883, -3.272, 5.2586, -7.2341, -2.9619, 5.2446, -7.2305, -2.9308, 4.9534, -7.2786, -3.1317, 4.9497, -7.7291, -3.2739, 4.8739, -7.7475, -3.2083, 4.8896, -7.7558, -3.199, 4.9497, -7.7291, -3.2739, 4.9185, -7.7206, -3.2774, 4.8739, -7.7475, -3.2083, 5.0561, -7.7389, -3.267, 4.9212, -7.769, -3.1719, 5.0866, -7.7872, -3.1541, 5.0561, -7.7389, -3.267, 4.8896, -7.7558, -3.199, 4.9212, -7.769, -3.1719, 5.0561, -7.7389, -3.267, 4.9497, -7.7291, -3.2739, 4.8896, -7.7558, -3.199, 5.4142, -7.5187, -3.2992, 5.3964, -7.3524, -2.8891, 5.3967, -7.3517, -2.8899, 5.0279, -7.8117, -3.0756, 5.0866, -7.7872, -3.1541, 4.9212, -7.769, -3.1719, 5.3964, -7.3524, -2.8891, 5.3149, -7.7332, -3.0732, 5.2832, -7.7883, -2.9766, 5.3964, -7.3524, -2.8891, 5.3726, -7.6165, -3.2187, 5.3149, -7.7332, -3.0732, 5.3964, -7.3524, -2.8891, 5.4142, -7.5187, -3.2992, 5.3726, -7.6165, -3.2187, 5.2622, -7.6818, -3.1777, 5.3859, -7.5113, -3.3109, 5.1431, -7.6881, -3.2763, 5.3872, -7.511, -3.3101, 5.3859, -7.5113, -3.3109, 5.2622, -7.6818, -3.1777, 5.0591, -7.8025, -2.995, 5.0866, -7.7872, -3.1541, 5.0279, -7.8117, -3.0756, 5.0783, -7.7951, -2.999, 5.0866, -7.7872, -3.1541, 5.0591, -7.8025, -2.995, 5.0607, -7.8011, -2.9887, 5.0783, -7.7951, -2.999, 5.0591, -7.8025, -2.995, 5.0637, -7.7994, -2.9843, 5.0783, -7.7951, -2.999, 5.0607, -7.8011, -2.9887, 5.0637, -7.7994, -2.9843, 5.0109, -7.6418, -2.9184, 5.0898, -7.8068, -2.9628, 4.8257, -7.6833, -3.1433, 5.0637, -7.7994, -2.9843, 5.0607, -7.8011, -2.9887, 4.8257, -7.6833, -3.1433, 5.0109, -7.6418, -2.9184, 5.0637, -7.7994, -2.9843, 4.8835, -7.6133, -3.0294, 5.0109, -7.6418, -2.9184, 4.8257, -7.6833, -3.1433, 5.0911, -7.8068, -2.9629, 5.0637, -7.7994, -2.9843, 5.0898, -7.8068, -2.9628, 5.0783, -7.7951, -2.999, 5.0637, -7.7994, -2.9843, 5.0911, -7.8068, -2.9629, 5.3726, -7.6165, -3.2187, 5.3872, -7.511, -3.3101, 5.2622, -7.6818, -3.1777, 5.4142, -7.5187, -3.2992, 5.3872, -7.511, -3.3101, 5.3726, -7.6165, -3.2187, 5.4139, -7.5167, -3.301, 5.3872, -7.511, -3.3101, 5.4142, -7.5187, -3.2992, 0.7482, -0.2054, -5.0371, 0.7178, -0.2104, -5.0443, 0.7321, -0.2114, -5.0486, 0.7482, -0.2054, -5.0371, 0.6713, -0.1933, -4.9986, 0.7178, -0.2104, -5.0443, 0.9099, -0.1258, -4.8783, 0.6713, -0.1933, -4.9986, 0.7482, -0.2054, -5.0371, 0.9099, -0.1258, -4.8783, 0.6408, -0.1641, -4.9277, 0.6713, -0.1933, -4.9986, 0.9099, -0.1258, -4.8783, 0.6269, -0.1495, -4.8923, 0.6408, -0.1641, -4.9277, 0.9099, -0.1258, -4.8783, 0.9525, -0.0948, -4.8135, 0.6269, -0.1495, -4.8923, 0.9326, -0.1224, -4.8738, 0.9525, -0.0948, -4.8135, 0.9099, -0.1258, -4.8783, 0.7608, -0.4191, -4.9532, 0.5794, -0.2839, -4.8224, 0.6216, -0.4326, -4.7718, 0.7838, -0.3134, -5.0548, 0.5794, -0.2839, -4.8224, 0.7608, -0.4191, -4.9532, 0.7741, -0.2897, -5.059, 0.5794, -0.2839, -4.8224, 0.7838, -0.3134, -5.0548, 0.7736, -0.2889, -5.059, 0.5794, -0.2839, -4.8224, 0.7741, -0.2897, -5.059, 0.7725, -0.2872, -5.0589, 0.5794, -0.2839, -4.8224, 0.7736, -0.2889, -5.059, 0.7178, -0.2104, -5.0443, 0.5794, -0.2839, -4.8224, 0.7725, -0.2872, -5.0589, 0.7178, -0.2104, -5.0443, 0.6522, -0.2075, -4.9652, 0.5794, -0.2839, -4.8224, 0.6713, -0.1933, -4.9986, 0.6522, -0.2075, -4.9652, 0.7178, -0.2104, -5.0443, 0.7161, -0.4987, -4.7697, 0.6216, -0.4326, -4.7718, 0.6296, -0.4484, -4.7545, 0.6296, -0.4484, -4.7545, 0.6216, -0.4326, -4.7718, 0.6521, -0.4252, -4.663, 0.7608, -0.4191, -4.9532, 0.6216, -0.4326, -4.7718, 0.7161, -0.4987, -4.7697, 0.6296, -0.4484, -4.7545, 0.6521, -0.4252, -4.663, 0.7161, -0.4987, -4.7697, 0.955, -0.4554, -4.5785, 0.8154, -0.3035, -5.0405, 0.8586, -0.4924, -4.7905, 0.9818, -0.1213, -4.7642, 0.8154, -0.3035, -5.0405, 0.955, -0.4554, -4.5785, 0.9818, -0.1213, -4.7642, 0.8227, -0.2902, -5.0325, 0.8154, -0.3035, -5.0405, 0.9818, -0.1213, -4.7642, 0.8539, -0.2393, -4.9932, 0.8227, -0.2902, -5.0325, 0.9818, -0.1213, -4.7642, 0.9256, -0.148, -4.8838, 0.8539, -0.2393, -4.9932, 0.9818, -0.1213, -4.7642, 0.9336, -0.1311, -4.8767, 0.9256, -0.148, -4.8838, 0.6521, -0.4252, -4.663, 0.8936, -0.3639, -4.4695, 0.9452, -0.4529, -4.5566, 0.6603, -0.387, -4.611, 0.8936, -0.3639, -4.4695, 0.6521, -0.4252, -4.663, 0.7608, -0.4191, -4.9532, 0.7161, -0.4987, -4.7697, 0.8586, -0.4924, -4.7905, 0.8154, -0.3035, -5.0405, 0.7608, -0.4191, -4.9532, 0.8586, -0.4924, -4.7905, 0.8154, -0.3035, -5.0405, 0.7848, -0.3123, -5.0553, 0.7608, -0.4191, -4.9532, 0.8154, -0.3035, -5.0405, 0.7879, -0.3084, -5.0571, 0.7848, -0.3123, -5.0553, 0.5794, -0.2839, -4.8224, 0.6521, -0.4252, -4.663, 0.6216, -0.4326, -4.7718, 0.5794, -0.2839, -4.8224, 0.6603, -0.387, -4.611, 0.6521, -0.4252, -4.663, 0.5794, -0.2839, -4.8224, 0.5956, -0.1877, -4.7066, 0.6603, -0.387, -4.611, 0.5739, -0.1961, -4.786, 0.5956, -0.1877, -4.7066, 0.5794, -0.2839, -4.8224, 0.5735, -0.1803, -4.7774, 0.5956, -0.1877, -4.7066, 0.5739, -0.1961, -4.786, 0.9452, -0.4529, -4.5566, 0.9818, -0.1213, -4.7642, 0.955, -0.4554, -4.5785, 0.8936, -0.3639, -4.4695, 0.9818, -0.1213, -4.7642, 0.9452, -0.4529, -4.5566, 0.8869, -0.1569, -4.5305, 0.9818, -0.1213, -4.7642, 0.8936, -0.3639, -4.4695, 0.977, -0.0985, -4.7615, 0.9818, -0.1213, -4.7642, 0.8869, -0.1569, -4.5305, 0.6521, -0.4252, -4.663, 0.9452, -0.4529, -4.5566, 0.7161, -0.4987, -4.7697, 0.9452, -0.4529, -4.5566, 0.8586, -0.4924, -4.7905, 0.7161, -0.4987, -4.7697, 0.9452, -0.4529, -4.5566, 0.955, -0.4554, -4.5785, 0.8586, -0.4924, -4.7905, 0.5735, -0.1803, -4.7774, 0.8869, -0.1569, -4.5305, 0.5956, -0.1877, -4.7066, 0.5802, -0.1759, -4.7946, 0.8869, -0.1569, -4.5305, 0.5735, -0.1803, -4.7774, 0.6269, -0.1495, -4.8923, 0.8869, -0.1569, -4.5305, 0.5802, -0.1759, -4.7946, 0.6269, -0.1495, -4.8923, 0.977, -0.0985, -4.7615, 0.8869, -0.1569, -4.5305, 0.9525, -0.0948, -4.8135, 0.977, -0.0985, -4.7615, 0.6269, -0.1495, -4.8923, 0.8154, -0.3035, -5.0405, 0.7741, -0.2897, -5.059, 0.7879, -0.3084, -5.0571, 0.8227, -0.2902, -5.0325, 0.7741, -0.2897, -5.059, 0.8154, -0.3035, -5.0405, 0.7736, -0.2889, -5.059, 0.7741, -0.2897, -5.059, 0.8227, -0.2902, -5.0325, 0.9256, -0.148, -4.8838, 0.7482, -0.2054, -5.0371, 0.8539, -0.2393, -4.9932, 0.9256, -0.148, -4.8838, 0.9099, -0.1258, -4.8783, 0.7482, -0.2054, -5.0371, 0.9336, -0.1311, -4.8767, 0.9099, -0.1258, -4.8783, 0.9256, -0.148, -4.8838, 0.9326, -0.1224, -4.8738, 0.9099, -0.1258, -4.8783, 0.9336, -0.1311, -4.8767, 0.5956, -0.1877, -4.7066, 0.8936, -0.3639, -4.4695, 0.6603, -0.387, -4.611, 0.5956, -0.1877, -4.7066, 0.8869, -0.1569, -4.5305, 0.8936, -0.3639, -4.4695, 0.8539, -0.2393, -4.9932, 0.7736, -0.2889, -5.059, 0.8227, -0.2902, -5.0325, 0.8539, -0.2393, -4.9932, 0.7725, -0.2872, -5.0589, 0.7736, -0.2889, -5.059, 0.8539, -0.2393, -4.9932, 0.7321, -0.2114, -5.0486, 0.7725, -0.2872, -5.0589, 0.7482, -0.2054, -5.0371, 0.7321, -0.2114, -5.0486, 0.8539, -0.2393, -4.9932, 0.9818, -0.1213, -4.7642, 0.9326, -0.1224, -4.8738, 0.9336, -0.1311, -4.8767, 0.9818, -0.1213, -4.7642, 0.9525, -0.0948, -4.8135, 0.9326, -0.1224, -4.8738, 0.977, -0.0985, -4.7615, 0.9525, -0.0948, -4.8135, 0.9818, -0.1213, -4.7642, 0.7838, -0.3134, -5.0548, 0.7608, -0.4191, -4.9532, 0.7848, -0.3123, -5.0553, 0.6408, -0.1641, -4.9277, 0.6522, -0.2075, -4.9652, 0.6713, -0.1933, -4.9986, 0.7848, -0.3123, -5.0553, 0.7741, -0.2897, -5.059, 0.7838, -0.3134, -5.0548, 0.7879, -0.3084, -5.0571, 0.7741, -0.2897, -5.059, 0.7848, -0.3123, -5.0553, 0.6522, -0.2075, -4.9652, 0.5739, -0.1961, -4.786, 0.5794, -0.2839, -4.8224, 0.6408, -0.1641, -4.9277, 0.5739, -0.1961, -4.786, 0.6522, -0.2075, -4.9652, 0.6408, -0.1641, -4.9277, 0.5802, -0.1759, -4.7946, 0.5739, -0.1961, -4.786, 0.6408, -0.1641, -4.9277, 0.6269, -0.1495, -4.8923, 0.5802, -0.1759, -4.7946, 0.5739, -0.1961, -4.786, 0.5802, -0.1759, -4.7946, 0.5735, -0.1803, -4.7774, 0.7725, -0.2872, -5.0589, 0.7321, -0.2114, -5.0486, 0.7178, -0.2104, -5.0443, 9.3388, -10.9711, 3.6516, 9.45, -10.9014, 3.3698, 9.3312, -10.9834, 3.6477, 9.4295, -10.8634, 3.5777, 9.45, -10.9014, 3.3698, 9.3388, -10.9711, 3.6516, 9.309, -11.0017, 3.6378, 9.45, -10.9014, 3.3698, 9.173, -11.1214, 3.4164, 9.3312, -10.9834, 3.6477, 9.45, -10.9014, 3.3698, 9.309, -11.0017, 3.6378, 9.4295, -10.8634, 3.5777, 9.5015, -10.7269, 3.3875, 9.45, -10.9014, 3.3698, 9.4979, -10.7124, 3.44, 9.5015, -10.7269, 3.3875, 9.4295, -10.8634, 3.5777, 9.3448, -10.9141, 3.6586, 9.4295, -10.8634, 3.5777, 9.3388, -10.9711, 3.6516, 9.412, -10.6678, 3.6431, 9.4295, -10.8634, 3.5777, 9.3448, -10.9141, 3.6586, 9.412, -10.6678, 3.6431, 9.4169, -10.6666, 3.638, 9.4295, -10.8634, 3.5777, 9.45, -10.9014, 3.3698, 9.2039, -11.098, 3.2676, 9.173, -11.1214, 3.4164, 9.45, -10.9014, 3.3698, 9.4129, -10.9313, 3.3119, 9.2039, -11.098, 3.2676, 9.1034, -10.6673, 3.5139, 9.1048, -10.9327, 3.5665, 9.0971, -10.6747, 3.5119, 9.077, -10.6395, 3.338, 9.0836, -11.1513, 3.4743, 9.0807, -11.1557, 3.4509, 9.077, -10.6395, 3.338, 9.0971, -10.6747, 3.5119, 9.0836, -11.1513, 3.4743, 9.1034, -10.6673, 3.5139, 9.0971, -10.6747, 3.5119, 9.077, -10.6395, 3.338, 9.1148, -11.1536, 3.2765, 9.1077, -11.0253, 3.2578, 9.1101, -11.1556, 3.278, 9.1622, -11.1236, 3.2593, 9.1077, -11.0253, 3.2578, 9.1148, -11.1536, 3.2765, 9.5015, -10.7269, 3.3875, 9.3634, -10.6178, 3.3266, 9.5073, -10.7423, 3.3401, 9.4979, -10.7124, 3.44, 9.3634, -10.6178, 3.3266, 9.5015, -10.7269, 3.3875, 9.4593, -10.6567, 3.5397, 9.3634, -10.6178, 3.3266, 9.4979, -10.7124, 3.44, 9.4546, -10.6496, 3.553, 9.3634, -10.6178, 3.3266, 9.4593, -10.6567, 3.5397, 9.1034, -10.6673, 3.5139, 9.353, -10.7906, 3.6719, 9.1048, -10.9327, 3.5665, 9.1034, -10.6673, 3.5139, 9.3837, -10.6735, 3.6655, 9.353, -10.7906, 3.6719, 9.3634, -10.6178, 3.3266, 9.077, -10.6395, 3.338, 9.0881, -10.6695, 3.2803, 9.1034, -10.6673, 3.5139, 9.412, -10.6678, 3.6431, 9.3837, -10.6735, 3.6655, 9.1034, -10.6673, 3.5139, 9.4169, -10.6666, 3.638, 9.412, -10.6678, 3.6431, 9.077, -10.6395, 3.338, 9.4169, -10.6666, 3.638, 9.1034, -10.6673, 3.5139, 9.077, -10.6395, 3.338, 9.4419, -10.6552, 3.5807, 9.4169, -10.6666, 3.638, 9.077, -10.6395, 3.338, 9.4546, -10.6496, 3.553, 9.4419, -10.6552, 3.5807, 9.077, -10.6395, 3.338, 9.3634, -10.6178, 3.3266, 9.4546, -10.6496, 3.553, 9.2039, -11.098, 3.2676, 9.1077, -11.0253, 3.2578, 9.1622, -11.1236, 3.2593, 9.4129, -10.9313, 3.3119, 9.1077, -11.0253, 3.2578, 9.2039, -11.098, 3.2676, 9.4129, -10.9313, 3.3119, 9.0881, -10.6695, 3.2803, 9.1077, -11.0253, 3.2578, 9.4471, -10.8913, 3.32, 9.0881, -10.6695, 3.2803, 9.4129, -10.9313, 3.3119, 9.4819, -10.8294, 3.3299, 9.0881, -10.6695, 3.2803, 9.4471, -10.8913, 3.32, 9.5073, -10.7423, 3.3401, 9.0881, -10.6695, 3.2803, 9.4819, -10.8294, 3.3299, 9.3634, -10.6178, 3.3266, 9.0881, -10.6695, 3.2803, 9.5073, -10.7423, 3.3401, 9.1101, -11.1556, 3.278, 9.0807, -11.1557, 3.4509, 9.0882, -11.1586, 3.4075, 9.1101, -11.1556, 3.278, 9.077, -10.6395, 3.338, 9.0807, -11.1557, 3.4509, 9.1077, -11.0253, 3.2578, 9.077, -10.6395, 3.338, 9.1101, -11.1556, 3.278, 9.0881, -10.6695, 3.2803, 9.077, -10.6395, 3.338, 9.1077, -11.0253, 3.2578, 9.1048, -10.9327, 3.5665, 9.309, -11.0017, 3.6378, 9.0986, -11.1289, 3.5479, 9.1048, -10.9327, 3.5665, 9.3312, -10.9834, 3.6477, 9.309, -11.0017, 3.6378, 9.1048, -10.9327, 3.5665, 9.3388, -10.9711, 3.6516, 9.3312, -10.9834, 3.6477, 9.1048, -10.9327, 3.5665, 9.3448, -10.9141, 3.6586, 9.3388, -10.9711, 3.6516, 9.353, -10.7906, 3.6719, 9.3448, -10.9141, 3.6586, 9.1048, -10.9327, 3.5665, 9.173, -11.1214, 3.4164, 9.1622, -11.1236, 3.2593, 9.1148, -11.1536, 3.2765, 9.173, -11.1214, 3.4164, 9.2039, -11.098, 3.2676, 9.1622, -11.1236, 3.2593, 9.0971, -10.6747, 3.5119, 9.0875, -11.1469, 3.4937, 9.0836, -11.1513, 3.4743, 9.0971, -10.6747, 3.5119, 9.0986, -11.1289, 3.5479, 9.0875, -11.1469, 3.4937, 9.0971, -10.6747, 3.5119, 9.1048, -10.9327, 3.5665, 9.0986, -11.1289, 3.5479, 9.5015, -10.7269, 3.3875, 9.4819, -10.8294, 3.3299, 9.45, -10.9014, 3.3698, 9.5015, -10.7269, 3.3875, 9.5073, -10.7423, 3.3401, 9.4819, -10.8294, 3.3299, 9.0986, -11.1289, 3.5479, 9.173, -11.1214, 3.4164, 9.0875, -11.1469, 3.4937, 9.309, -11.0017, 3.6378, 9.173, -11.1214, 3.4164, 9.0986, -11.1289, 3.5479, 9.4593, -10.6567, 3.5397, 9.4419, -10.6552, 3.5807, 9.4546, -10.6496, 3.553, 9.173, -11.1214, 3.4164, 9.1101, -11.1556, 3.278, 9.0882, -11.1586, 3.4075, 9.173, -11.1214, 3.4164, 9.1148, -11.1536, 3.2765, 9.1101, -11.1556, 3.278, 9.353, -10.7906, 3.6719, 9.412, -10.6678, 3.6431, 9.3448, -10.9141, 3.6586, 9.3837, -10.6735, 3.6655, 9.412, -10.6678, 3.6431, 9.353, -10.7906, 3.6719, 9.0807, -11.1557, 3.4509, 9.173, -11.1214, 3.4164, 9.0882, -11.1586, 3.4075, 9.0836, -11.1513, 3.4743, 9.173, -11.1214, 3.4164, 9.0807, -11.1557, 3.4509, 9.0875, -11.1469, 3.4937, 9.173, -11.1214, 3.4164, 9.0836, -11.1513, 3.4743, 9.4471, -10.8913, 3.32, 9.45, -10.9014, 3.3698, 9.4819, -10.8294, 3.3299, 9.4169, -10.6666, 3.638, 9.4979, -10.7124, 3.44, 9.4295, -10.8634, 3.5777, 9.4169, -10.6666, 3.638, 9.4593, -10.6567, 3.5397, 9.4979, -10.7124, 3.44, 9.4419, -10.6552, 3.5807, 9.4593, -10.6567, 3.5397, 9.4169, -10.6666, 3.638, 9.4129, -10.9313, 3.3119, 9.45, -10.9014, 3.3698, 9.4471, -10.8913, 3.32, 1.9336, -13.07, 1.2103, 1.915, -12.9937, 1.3419, 1.9403, -13.0245, 1.3431, 2.0851, -13.1944, 1.2402, 2.0566, -13.129, 1.3428, 2.0888, -13.154, 1.3422, 1.9336, -13.07, 1.2103, 2.0566, -13.129, 1.3428, 2.0851, -13.1944, 1.2402, 1.9336, -13.07, 1.2103, 1.9403, -13.0245, 1.3431, 2.0566, -13.129, 1.3428, 1.9758, -13.1808, 1.0152, 2.0851, -13.1944, 1.2402, 2.204, -13.2521, 1.2226, 1.9758, -13.1808, 1.0152, 1.9669, -13.1755, 1.0224, 2.0851, -13.1944, 1.2402, 2.2365, -13.2231, 1.3319, 2.4338, -13.1513, 1.2468, 2.204, -13.2521, 1.2226, 2.4258, -13.1482, 1.2933, 2.4338, -13.1513, 1.2468, 2.2365, -13.2231, 1.3319, 2.4258, -13.1482, 1.2933, 2.4259, -13.1483, 1.2925, 2.4338, -13.1513, 1.2468, 2.2773, -12.5759, 1.0977, 2.4164, -12.6378, 1.2149, 2.0205, -12.7186, 1.2839, 2.2773, -12.5759, 1.0977, 2.4069, -12.6176, 1.1818, 2.4164, -12.6378, 1.2149, 2.4069, -12.6176, 1.1818, 2.4222, -12.6279, 1.1785, 2.4175, -12.6331, 1.2078, 2.4473, -13.1524, 1.1068, 2.395, -12.6993, 0.9797, 2.4472, -13.1525, 1.1062, 2.3949, -12.692, 0.9814, 2.395, -12.6993, 0.9797, 2.4473, -13.1524, 1.1068, 2.4521, -13.1487, 1.1381, 2.3949, -12.692, 0.9814, 2.4473, -13.1524, 1.1068, 2.4222, -12.6279, 1.1785, 2.3949, -12.692, 0.9814, 2.4521, -13.1487, 1.1381, 2.4069, -12.6176, 1.1818, 2.4175, -12.6331, 1.2078, 2.4164, -12.6378, 1.2149, 2.2773, -12.5759, 1.0977, 2.0205, -12.7186, 1.2839, 2.0197, -12.7165, 1.2805, 2.4222, -12.6279, 1.1785, 2.2773, -12.5759, 1.0977, 2.3949, -12.692, 0.9814, 2.4069, -12.6176, 1.1818, 2.2773, -12.5759, 1.0977, 2.4222, -12.6279, 1.1785, 2.4258, -13.1482, 1.2933, 2.4175, -12.6331, 1.2078, 2.4259, -13.1483, 1.2925, 2.4164, -12.6378, 1.2149, 2.4175, -12.6331, 1.2078, 2.4258, -13.1482, 1.2933, 2.0888, -13.1496, 0.907, 1.9669, -13.1755, 1.0224, 1.9758, -13.1808, 1.0152, 2.0888, -13.1496, 0.907, 1.9365, -13.1323, 1.0429, 1.9669, -13.1755, 1.0224, 2.0097, -12.9842, 0.9515, 1.9365, -13.1323, 1.0429, 2.0888, -13.1496, 0.907, 2.0097, -12.9842, 0.9515, 1.9967, -12.9887, 0.9641, 1.9365, -13.1323, 1.0429, 2.1645, -13.1903, 1.3371, 2.4258, -13.1482, 1.2933, 2.2365, -13.2231, 1.3319, 2.0888, -13.154, 1.3422, 2.4258, -13.1482, 1.2933, 2.1645, -13.1903, 1.3371, 2.0566, -13.129, 1.3428, 2.4258, -13.1482, 1.2933, 2.0888, -13.154, 1.3422, 2.0566, -13.129, 1.3428, 2.4164, -12.6378, 1.2149, 2.4258, -13.1482, 1.2933, 1.9403, -13.0245, 1.3431, 2.4164, -12.6378, 1.2149, 2.0566, -13.129, 1.3428, 1.915, -12.9937, 1.3419, 2.4164, -12.6378, 1.2149, 1.9403, -13.0245, 1.3431, 1.9067, -12.9809, 1.3411, 2.4164, -12.6378, 1.2149, 1.915, -12.9937, 1.3419, 2.0205, -12.7186, 1.2839, 2.4164, -12.6378, 1.2149, 1.9067, -12.9809, 1.3411, 2.0205, -12.7186, 1.2839, 1.9067, -12.9809, 1.3411, 1.8908, -12.9697, 1.3034, 1.8903, -12.9693, 1.3022, 2.0205, -12.7186, 1.2839, 1.8908, -12.9697, 1.3034, 2.0197, -12.7165, 1.2805, 2.0205, -12.7186, 1.2839, 1.8903, -12.9693, 1.3022, 1.9967, -12.9887, 0.9641, 1.8927, -12.9822, 1.2768, 1.9019, -13.0592, 1.1415, 2.0197, -12.7165, 1.2805, 1.8927, -12.9822, 1.2768, 1.9967, -12.9887, 0.9641, 2.0197, -12.7165, 1.2805, 1.8903, -12.9693, 1.3022, 1.8927, -12.9822, 1.2768, 1.9967, -12.9887, 0.9641, 1.9237, -13.0991, 1.0815, 1.9365, -13.1323, 1.0429, 1.9967, -12.9887, 0.9641, 1.9048, -13.0675, 1.1325, 1.9237, -13.0991, 1.0815, 1.9967, -12.9887, 0.9641, 1.9019, -13.0592, 1.1415, 1.9048, -13.0675, 1.1325, 2.0919, -13.1496, 0.9067, 2.0097, -12.9842, 0.9515, 2.0888, -13.1496, 0.907, 2.1731, -13.1462, 0.8999, 2.0097, -12.9842, 0.9515, 2.0919, -13.1496, 0.9067, 2.282, -13.1324, 0.8929, 2.0097, -12.9842, 0.9515, 2.1731, -13.1462, 0.8999, 2.3949, -12.692, 0.9814, 2.0097, -12.9842, 0.9515, 2.282, -13.1324, 0.8929, 2.2825, -13.1323, 0.8929, 2.3949, -12.692, 0.9814, 2.282, -13.1324, 0.8929, 2.395, -12.6993, 0.9797, 2.3949, -12.692, 0.9814, 2.2825, -13.1323, 0.8929, 2.0097, -12.9842, 0.9515, 2.3949, -12.692, 0.9814, 2.2773, -12.5759, 1.0977, 2.2825, -13.1323, 0.8929, 2.282, -13.1324, 0.8929, 2.3307, -13.1633, 0.9587, 2.282, -13.1324, 0.8929, 2.1731, -13.1462, 0.8999, 2.3307, -13.1633, 0.9587, 2.1645, -13.1903, 1.3371, 2.0851, -13.1944, 1.2402, 2.0888, -13.154, 1.3422, 2.3815, -13.1849, 1.0265, 2.0919, -13.1496, 0.9067, 2.204, -13.2521, 1.2226, 2.3307, -13.1633, 0.9587, 2.0919, -13.1496, 0.9067, 2.3815, -13.1849, 1.0265, 2.1731, -13.1462, 0.8999, 2.0919, -13.1496, 0.9067, 2.3307, -13.1633, 0.9587, 2.0851, -13.1944, 1.2402, 2.2365, -13.2231, 1.3319, 2.204, -13.2521, 1.2226, 2.0851, -13.1944, 1.2402, 2.1645, -13.1903, 1.3371, 2.2365, -13.2231, 1.3319, 2.4338, -13.1513, 1.2468, 2.3815, -13.1849, 1.0265, 2.204, -13.2521, 1.2226, 2.4338, -13.1513, 1.2468, 2.4472, -13.1525, 1.1062, 2.3815, -13.1849, 1.0265, 2.4338, -13.1513, 1.2468, 2.4473, -13.1524, 1.1068, 2.4472, -13.1525, 1.1062, 2.4338, -13.1513, 1.2468, 2.4521, -13.1487, 1.1381, 2.4473, -13.1524, 1.1068, 1.9669, -13.1755, 1.0224, 1.9237, -13.0991, 1.0815, 2.0851, -13.1944, 1.2402, 1.9365, -13.1323, 1.0429, 1.9237, -13.0991, 1.0815, 1.9669, -13.1755, 1.0224, 2.0919, -13.1496, 0.9067, 1.9758, -13.1808, 1.0152, 2.204, -13.2521, 1.2226, 2.0919, -13.1496, 0.9067, 2.0888, -13.1496, 0.907, 1.9758, -13.1808, 1.0152, 2.0097, -12.9842, 0.9515, 2.0197, -12.7165, 1.2805, 1.9967, -12.9887, 0.9641, 2.2773, -12.5759, 1.0977, 2.0197, -12.7165, 1.2805, 2.0097, -12.9842, 0.9515, 2.4472, -13.1525, 1.1062, 2.3307, -13.1633, 0.9587, 2.3815, -13.1849, 1.0265, 2.4472, -13.1525, 1.1062, 2.2825, -13.1323, 0.8929, 2.3307, -13.1633, 0.9587, 2.395, -12.6993, 0.9797, 2.2825, -13.1323, 0.8929, 2.4472, -13.1525, 1.1062, 1.8927, -12.9822, 1.2768, 1.915, -12.9937, 1.3419, 1.9336, -13.07, 1.2103, 1.8927, -12.9822, 1.2768, 1.9067, -12.9809, 1.3411, 1.915, -12.9937, 1.3419, 1.8903, -12.9693, 1.3022, 1.9067, -12.9809, 1.3411, 1.8927, -12.9822, 1.2768, 1.8903, -12.9693, 1.3022, 1.8908, -12.9697, 1.3034, 1.9067, -12.9809, 1.3411, 1.9048, -13.0675, 1.1325, 1.8927, -12.9822, 1.2768, 1.9336, -13.07, 1.2103, 1.9019, -13.0592, 1.1415, 1.8927, -12.9822, 1.2768, 1.9048, -13.0675, 1.1325, 1.9237, -13.0991, 1.0815, 1.9336, -13.07, 1.2103, 2.0851, -13.1944, 1.2402, 1.9048, -13.0675, 1.1325, 1.9336, -13.07, 1.2103, 1.9237, -13.0991, 1.0815, 2.4259, -13.1483, 1.2925, 2.4521, -13.1487, 1.1381, 2.4338, -13.1513, 1.2468, 2.4259, -13.1483, 1.2925, 2.4222, -12.6279, 1.1785, 2.4521, -13.1487, 1.1381, 2.4175, -12.6331, 1.2078, 2.4222, -12.6279, 1.1785, 2.4259, -13.1483, 1.2925, -3.9833, -2.8838, 4.7078, -3.7966, -2.9132, 4.5418, -4.0193, -2.9569, 4.7441, -4.067, -2.818, 4.7054, -3.9815, -2.8042, 4.6782, -3.9833, -2.8838, 4.7078, -4.0692, -2.8088, 4.7026, -3.9815, -2.8042, 4.6782, -4.067, -2.818, 4.7054, -4.0347, -2.9523, 4.7459, -3.9596, -3.0354, 4.7702, -3.9986, -3.037, 4.7819, -4.0347, -2.9523, 4.7459, -4.0193, -2.9569, 4.7441, -3.9596, -3.0354, 4.7702, -4.0347, -2.9523, 4.7459, -3.9833, -2.8838, 4.7078, -4.0193, -2.9569, 4.7441, -4.05, -2.8956, 4.7276, -3.9833, -2.8838, 4.7078, -4.0347, -2.9523, 4.7459, -3.8092, -2.808, 4.5939, -3.7725, -2.8924, 4.5186, -3.7966, -2.9132, 4.5418, -3.8092, -2.808, 4.5939, -3.791, -2.8067, 4.5714, -3.7725, -2.8924, 4.5186, -3.7966, -2.9132, 4.5418, -3.9833, -2.8838, 4.7078, -3.8092, -2.808, 4.5939, -3.7922, -2.8044, 4.5718, -4.137, -2.8316, 4.6189, -3.875, -2.8424, 4.4151, -3.7922, -2.8044, 4.5718, -4.0912, -2.8137, 4.6885, -4.137, -2.8316, 4.6189, -3.7922, -2.8044, 4.5718, -4.0692, -2.8088, 4.7026, -4.0912, -2.8137, 4.6885, -3.7922, -2.8044, 4.5718, -3.9815, -2.8042, 4.6782, -4.0692, -2.8088, 4.7026, -3.8088, -2.8026, 4.5909, -3.9815, -2.8042, 4.6782, -3.7922, -2.8044, 4.5718, -3.8088, -2.8026, 4.5909, -3.8138, -2.8025, 4.5942, -3.9815, -2.8042, 4.6782, -3.8359, -2.9021, 4.4165, -3.9465, -3.1843, 4.3546, -3.9435, -3.1832, 4.3555, -3.9435, -3.1832, 4.3555, -3.9465, -3.1843, 4.3546, -3.8776, -3.1593, 4.4483, -3.9864, -3.1972, 4.6401, -3.9465, -3.1843, 4.3546, -4.0659, -3.2267, 4.3903, -3.839, -3.1447, 4.6357, -3.9465, -3.1843, 4.3546, -3.9864, -3.1972, 4.6401, -3.839, -3.1447, 4.6357, -3.8776, -3.1593, 4.4483, -3.9465, -3.1843, 4.3546, -4.1207, -3.1717, 4.3659, -3.9864, -3.1972, 4.6401, -4.0659, -3.2267, 4.3903, -4.1207, -3.1717, 4.3659, -4.0358, -3.0744, 4.7622, -3.9864, -3.1972, 4.6401, -4.1876, -2.9487, 4.6428, -4.0358, -3.0744, 4.7622, -4.1207, -3.1717, 4.3659, -3.9465, -3.1843, 4.3546, -4.1207, -3.1717, 4.3659, -4.0659, -3.2267, 4.3903, -4.0776, -3.1191, 4.3325, -4.1207, -3.1717, 4.3659, -3.9465, -3.1843, 4.3546, -4.1207, -3.1717, 4.3659, -4.1933, -2.9477, 4.6308, -4.1876, -2.9487, 4.6428, -3.875, -2.8424, 4.4151, -4.137, -2.8316, 4.6189, -4.0776, -3.1191, 4.3325, -4.1876, -2.9487, 4.6428, -3.9986, -3.037, 4.7819, -4.0358, -3.0744, 4.7622, -4.1876, -2.9487, 4.6428, -4.0347, -2.9523, 4.7459, -3.9986, -3.037, 4.7819, -4.1876, -2.9487, 4.6428, -4.05, -2.8956, 4.7276, -4.0347, -2.9523, 4.7459, -4.0912, -2.8137, 4.6885, -4.05, -2.8956, 4.7276, -4.1876, -2.9487, 4.6428, -4.0912, -2.8137, 4.6885, -4.067, -2.818, 4.7054, -4.05, -2.8956, 4.7276, -4.0912, -2.8137, 4.6885, -4.0692, -2.8088, 4.7026, -4.067, -2.818, 4.7054, -3.8476, -3.0458, 4.7236, -3.7633, -3.0354, 4.6538, -3.8046, -3.1081, 4.6557, -3.7633, -3.0354, 4.6538, -3.7421, -3.0326, 4.6362, -3.8046, -3.1081, 4.6557, -3.8046, -3.1081, 4.6557, -3.839, -3.1447, 4.6357, -3.9864, -3.1972, 4.6401, -3.839, -3.1447, 4.6357, -3.7343, -3.0206, 4.6176, -3.8776, -3.1593, 4.4483, -3.8046, -3.1081, 4.6557, -3.7343, -3.0206, 4.6176, -3.839, -3.1447, 4.6357, -3.7421, -3.0326, 4.6362, -3.7343, -3.0206, 4.6176, -3.8046, -3.1081, 4.6557, -4.0358, -3.0744, 4.7622, -3.8046, -3.1081, 4.6557, -3.9864, -3.1972, 4.6401, -4.0358, -3.0744, 4.7622, -3.8476, -3.0458, 4.7236, -3.8046, -3.1081, 4.6557, -3.9986, -3.037, 4.7819, -3.8476, -3.0458, 4.7236, -4.0358, -3.0744, 4.7622, -3.9986, -3.037, 4.7819, -3.8907, -3.038, 4.7447, -3.8476, -3.0458, 4.7236, -3.9986, -3.037, 4.7819, -3.9596, -3.0354, 4.7702, -3.8907, -3.038, 4.7447, -4.1933, -2.9477, 4.6308, -4.0912, -2.8137, 4.6885, -4.1876, -2.9487, 4.6428, -4.137, -2.8316, 4.6189, -4.0912, -2.8137, 4.6885, -4.1933, -2.9477, 4.6308, -3.9815, -2.8042, 4.6782, -3.8092, -2.808, 4.5939, -3.9833, -2.8838, 4.7078, -3.9815, -2.8042, 4.6782, -3.8138, -2.8025, 4.5942, -3.8092, -2.808, 4.5939, -3.8359, -2.9021, 4.4165, -4.0776, -3.1191, 4.3325, -3.9465, -3.1843, 4.3546, -3.8359, -2.9021, 4.4165, -3.875, -2.8424, 4.4151, -4.0776, -3.1191, 4.3325, -3.8088, -2.8026, 4.5909, -3.791, -2.8067, 4.5714, -3.8092, -2.808, 4.5939, -3.8088, -2.8026, 4.5909, -3.7922, -2.8044, 4.5718, -3.791, -2.8067, 4.5714, -3.7725, -2.8924, 4.5186, -3.7728, -2.9104, 4.517, -3.7966, -2.9132, 4.5418, -3.7725, -2.8924, 4.5186, -3.7706, -2.8982, 4.5159, -3.7728, -2.9104, 4.517, -3.8776, -3.1593, 4.4483, -3.8359, -2.9021, 4.4165, -3.9435, -3.1832, 4.3555, -3.7343, -3.0206, 4.6176, -3.8359, -2.9021, 4.4165, -3.8776, -3.1593, 4.4483, -3.7608, -2.9394, 4.5464, -3.8359, -2.9021, 4.4165, -3.7343, -3.0206, 4.6176, -3.7728, -2.9104, 4.517, -3.8359, -2.9021, 4.4165, -3.7608, -2.9394, 4.5464, -3.7706, -2.8982, 4.5159, -3.8359, -2.9021, 4.4165, -3.7728, -2.9104, 4.517, -3.8088, -2.8026, 4.5909, -3.8092, -2.808, 4.5939, -3.8138, -2.8025, 4.5942, -3.9596, -3.0354, 4.7702, -4.0193, -2.9569, 4.7441, -3.8907, -3.038, 4.7447, -3.8907, -3.038, 4.7447, -3.7633, -3.0354, 4.6538, -3.8476, -3.0458, 4.7236, -4.0193, -2.9569, 4.7441, -3.7633, -3.0354, 4.6538, -3.8907, -3.038, 4.7447, -4.0193, -2.9569, 4.7441, -3.7421, -3.0326, 4.6362, -3.7633, -3.0354, 4.6538, -4.0193, -2.9569, 4.7441, -3.7343, -3.0206, 4.6176, -3.7421, -3.0326, 4.6362, -4.0193, -2.9569, 4.7441, -3.7608, -2.9394, 4.5464, -3.7343, -3.0206, 4.6176, -3.7966, -2.9132, 4.5418, -3.7608, -2.9394, 4.5464, -4.0193, -2.9569, 4.7441, -3.7706, -2.8982, 4.5159, -3.875, -2.8424, 4.4151, -3.8359, -2.9021, 4.4165, -3.7725, -2.8924, 4.5186, -3.875, -2.8424, 4.4151, -3.7706, -2.8982, 4.5159, -3.791, -2.8067, 4.5714, -3.875, -2.8424, 4.4151, -3.7725, -2.8924, 4.5186, -3.791, -2.8067, 4.5714, -3.7922, -2.8044, 4.5718, -3.875, -2.8424, 4.4151, -3.7608, -2.9394, 4.5464, -3.7966, -2.9132, 4.5418, -3.7728, -2.9104, 4.517, -4.067, -2.818, 4.7054, -3.9833, -2.8838, 4.7078, -4.05, -2.8956, 4.7276, -4.0776, -3.1191, 4.3325, -4.1933, -2.9477, 4.6308, -4.1207, -3.1717, 4.3659, -4.137, -2.8316, 4.6189, -4.1933, -2.9477, 4.6308, -4.0776, -3.1191, 4.3325, -0.9236, -5.808, 7.2089, -0.8595, -5.761, 7.3577, -0.885, -5.8424, 7.2693, -0.9439, -5.7871, 7.1784, -0.8595, -5.761, 7.3577, -0.9236, -5.808, 7.2089, -0.9569, -5.7517, 7.1692, -0.8595, -5.761, 7.3577, -0.9439, -5.7871, 7.1784, -0.8595, -5.761, 7.3577, -0.8946, -5.6191, 7.3227, -0.8269, -5.5906, 7.3413, -0.6127, -5.8794, 6.8741, -0.6883, -5.945, 7.2952, -0.5179, -5.9645, 7.1472, -0.6127, -5.8794, 6.8741, -0.6971, -5.942, 7.2934, -0.6883, -5.945, 7.2952, -0.3653, -5.7031, 7.2695, -0.6127, -5.8794, 6.8741, -0.5179, -5.9645, 7.1472, -0.3653, -5.7031, 7.2695, -0.4006, -5.5745, 7.0907, -0.6127, -5.8794, 6.8741, -0.9569, -5.7517, 7.1692, -0.8946, -5.6191, 7.3227, -0.8595, -5.761, 7.3577, -0.9628, -5.7317, 7.1624, -0.8946, -5.6191, 7.3227, -0.9569, -5.7517, 7.1692, -0.9499, -5.6912, 7.1973, -0.8946, -5.6191, 7.3227, -0.9628, -5.7317, 7.1624, -0.6883, -5.945, 7.2952, -0.3653, -5.7031, 7.2695, -0.5179, -5.9645, 7.1472, -0.6707, -5.7915, 7.422, -0.3653, -5.7031, 7.2695, -0.6883, -5.945, 7.2952, -0.6336, -5.7542, 7.4278, -0.3653, -5.7031, 7.2695, -0.6707, -5.7915, 7.422, -0.5418, -5.6861, 7.4199, -0.3653, -5.7031, 7.2695, -0.6336, -5.7542, 7.4278, -0.5418, -5.6861, 7.4199, -0.4396, -5.6258, 7.3969, -0.3653, -5.7031, 7.2695, -0.4822, -5.6471, 7.41, -0.4396, -5.6258, 7.3969, -0.5418, -5.6861, 7.4199, -0.9236, -5.808, 7.2089, -0.6127, -5.8794, 6.8741, -0.9439, -5.7871, 7.1784, -0.7461, -5.5575, 7.3615, -0.5418, -5.6861, 7.4199, -0.6336, -5.7542, 7.4278, -0.7461, -5.5575, 7.3615, -0.7046, -5.5446, 7.3628, -0.5418, -5.6861, 7.4199, -0.4922, -5.5216, 7.3584, -0.5168, -5.4945, 7.3494, -0.5065, -5.4928, 7.3464, -0.4396, -5.6258, 7.3969, -0.4006, -5.5745, 7.0907, -0.3653, -5.7031, 7.2695, -0.4922, -5.5216, 7.3584, -0.4006, -5.5745, 7.0907, -0.4396, -5.6258, 7.3969, -0.4922, -5.5216, 7.3584, -0.5065, -5.4928, 7.3464, -0.4006, -5.5745, 7.0907, -0.5571, -5.5032, 7.3569, -0.4396, -5.6258, 7.3969, -0.4822, -5.6471, 7.41, -0.5571, -5.5032, 7.3569, -0.4922, -5.5216, 7.3584, -0.4396, -5.6258, 7.3969, -0.5571, -5.5032, 7.3569, -0.5168, -5.4945, 7.3494, -0.4922, -5.5216, 7.3584, -0.6971, -5.942, 7.2934, -0.6707, -5.7915, 7.422, -0.6883, -5.945, 7.2952, -0.765, -5.907, 7.2888, -0.6707, -5.7915, 7.422, -0.6971, -5.942, 7.2934, -0.8595, -5.761, 7.3577, -0.6707, -5.7915, 7.422, -0.765, -5.907, 7.2888, -0.8595, -5.761, 7.3577, -0.6336, -5.7542, 7.4278, -0.6707, -5.7915, 7.422, -0.8269, -5.5906, 7.3413, -0.6336, -5.7542, 7.4278, -0.8595, -5.761, 7.3577, -0.8269, -5.5906, 7.3413, -0.7461, -5.5575, 7.3615, -0.6336, -5.7542, 7.4278, -0.885, -5.8424, 7.2693, -0.8595, -5.761, 7.3577, -0.765, -5.907, 7.2888, -0.9628, -5.7317, 7.1624, -0.9439, -5.7871, 7.1784, -0.6127, -5.8794, 6.8741, -0.9628, -5.7317, 7.1624, -0.9569, -5.7517, 7.1692, -0.9439, -5.7871, 7.1784, -0.4006, -5.5745, 7.0907, -0.9628, -5.7317, 7.1624, -0.6127, -5.8794, 6.8741, -0.4006, -5.5745, 7.0907, -0.9499, -5.6912, 7.1973, -0.9628, -5.7317, 7.1624, -0.6127, -5.8794, 6.8741, -0.765, -5.907, 7.2888, -0.6971, -5.942, 7.2934, -0.6127, -5.8794, 6.8741, -0.885, -5.8424, 7.2693, -0.765, -5.907, 7.2888, -0.9236, -5.808, 7.2089, -0.885, -5.8424, 7.2693, -0.6127, -5.8794, 6.8741, -0.7046, -5.5446, 7.3628, -0.4822, -5.6471, 7.41, -0.5418, -5.6861, 7.4199, -0.7046, -5.5446, 7.3628, -0.5571, -5.5032, 7.3569, -0.4822, -5.6471, 7.41, -0.4006, -5.5745, 7.0907, -0.8946, -5.6191, 7.3227, -0.9499, -5.6912, 7.1973, -0.4006, -5.5745, 7.0907, -0.8269, -5.5906, 7.3413, -0.8946, -5.6191, 7.3227, -0.4006, -5.5745, 7.0907, -0.7461, -5.5575, 7.3615, -0.8269, -5.5906, 7.3413, -0.5065, -5.4928, 7.3464, -0.7461, -5.5575, 7.3615, -0.4006, -5.5745, 7.0907, -0.5065, -5.4928, 7.3464, -0.7046, -5.5446, 7.3628, -0.7461, -5.5575, 7.3615, -0.5065, -5.4928, 7.3464, -0.5571, -5.5032, 7.3569, -0.7046, -5.5446, 7.3628, -0.5065, -5.4928, 7.3464, -0.5168, -5.4945, 7.3494, -0.5571, -5.5032, 7.3569, 3.5687, -0.8168, 3.0229, 3.5332, -0.7628, 3.0187, 3.5378, -0.817, 3.0281, 3.6537, -0.7278, 2.9921, 3.5332, -0.7628, 3.0187, 3.5687, -0.8168, 3.0229, 3.6537, -0.7278, 2.9921, 3.6255, -0.5492, 2.9815, 3.5332, -0.7628, 3.0187, 3.6802, -0.701, 2.9845, 3.6255, -0.5492, 2.9815, 3.6537, -0.7278, 2.9921, 3.6971, -0.6207, 2.974, 3.6255, -0.5492, 2.9815, 3.6802, -0.701, 2.9845, 3.5332, -0.7628, 3.0187, 3.4887, -0.8037, 3.0604, 3.5378, -0.817, 3.0281, 3.5332, -0.7628, 3.0187, 3.4857, -0.8029, 3.0623, 3.4887, -0.8037, 3.0604, 3.5332, -0.7628, 3.0187, 3.445, -0.7854, 3.0862, 3.4857, -0.8029, 3.0623, 3.5332, -0.7628, 3.0187, 3.427, -0.7643, 3.0928, 3.445, -0.7854, 3.0862, 3.5332, -0.7628, 3.0187, 3.4197, -0.7262, 3.0874, 3.427, -0.7643, 3.0928, 3.4516, -0.6239, 3.0371, 3.4197, -0.7262, 3.0874, 3.5332, -0.7628, 3.0187, 3.6255, -0.5492, 2.9815, 3.4516, -0.6239, 3.0371, 3.5332, -0.7628, 3.0187, 3.6255, -0.5492, 2.9815, 3.4761, -0.516, 3.0249, 3.4516, -0.6239, 3.0371, 3.7023, -0.3977, 2.972, 3.4957, -0.428, 3.0161, 3.6255, -0.5492, 2.9815, 3.7023, -0.3977, 2.972, 3.4975, -0.4195, 3.0162, 3.4957, -0.428, 3.0161, 3.7023, -0.3977, 2.972, 3.5895, -0.3912, 2.9972, 3.4975, -0.4195, 3.0162, 3.7475, -0.3972, 2.967, 3.5895, -0.3912, 2.9972, 3.7023, -0.3977, 2.972, 3.7541, -0.3969, 2.9664, 3.5895, -0.3912, 2.9972, 3.7475, -0.3972, 2.967, 3.7827, -0.367, 3.0117, 3.5895, -0.3912, 2.9972, 3.7541, -0.3969, 2.9664, 3.7827, -0.367, 3.0117, 3.7301, -0.3354, 3.0704, 3.5895, -0.3912, 2.9972, 3.7518, -0.3404, 3.0593, 3.7301, -0.3354, 3.0704, 3.7827, -0.367, 3.0117, 3.4887, -0.8037, 3.0604, 3.5687, -0.8168, 3.0229, 3.5378, -0.817, 3.0281, 3.4887, -0.8037, 3.0604, 3.7603, -0.7134, 3.1684, 3.5687, -0.8168, 3.0229, 3.5191, -0.5728, 3.4577, 3.7603, -0.7134, 3.1684, 3.4887, -0.8037, 3.0604, 3.5191, -0.5728, 3.4577, 3.8542, -0.6177, 3.3184, 3.7603, -0.7134, 3.1684, 3.5191, -0.5728, 3.4577, 3.838, -0.6118, 3.3315, 3.8542, -0.6177, 3.3184, 3.855, -0.5913, 3.3178, 3.838, -0.6118, 3.3315, 3.6813, -0.4522, 3.4221, 3.4292, -0.4032, 3.3347, 3.7301, -0.3354, 3.0704, 3.4331, -0.4041, 3.3618, 3.4292, -0.4032, 3.3347, 3.4331, -0.4041, 3.3618, 3.4319, -0.4091, 3.3661, 3.8542, -0.6177, 3.3184, 3.838, -0.6118, 3.3315, 3.855, -0.5913, 3.3178, 3.4757, -0.5456, 3.4419, 3.5191, -0.5728, 3.4577, 3.5043, -0.5759, 3.455, 3.4757, -0.5456, 3.4419, 3.5312, -0.4416, 3.4319, 3.5191, -0.5728, 3.4577, 3.4547, -0.4558, 3.4176, 3.5312, -0.4416, 3.4319, 3.4757, -0.5456, 3.4419, 3.7301, -0.3354, 3.0704, 3.6813, -0.4522, 3.4221, 3.4331, -0.4041, 3.3618, 3.4331, -0.4041, 3.3618, 3.6813, -0.4522, 3.4221, 3.5312, -0.4416, 3.4319, 3.855, -0.5913, 3.3178, 3.6813, -0.4522, 3.4221, 3.8191, -0.4503, 3.2658, 3.4331, -0.4041, 3.3618, 3.5312, -0.4416, 3.4319, 3.4319, -0.4091, 3.3661, 3.4319, -0.4091, 3.3661, 3.5312, -0.4416, 3.4319, 3.4519, -0.4526, 3.4136, 3.4319, -0.4091, 3.3661, 3.4519, -0.4526, 3.4136, 3.419, -0.4437, 3.3653, 3.419, -0.4437, 3.3653, 3.4519, -0.4526, 3.4136, 3.414, -0.4538, 3.357, 3.8542, -0.6177, 3.3184, 3.6802, -0.701, 2.9845, 3.7603, -0.7134, 3.1684, 3.8542, -0.6177, 3.3184, 3.6971, -0.6207, 2.974, 3.6802, -0.701, 2.9845, 3.8542, -0.6177, 3.3184, 3.749, -0.4166, 2.9669, 3.6971, -0.6207, 2.974, 3.857, -0.49, 3.2487, 3.749, -0.4166, 2.9669, 3.8542, -0.6177, 3.3184, 3.7827, -0.367, 3.0117, 3.749, -0.4166, 2.9669, 3.857, -0.49, 3.2487, 3.7827, -0.367, 3.0117, 3.7541, -0.3969, 2.9664, 3.749, -0.4166, 2.9669, 3.8191, -0.4503, 3.2658, 3.7827, -0.367, 3.0117, 3.857, -0.49, 3.2487, 3.7518, -0.3404, 3.0593, 3.7827, -0.367, 3.0117, 3.8191, -0.4503, 3.2658, 3.4857, -0.8029, 3.0623, 3.5191, -0.5728, 3.4577, 3.4887, -0.8037, 3.0604, 3.5043, -0.5759, 3.455, 3.5191, -0.5728, 3.4577, 3.4857, -0.8029, 3.0623, 3.4197, -0.7262, 3.0874, 3.3861, -0.6557, 3.3, 3.4122, -0.7454, 3.1033, 3.4516, -0.6239, 3.0371, 3.3861, -0.6557, 3.3, 3.4197, -0.7262, 3.0874, 3.4516, -0.6239, 3.0371, 3.414, -0.4538, 3.357, 3.3861, -0.6557, 3.3, 3.4761, -0.516, 3.0249, 3.414, -0.4538, 3.357, 3.4516, -0.6239, 3.0371, 3.4957, -0.428, 3.0161, 3.414, -0.4538, 3.357, 3.4761, -0.516, 3.0249, 3.4957, -0.428, 3.0161, 3.4292, -0.4032, 3.3347, 3.414, -0.4538, 3.357, 3.4975, -0.4195, 3.0162, 3.4292, -0.4032, 3.3347, 3.4957, -0.428, 3.0161, 3.838, -0.6118, 3.3315, 3.5191, -0.5728, 3.4577, 3.6813, -0.4522, 3.4221, 3.6813, -0.4522, 3.4221, 3.5191, -0.5728, 3.4577, 3.5312, -0.4416, 3.4319, 3.5895, -0.3912, 2.9972, 3.4292, -0.4032, 3.3347, 3.4975, -0.4195, 3.0162, 3.5895, -0.3912, 2.9972, 3.7301, -0.3354, 3.0704, 3.4292, -0.4032, 3.3347, 3.7301, -0.3354, 3.0704, 3.8191, -0.4503, 3.2658, 3.6813, -0.4522, 3.4221, 3.7301, -0.3354, 3.0704, 3.7518, -0.3404, 3.0593, 3.8191, -0.4503, 3.2658, 3.5312, -0.4416, 3.4319, 3.4547, -0.4558, 3.4176, 3.4519, -0.4526, 3.4136, 3.4519, -0.4526, 3.4136, 3.4547, -0.4558, 3.4176, 3.4757, -0.5456, 3.4419, 3.414, -0.4538, 3.357, 3.4757, -0.5456, 3.4419, 3.3861, -0.6557, 3.3, 3.414, -0.4538, 3.357, 3.4519, -0.4526, 3.4136, 3.4757, -0.5456, 3.4419, 3.3861, -0.6557, 3.3, 3.4757, -0.5456, 3.4419, 3.5043, -0.5759, 3.455, 3.445, -0.7854, 3.0862, 3.5043, -0.5759, 3.455, 3.4857, -0.8029, 3.0623, 3.3861, -0.6557, 3.3, 3.5043, -0.5759, 3.455, 3.445, -0.7854, 3.0862, 3.427, -0.7643, 3.0928, 3.3861, -0.6557, 3.3, 3.445, -0.7854, 3.0862, 3.4122, -0.7454, 3.1033, 3.3861, -0.6557, 3.3, 3.427, -0.7643, 3.0928, 3.8542, -0.6177, 3.3184, 3.855, -0.5913, 3.3178, 3.857, -0.49, 3.2487, 3.857, -0.49, 3.2487, 3.855, -0.5913, 3.3178, 3.8191, -0.4503, 3.2658, 3.7603, -0.7134, 3.1684, 3.6537, -0.7278, 2.9921, 3.5687, -0.8168, 3.0229, 3.7603, -0.7134, 3.1684, 3.6802, -0.701, 2.9845, 3.6537, -0.7278, 2.9921, 3.427, -0.7643, 3.0928, 3.4197, -0.7262, 3.0874, 3.4122, -0.7454, 3.1033, 3.7475, -0.3972, 2.967, 3.749, -0.4166, 2.9669, 3.7541, -0.3969, 2.9664, 3.749, -0.4166, 2.9669, 3.6255, -0.5492, 2.9815, 3.6971, -0.6207, 2.974, 3.749, -0.4166, 2.9669, 3.7023, -0.3977, 2.972, 3.6255, -0.5492, 2.9815, 3.7475, -0.3972, 2.967, 3.7023, -0.3977, 2.972, 3.749, -0.4166, 2.9669, 3.4292, -0.4032, 3.3347, 3.419, -0.4437, 3.3653, 3.414, -0.4538, 3.357, 3.4292, -0.4032, 3.3347, 3.4319, -0.4091, 3.3661, 3.419, -0.4437, 3.3653, 3.4761, -0.516, 3.0249, 3.6255, -0.5492, 2.9815, 3.4957, -0.428, 3.0161, 5.7058, -3.7975, 1.761, 5.6508, -3.7825, 1.6803, 5.6433, -3.7979, 1.6678, 5.3899, -4.1688, 1.7146, 5.6168, -4.1415, 1.647, 5.4343, -4.2068, 1.6594, 5.3602, -4.1204, 1.7738, 5.6168, -4.1415, 1.647, 5.3899, -4.1688, 1.7146, 5.3602, -4.1204, 1.7738, 5.7376, -3.9339, 1.7979, 5.6168, -4.1415, 1.647, 5.349, -4.0798, 1.8177, 5.7376, -3.9339, 1.7979, 5.3602, -4.1204, 1.7738, 5.3477, -3.8917, 2.0004, 5.7376, -3.9339, 1.7979, 5.349, -4.0798, 1.8177, 5.3477, -3.8917, 2.0004, 5.472, -3.8483, 1.9909, 5.7376, -3.9339, 1.7979, 5.3526, -3.8587, 2.0302, 5.472, -3.8483, 1.9909, 5.3477, -3.8917, 2.0004, 5.7376, -3.9339, 1.7979, 5.6009, -4.1048, 1.5812, 5.6243, -4.1189, 1.615, 5.7376, -3.9339, 1.7979, 5.6433, -3.7979, 1.6678, 5.6009, -4.1048, 1.5812, 5.7058, -3.7975, 1.761, 5.6433, -3.7979, 1.6678, 5.7376, -3.9339, 1.7979, 5.6508, -3.7825, 1.6803, 5.3252, -3.7772, 1.6086, 5.6433, -3.7979, 1.6678, 5.3251, -3.7758, 1.6096, 5.3252, -3.7772, 1.6086, 5.6508, -3.7825, 1.6803, 5.7376, -3.9339, 1.7979, 5.6243, -4.1189, 1.615, 5.6168, -4.1415, 1.647, 5.472, -3.8483, 1.9909, 5.7058, -3.7975, 1.761, 5.7376, -3.9339, 1.7979, 5.7055, -3.7974, 1.7612, 5.7058, -3.7975, 1.761, 5.472, -3.8483, 1.9909, 5.6433, -3.7979, 1.6678, 5.3669, -3.923, 1.5164, 5.4102, -3.9853, 1.4829, 5.6433, -3.7979, 1.6678, 5.3406, -3.8649, 1.5509, 5.3669, -3.923, 1.5164, 5.6433, -3.7979, 1.6678, 5.3279, -3.81, 1.5863, 5.3406, -3.8649, 1.5509, 5.6433, -3.7979, 1.6678, 5.3252, -3.7772, 1.6086, 5.3279, -3.81, 1.5863, 5.6433, -3.7979, 1.6678, 5.4431, -4.0924, 1.483, 5.6009, -4.1048, 1.5812, 5.6433, -3.7979, 1.6678, 5.4102, -3.9853, 1.4829, 5.4431, -4.0924, 1.483, 5.6009, -4.1048, 1.5812, 5.4399, -4.0976, 1.4896, 5.6243, -4.1189, 1.615, 5.4431, -4.0924, 1.483, 5.4399, -4.0976, 1.4896, 5.6009, -4.1048, 1.5812, 5.6243, -4.1189, 1.615, 5.434, -4.1072, 1.5019, 5.6168, -4.1415, 1.647, 5.4399, -4.0976, 1.4896, 5.434, -4.1072, 1.5019, 5.6243, -4.1189, 1.615, 5.7055, -3.7974, 1.7612, 5.472, -3.8483, 1.9909, 5.7056, -3.7973, 1.7608, 5.7055, -3.7974, 1.7612, 5.7056, -3.7973, 1.7608, 5.7058, -3.7975, 1.761, 5.6168, -4.1415, 1.647, 5.4205, -4.1742, 1.6011, 5.4343, -4.2068, 1.6594, 5.6168, -4.1415, 1.647, 5.4255, -4.1212, 1.5197, 5.4205, -4.1742, 1.6011, 5.434, -4.1072, 1.5019, 5.4255, -4.1212, 1.5197, 5.6168, -4.1415, 1.647, 5.3266, -3.8408, 1.937, 5.472, -3.8483, 1.9909, 5.3526, -3.8587, 2.0302, 5.3266, -3.8408, 1.937, 5.7056, -3.7973, 1.7608, 5.472, -3.8483, 1.9909, 5.3042, -3.8211, 1.8354, 5.7056, -3.7973, 1.7608, 5.3266, -3.8408, 1.937, 5.3146, -3.7912, 1.6862, 5.7056, -3.7973, 1.7608, 5.3042, -3.8211, 1.8354, 5.3146, -3.7912, 1.6862, 5.6508, -3.7825, 1.6803, 5.7056, -3.7973, 1.7608, 5.3251, -3.7758, 1.6096, 5.6508, -3.7825, 1.6803, 5.3146, -3.7912, 1.6862, 5.7056, -3.7973, 1.7608, 5.6508, -3.7825, 1.6803, 5.7058, -3.7975, 1.761, 5.3406, -3.8649, 1.5509, 5.349, -4.0798, 1.8177, 5.3602, -4.1204, 1.7738, 5.3406, -3.8649, 1.5509, 5.3042, -3.8211, 1.8354, 5.349, -4.0798, 1.8177, 5.3279, -3.81, 1.5863, 5.3042, -3.8211, 1.8354, 5.3406, -3.8649, 1.5509, 5.3279, -3.81, 1.5863, 5.3146, -3.7912, 1.6862, 5.3042, -3.8211, 1.8354, 5.4255, -4.1212, 1.5197, 5.3899, -4.1688, 1.7146, 5.4205, -4.1742, 1.6011, 5.4255, -4.1212, 1.5197, 5.3602, -4.1204, 1.7738, 5.3899, -4.1688, 1.7146, 5.3669, -3.923, 1.5164, 5.3602, -4.1204, 1.7738, 5.4255, -4.1212, 1.5197, 5.3669, -3.923, 1.5164, 5.3406, -3.8649, 1.5509, 5.3602, -4.1204, 1.7738, 5.4205, -4.1742, 1.6011, 5.3899, -4.1688, 1.7146, 5.4343, -4.2068, 1.6594, 5.3477, -3.8917, 2.0004, 5.3266, -3.8408, 1.937, 5.3526, -3.8587, 2.0302, 5.434, -4.1072, 1.5019, 5.3669, -3.923, 1.5164, 5.4255, -4.1212, 1.5197, 5.4399, -4.0976, 1.4896, 5.3669, -3.923, 1.5164, 5.434, -4.1072, 1.5019, 5.4431, -4.0924, 1.483, 5.3669, -3.923, 1.5164, 5.4399, -4.0976, 1.4896, 5.4102, -3.9853, 1.4829, 5.3669, -3.923, 1.5164, 5.4431, -4.0924, 1.483, 5.3042, -3.8211, 1.8354, 5.3477, -3.8917, 2.0004, 5.349, -4.0798, 1.8177, 5.3042, -3.8211, 1.8354, 5.3266, -3.8408, 1.937, 5.3477, -3.8917, 2.0004, 5.3252, -3.7772, 1.6086, 5.3146, -3.7912, 1.6862, 5.3279, -3.81, 1.5863, 5.3252, -3.7772, 1.6086, 5.3251, -3.7758, 1.6096, 5.3146, -3.7912, 1.6862, -3.1942, -6.0436, -2.122, -3.2021, -6.0765, -2.1005, -3.2448, -6.1123, -2.1411, -3.2315, -5.9289, -2.2201, -3.1942, -6.0436, -2.122, -3.2707, -6.0365, -2.3915, -3.3164, -6.1365, -2.3264, -3.2448, -6.1123, -2.1411, -3.3132, -6.1809, -2.2196, -3.2707, -6.0365, -2.3915, -3.2448, -6.1123, -2.1411, -3.3164, -6.1365, -2.3264, -3.2707, -6.0365, -2.3915, -3.1942, -6.0436, -2.122, -3.2448, -6.1123, -2.1411, -3.2707, -6.0365, -2.3915, -3.3164, -6.1365, -2.3264, -3.3025, -6.0834, -2.5137, -3.2241, -5.8893, -2.3823, -3.2315, -5.9289, -2.2201, -3.2707, -6.0365, -2.3915, -3.2241, -5.8893, -2.3823, -3.2043, -5.8344, -2.2997, -3.2315, -5.9289, -2.2201, -2.9026, -5.8172, -2.5853, -3.2241, -5.8893, -2.3823, -3.2561, -6.0437, -2.6403, -2.9026, -5.8172, -2.5853, -3.2043, -5.8344, -2.2997, -3.2241, -5.8893, -2.3823, -2.9026, -5.8172, -2.5853, -3.1314, -5.7699, -2.2548, -3.2043, -5.8344, -2.2997, -2.9007, -5.7839, -2.5245, -3.1314, -5.7699, -2.2548, -2.9026, -5.8172, -2.5853, -3.1063, -5.7513, -2.246, -3.1314, -5.7699, -2.2548, -2.9007, -5.7839, -2.5245, -2.8072, -5.8291, -2.4589, -2.8722, -5.848, -2.592, -2.7805, -5.8706, -2.4899, -2.8072, -5.8291, -2.4589, -2.9026, -5.8172, -2.5853, -2.8722, -5.848, -2.592, -2.9007, -5.7839, -2.5245, -2.9026, -5.8172, -2.5853, -2.8072, -5.8291, -2.4589, -3.1931, -6.1262, -2.6585, -3.2765, -6.0675, -2.6435, -3.0427, -6.417, -2.5061, -3.2753, -6.0663, -2.6457, -3.2765, -6.0675, -2.6435, -3.1931, -6.1262, -2.6585, -3.1931, -6.1262, -2.6585, -3.0427, -6.417, -2.5061, -2.8865, -6.3087, -2.5505, -3.0192, -6.1039, -2.1383, -2.8674, -6.3259, -2.5277, -2.9247, -6.3957, -2.4835, -3.0192, -6.1039, -2.1383, -2.7678, -5.9895, -2.4614, -2.8674, -6.3259, -2.5277, -2.9448, -5.9505, -2.154, -2.7678, -5.9895, -2.4614, -3.0192, -6.1039, -2.1383, -2.9875, -5.8115, -2.1449, -2.9007, -5.7839, -2.5245, -2.8072, -5.8291, -2.4589, -3.0811, -5.7733, -2.1663, -2.9007, -5.7839, -2.5245, -2.9875, -5.8115, -2.1449, -3.0811, -5.7733, -2.1663, -3.1063, -5.7513, -2.246, -2.9007, -5.7839, -2.5245, -2.9448, -5.9505, -2.154, -2.9875, -5.8115, -2.1449, -2.9815, -5.8136, -2.1462, -2.9815, -5.8136, -2.1462, -2.9875, -5.8115, -2.1449, -2.8072, -5.8291, -2.4589, -2.9129, -5.972, -2.6206, -3.2753, -6.0663, -2.6457, -3.1931, -6.1262, -2.6585, -2.9129, -5.972, -2.6206, -3.2565, -6.0451, -2.6406, -3.2753, -6.0663, -2.6457, -2.9129, -5.972, -2.6206, -3.2561, -6.0437, -2.6403, -3.2565, -6.0451, -2.6406, -2.9129, -5.972, -2.6206, -2.9026, -5.8172, -2.5853, -3.2561, -6.0437, -2.6403, -2.8722, -5.848, -2.592, -2.9026, -5.8172, -2.5853, -2.9129, -5.972, -2.6206, -3.1865, -6.034, -2.1051, -2.9875, -5.8115, -2.1449, -3.185, -6.0402, -2.1032, -3.1932, -5.9507, -2.1292, -2.9875, -5.8115, -2.1449, -3.1865, -6.034, -2.1051, -3.1179, -5.824, -2.1562, -2.9875, -5.8115, -2.1449, -3.1932, -5.9507, -2.1292, -3.0949, -5.7877, -2.1638, -2.9875, -5.8115, -2.1449, -3.1179, -5.824, -2.1562, -3.0949, -5.7877, -2.1638, -3.0811, -5.7733, -2.1663, -2.9875, -5.8115, -2.1449, -3.0427, -6.417, -2.5061, -3.0429, -6.4173, -2.5051, -2.9247, -6.3957, -2.4835, -2.9448, -5.9505, -2.154, -2.7805, -5.8706, -2.4899, -2.7678, -5.9895, -2.4614, -2.9815, -5.8136, -2.1462, -2.7805, -5.8706, -2.4899, -2.9448, -5.9505, -2.154, -2.9815, -5.8136, -2.1462, -2.8072, -5.8291, -2.4589, -2.7805, -5.8706, -2.4899, -3.3132, -6.1809, -2.2196, -2.9247, -6.3957, -2.4835, -3.0429, -6.4173, -2.5051, -3.3132, -6.1809, -2.2196, -3.0192, -6.1039, -2.1383, -2.9247, -6.3957, -2.4835, -3.2448, -6.1123, -2.1411, -3.0192, -6.1039, -2.1383, -3.3132, -6.1809, -2.2196, -3.2021, -6.0765, -2.1005, -3.0192, -6.1039, -2.1383, -3.2448, -6.1123, -2.1411, -3.2021, -6.0765, -2.1005, -3.2012, -6.0758, -2.0997, -3.0192, -6.1039, -2.1383, -2.9247, -6.3957, -2.4835, -2.8865, -6.3087, -2.5505, -3.0427, -6.417, -2.5061, -2.8674, -6.3259, -2.5277, -2.8865, -6.3087, -2.5505, -2.9247, -6.3957, -2.4835, -2.9129, -5.972, -2.6206, -3.1931, -6.1262, -2.6585, -2.8865, -6.3087, -2.5505, -2.7678, -5.9895, -2.4614, -2.8865, -6.3087, -2.5505, -2.8674, -6.3259, -2.5277, -2.7678, -5.9895, -2.4614, -2.9129, -5.972, -2.6206, -2.8865, -6.3087, -2.5505, -2.7805, -5.8706, -2.4899, -2.9129, -5.972, -2.6206, -2.7678, -5.9895, -2.4614, -2.7805, -5.8706, -2.4899, -2.8722, -5.848, -2.592, -2.9129, -5.972, -2.6206, -3.1314, -5.7699, -2.2548, -3.0811, -5.7733, -2.1663, -3.0949, -5.7877, -2.1638, -3.1314, -5.7699, -2.2548, -3.1063, -5.7513, -2.246, -3.0811, -5.7733, -2.1663, -3.2043, -5.8344, -2.2997, -3.1179, -5.824, -2.1562, -3.2315, -5.9289, -2.2201, -3.1314, -5.7699, -2.2548, -3.1179, -5.824, -2.1562, -3.2043, -5.8344, -2.2997, -3.1314, -5.7699, -2.2548, -3.0949, -5.7877, -2.1638, -3.1179, -5.824, -2.1562, -3.2765, -6.0675, -2.6435, -3.0429, -6.4173, -2.5051, -3.0427, -6.417, -2.5061, -3.1932, -5.9507, -2.1292, -3.2315, -5.9289, -2.2201, -3.1179, -5.824, -2.1562, -3.2765, -6.0675, -2.6435, -3.3132, -6.1809, -2.2196, -3.0429, -6.4173, -2.5051, -3.2765, -6.0675, -2.6435, -3.3164, -6.1365, -2.3264, -3.3132, -6.1809, -2.2196, -3.2765, -6.0675, -2.6435, -3.3025, -6.0834, -2.5137, -3.3164, -6.1365, -2.3264, -3.2561, -6.0437, -2.6403, -3.2707, -6.0365, -2.3915, -3.2565, -6.0451, -2.6406, -3.2241, -5.8893, -2.3823, -3.2707, -6.0365, -2.3915, -3.2561, -6.0437, -2.6403, -3.2315, -5.9289, -2.2201, -3.1865, -6.034, -2.1051, -3.1942, -6.0436, -2.122, -3.2315, -5.9289, -2.2201, -3.1932, -5.9507, -2.1292, -3.1865, -6.034, -2.1051, -3.1942, -6.0436, -2.122, -3.185, -6.0402, -2.1032, -3.1845, -6.0458, -2.1033, -3.1865, -6.034, -2.1051, -3.185, -6.0402, -2.1032, -3.1942, -6.0436, -2.122, -3.2012, -6.0758, -2.0997, -2.9448, -5.9505, -2.154, -3.0192, -6.1039, -2.1383, -3.1845, -6.0458, -2.1033, -2.9448, -5.9505, -2.154, -3.2012, -6.0758, -2.0997, -3.185, -6.0402, -2.1032, -2.9448, -5.9505, -2.154, -3.1845, -6.0458, -2.1033, -2.9875, -5.8115, -2.1449, -2.9448, -5.9505, -2.154, -3.185, -6.0402, -2.1032, -3.1942, -6.0436, -2.122, -3.2012, -6.0758, -2.0997, -3.2021, -6.0765, -2.1005, -3.1942, -6.0436, -2.122, -3.1845, -6.0458, -2.1033, -3.2012, -6.0758, -2.0997, -3.2765, -6.0675, -2.6435, -3.2707, -6.0365, -2.3915, -3.3025, -6.0834, -2.5137, -3.2753, -6.0663, -2.6457, -3.2707, -6.0365, -2.3915, -3.2765, -6.0675, -2.6435, -3.2565, -6.0451, -2.6406, -3.2707, -6.0365, -2.3915, -3.2753, -6.0663, -2.6457, 4.5917, -5.2594, 6.1028, 4.6794, -5.3994, 6.3661, 4.6833, -5.4192, 6.2084, 4.5917, -5.2594, 6.1028, 4.6742, -5.3891, 6.3756, 4.6794, -5.3994, 6.3661, 4.5917, -5.2594, 6.1028, 4.6724, -5.3643, 6.3931, 4.6742, -5.3891, 6.3756, 4.5917, -5.2594, 6.1028, 4.6163, -5.0844, 6.4127, 4.6724, -5.3643, 6.3931, 4.7175, -5.3864, 5.9981, 4.5917, -5.2594, 6.1028, 4.6833, -5.4192, 6.2084, 4.6917, -5.344, 5.9754, 4.5917, -5.2594, 6.1028, 4.7175, -5.3864, 5.9981, 4.8507, -5.5055, 6.1243, 4.7193, -5.4217, 6.3308, 4.8542, -5.5064, 6.1306, 4.6833, -5.4192, 6.2084, 4.7193, -5.4217, 6.3308, 4.8507, -5.5055, 6.1243, 4.6833, -5.4192, 6.2084, 4.6794, -5.3994, 6.3661, 4.7193, -5.4217, 6.3308, 4.5789, -5.1857, 6.1078, 4.6163, -5.0844, 6.4127, 4.5917, -5.2594, 6.1028, 4.5776, -4.9912, 6.2966, 4.6163, -5.0844, 6.4127, 4.5789, -5.1857, 6.1078, 5.018, -5.2275, 6.2161, 4.8348, -5.2069, 6.4141, 5.0161, -5.2206, 6.2229, 4.665, -5.0711, 6.5112, 5.0122, -5.0812, 6.1113, 5.0161, -5.2206, 6.2229, 4.665, -5.0711, 6.5112, 4.6578, -5.0501, 6.5021, 5.0122, -5.0812, 6.1113, 5.018, -5.2275, 6.2161, 5.0161, -5.2206, 6.2229, 5.0122, -5.0812, 6.1113, 4.6896, -4.9454, 6.2946, 4.5952, -4.9337, 6.3832, 4.5831, -4.9547, 6.3297, 4.5972, -4.9318, 6.3878, 4.5952, -4.9337, 6.3832, 4.6896, -4.9454, 6.2946, 4.8444, -5.2425, 5.9428, 4.8072, -5.4553, 6.0398, 4.8186, -5.4647, 6.0454, 4.8444, -5.2425, 5.9428, 4.7175, -5.3864, 5.9981, 4.8072, -5.4553, 6.0398, 4.8444, -5.2425, 5.9428, 4.6917, -5.344, 5.9754, 4.7175, -5.3864, 5.9981, 4.8444, -5.2425, 5.9428, 4.6652, -5.3066, 5.955, 4.6917, -5.344, 5.9754, 4.8082, -5.466, 6.2557, 5.018, -5.2275, 6.2161, 4.8733, -5.5063, 6.1617, 4.8348, -5.2069, 6.4141, 5.018, -5.2275, 6.2161, 4.8082, -5.466, 6.2557, 4.8444, -5.2425, 5.9428, 5.0122, -5.0812, 6.1113, 4.9691, -5.0354, 6.0916, 4.8733, -5.5063, 6.1617, 4.8507, -5.5055, 6.1243, 4.8542, -5.5064, 6.1306, 5.018, -5.2275, 6.2161, 4.8507, -5.5055, 6.1243, 4.8733, -5.5063, 6.1617, 5.018, -5.2275, 6.2161, 4.8293, -5.4778, 6.0713, 4.8507, -5.5055, 6.1243, 5.018, -5.2275, 6.2161, 4.8186, -5.4647, 6.0454, 4.8293, -5.4778, 6.0713, 5.018, -5.2275, 6.2161, 4.8444, -5.2425, 5.9428, 4.8186, -5.4647, 6.0454, 5.018, -5.2275, 6.2161, 5.0122, -5.0812, 6.1113, 4.8444, -5.2425, 5.9428, 4.8444, -5.2425, 5.9428, 4.6147, -5.2635, 6.0177, 4.6652, -5.3066, 5.955, 4.8444, -5.2425, 5.9428, 4.5887, -5.2211, 6.0694, 4.6147, -5.2635, 6.0177, 4.9691, -5.0354, 6.0916, 4.5887, -5.2211, 6.0694, 4.8444, -5.2425, 5.9428, 4.9691, -5.0354, 6.0916, 4.5789, -5.1857, 6.1078, 4.5887, -5.2211, 6.0694, 4.9691, -5.0354, 6.0916, 4.5776, -4.9912, 6.2966, 4.5789, -5.1857, 6.1078, 4.6896, -4.9454, 6.2946, 4.5776, -4.9912, 6.2966, 4.9691, -5.0354, 6.0916, 4.6896, -4.9454, 6.2946, 4.5831, -4.9547, 6.3297, 4.5776, -4.9912, 6.2966, 4.6578, -5.0501, 6.5021, 4.9691, -5.0354, 6.0916, 5.0122, -5.0812, 6.1113, 4.6404, -5.0198, 6.4752, 4.9691, -5.0354, 6.0916, 4.6578, -5.0501, 6.5021, 4.6404, -5.0198, 6.4752, 4.6896, -4.9454, 6.2946, 4.9691, -5.0354, 6.0916, 4.5972, -4.9318, 6.3878, 4.6896, -4.9454, 6.2946, 4.6404, -5.0198, 6.4752, 4.7193, -5.4217, 6.3308, 4.8348, -5.2069, 6.4141, 4.8082, -5.466, 6.2557, 4.6794, -5.3994, 6.3661, 4.8348, -5.2069, 6.4141, 4.7193, -5.4217, 6.3308, 4.6742, -5.3891, 6.3756, 4.8348, -5.2069, 6.4141, 4.6794, -5.3994, 6.3661, 4.6724, -5.3643, 6.3931, 4.8348, -5.2069, 6.4141, 4.6742, -5.3891, 6.3756, 4.69, -5.1426, 6.5313, 4.8348, -5.2069, 6.4141, 4.6724, -5.3643, 6.3931, 4.5776, -4.9912, 6.2966, 4.5952, -4.9337, 6.3832, 4.6163, -5.0844, 6.4127, 4.5831, -4.9547, 6.3297, 4.5952, -4.9337, 6.3832, 4.5776, -4.9912, 6.2966, 4.8348, -5.2069, 6.4141, 4.665, -5.0711, 6.5112, 5.0161, -5.2206, 6.2229, 4.69, -5.1426, 6.5313, 4.665, -5.0711, 6.5112, 4.8348, -5.2069, 6.4141, 4.6705, -5.0896, 6.5175, 4.665, -5.0711, 6.5112, 4.69, -5.1426, 6.5313, 4.6652, -5.3066, 5.955, 4.5917, -5.2594, 6.1028, 4.6917, -5.344, 5.9754, 4.6147, -5.2635, 6.0177, 4.5917, -5.2594, 6.1028, 4.6652, -5.3066, 5.955, 4.6163, -5.0844, 6.4127, 4.69, -5.1426, 6.5313, 4.6724, -5.3643, 6.3931, 4.6163, -5.0844, 6.4127, 4.6705, -5.0896, 6.5175, 4.69, -5.1426, 6.5313, 4.8072, -5.4553, 6.0398, 4.8293, -5.4778, 6.0713, 4.8186, -5.4647, 6.0454, 4.5952, -4.9337, 6.3832, 4.6404, -5.0198, 6.4752, 4.6163, -5.0844, 6.4127, 4.5952, -4.9337, 6.3832, 4.5972, -4.9318, 6.3878, 4.6404, -5.0198, 6.4752, 4.7193, -5.4217, 6.3308, 4.8733, -5.5063, 6.1617, 4.8542, -5.5064, 6.1306, 4.7193, -5.4217, 6.3308, 4.8082, -5.466, 6.2557, 4.8733, -5.5063, 6.1617, 4.6163, -5.0844, 6.4127, 4.665, -5.0711, 6.5112, 4.6705, -5.0896, 6.5175, 4.6404, -5.0198, 6.4752, 4.665, -5.0711, 6.5112, 4.6163, -5.0844, 6.4127, 4.6404, -5.0198, 6.4752, 4.6578, -5.0501, 6.5021, 4.665, -5.0711, 6.5112, 4.5887, -5.2211, 6.0694, 4.5917, -5.2594, 6.1028, 4.6147, -5.2635, 6.0177, 4.8293, -5.4778, 6.0713, 4.6833, -5.4192, 6.2084, 4.8507, -5.5055, 6.1243, 4.8072, -5.4553, 6.0398, 4.6833, -5.4192, 6.2084, 4.8293, -5.4778, 6.0713, 4.7175, -5.3864, 5.9981, 4.6833, -5.4192, 6.2084, 4.8072, -5.4553, 6.0398, 4.5789, -5.1857, 6.1078, 4.5917, -5.2594, 6.1028, 4.5887, -5.2211, 6.0694, -2.27, -7.2756, 4.1053, -2.17, -7.3859, 4.1418, -2.2084, -7.3941, 4.1489, -2.45, -7.357, 4.1229, -2.3588, -7.4363, 4.1549, -2.3977, -7.4485, 4.1538, -2.45, -7.357, 4.1229, -2.2084, -7.3941, 4.1489, -2.3588, -7.4363, 4.1549, -2.45, -7.357, 4.1229, -2.27, -7.2756, 4.1053, -2.2084, -7.3941, 4.1489, -2.4258, -7.1212, 4.042, -2.45, -7.357, 4.1229, -2.5718, -7.3982, 4.0879, -2.4258, -7.1212, 4.042, -2.4145, -7.1229, 4.0474, -2.45, -7.357, 4.1229, -2.6187, -7.6052, 3.9471, -2.5444, -7.5093, 4.1153, -2.6183, -7.6058, 3.9476, -2.637, -7.5733, 3.9187, -2.5444, -7.5093, 4.1153, -2.6187, -7.6052, 3.9471, -2.5718, -7.3982, 4.0879, -2.5444, -7.5093, 4.1153, -2.637, -7.5733, 3.9187, -2.0485, -7.4661, 3.8791, -2.2434, -7.6327, 3.5564, -2.2562, -7.6594, 3.5832, -2.0485, -7.4661, 3.8791, -2.1514, -7.5021, 3.5488, -2.2434, -7.6327, 3.5564, -2.2434, -7.6327, 3.5564, -2.2615, -7.6365, 3.5531, -2.2552, -7.6554, 3.5756, -2.3395, -7.4515, 3.495, -2.6807, -7.4708, 3.832, -2.6806, -7.4713, 3.8322, -2.3395, -7.4515, 3.495, -2.3453, -7.4485, 3.4987, -2.6807, -7.4708, 3.832, -2.3395, -7.4515, 3.495, -2.6733, -7.4995, 3.8454, -2.2615, -7.6365, 3.5531, -2.3395, -7.4515, 3.495, -2.6806, -7.4713, 3.8322, -2.6733, -7.4995, 3.8454, -2.2434, -7.6327, 3.5564, -2.2552, -7.6554, 3.5756, -2.2562, -7.6594, 3.5832, -2.1514, -7.5021, 3.5488, -2.0485, -7.4661, 3.8791, -2.0473, -7.4634, 3.8763, -2.2434, -7.6327, 3.5564, -2.3395, -7.4515, 3.495, -2.2615, -7.6365, 3.5531, -2.1514, -7.5021, 3.5488, -2.3395, -7.4515, 3.495, -2.2434, -7.6327, 3.5564, -2.2552, -7.6554, 3.5756, -2.6183, -7.6058, 3.9476, -2.2562, -7.6594, 3.5832, -2.6187, -7.6052, 3.9471, -2.6183, -7.6058, 3.9476, -2.2552, -7.6554, 3.5756, -2.3585, -7.1316, 4.0474, -2.3182, -7.1372, 3.8631, -2.3102, -7.1385, 3.88, -2.3585, -7.1316, 4.0474, -2.5008, -7.109, 3.9017, -2.3182, -7.1372, 3.8631, -2.4145, -7.1229, 4.0474, -2.5008, -7.109, 3.9017, -2.3585, -7.1316, 4.0474, -2.4258, -7.1212, 4.042, -2.5008, -7.109, 3.9017, -2.4145, -7.1229, 4.0474, -2.6183, -7.6058, 3.9476, -2.0485, -7.4661, 3.8791, -2.2562, -7.6594, 3.5832, -2.5444, -7.5093, 4.1153, -2.0485, -7.4661, 3.8791, -2.6183, -7.6058, 3.9476, -2.4735, -7.4795, 4.1347, -2.0485, -7.4661, 3.8791, -2.5444, -7.5093, 4.1153, -2.3977, -7.4485, 4.1538, -2.0485, -7.4661, 3.8791, -2.4735, -7.4795, 4.1347, -2.3977, -7.4485, 4.1538, -2.1555, -7.3834, 4.1375, -2.0485, -7.4661, 3.8791, -2.3588, -7.4363, 4.1549, -2.1555, -7.3834, 4.1375, -2.3977, -7.4485, 4.1538, -2.2084, -7.3941, 4.1489, -2.1555, -7.3834, 4.1375, -2.3588, -7.4363, 4.1549, -2.17, -7.3859, 4.1418, -2.1555, -7.3834, 4.1375, -2.2084, -7.3941, 4.1489, -2.0485, -7.4661, 3.8791, -2.1555, -7.3834, 4.1375, -2.1464, -7.3475, 4.117, -2.1464, -7.3475, 4.117, -2.0473, -7.4634, 3.8763, -2.0485, -7.4661, 3.8791, -2.1464, -7.3475, 4.117, -2.1461, -7.3463, 4.1163, -2.0473, -7.4634, 3.8763, -2.1461, -7.3463, 4.1163, -2.3102, -7.1385, 3.88, -2.0473, -7.4634, 3.8763, -2.1634, -7.3248, 4.1087, -2.3102, -7.1385, 3.88, -2.1461, -7.3463, 4.1163, -2.2588, -7.2061, 4.0754, -2.3102, -7.1385, 3.88, -2.1634, -7.3248, 4.1087, -2.2689, -7.1988, 4.074, -2.3102, -7.1385, 3.88, -2.2588, -7.2061, 4.0754, -2.3165, -7.1623, 4.0551, -2.3102, -7.1385, 3.88, -2.2689, -7.1988, 4.074, -2.3585, -7.1316, 4.0474, -2.3102, -7.1385, 3.88, -2.3165, -7.1623, 4.0551, -2.3182, -7.1372, 3.8631, -2.6136, -7.2134, 3.7827, -2.3395, -7.4515, 3.495, -2.3182, -7.1372, 3.8631, -2.5533, -7.1529, 3.8519, -2.6136, -7.2134, 3.7827, -2.3182, -7.1372, 3.8631, -2.5028, -7.1106, 3.8999, -2.5533, -7.1529, 3.8519, -2.5008, -7.109, 3.9017, -2.5028, -7.1106, 3.8999, -2.3182, -7.1372, 3.8631, -2.6136, -7.2134, 3.7827, -2.3453, -7.4485, 3.4987, -2.3395, -7.4515, 3.495, -2.6136, -7.2134, 3.7827, -2.6139, -7.2137, 3.7823, -2.3453, -7.4485, 3.4987, -2.3182, -7.1372, 3.8631, -2.3395, -7.4515, 3.495, -2.1514, -7.5021, 3.5488, -2.6139, -7.2137, 3.7823, -2.6136, -7.2134, 3.7827, -2.6511, -7.2857, 3.8147, -2.6136, -7.2134, 3.7827, -2.5533, -7.1529, 3.8519, -2.6511, -7.2857, 3.8147, -2.4735, -7.4795, 4.1347, -2.45, -7.357, 4.1229, -2.3977, -7.4485, 4.1538, -2.6825, -7.3629, 3.841, -2.5028, -7.1106, 3.8999, -2.5718, -7.3982, 4.0879, -2.6511, -7.2857, 3.8147, -2.5028, -7.1106, 3.8999, -2.6825, -7.3629, 3.841, -2.5533, -7.1529, 3.8519, -2.5028, -7.1106, 3.8999, -2.6511, -7.2857, 3.8147, -2.5718, -7.3982, 4.0879, -2.4735, -7.4795, 4.1347, -2.5444, -7.5093, 4.1153, -2.5718, -7.3982, 4.0879, -2.45, -7.357, 4.1229, -2.4735, -7.4795, 4.1347, -2.6733, -7.4995, 3.8454, -2.5718, -7.3982, 4.0879, -2.637, -7.5733, 3.9187, -2.6806, -7.4713, 3.8322, -2.5718, -7.3982, 4.0879, -2.6733, -7.4995, 3.8454, -2.6807, -7.4708, 3.832, -2.5718, -7.3982, 4.0879, -2.6806, -7.4713, 3.8322, -2.6825, -7.3629, 3.841, -2.5718, -7.3982, 4.0879, -2.6807, -7.4708, 3.832, -2.4145, -7.1229, 4.0474, -2.3165, -7.1623, 4.0551, -2.45, -7.357, 4.1229, -2.4145, -7.1229, 4.0474, -2.3585, -7.1316, 4.0474, -2.3165, -7.1623, 4.0551, -2.5028, -7.1106, 3.8999, -2.4258, -7.1212, 4.042, -2.5718, -7.3982, 4.0879, -2.5028, -7.1106, 3.8999, -2.5008, -7.109, 3.9017, -2.4258, -7.1212, 4.042, -2.0473, -7.4634, 3.8763, -2.3182, -7.1372, 3.8631, -2.1514, -7.5021, 3.5488, -2.3102, -7.1385, 3.88, -2.3182, -7.1372, 3.8631, -2.0473, -7.4634, 3.8763, -2.3453, -7.4485, 3.4987, -2.6825, -7.3629, 3.841, -2.6807, -7.4708, 3.832, -2.6139, -7.2137, 3.7823, -2.6825, -7.3629, 3.841, -2.3453, -7.4485, 3.4987, -2.6139, -7.2137, 3.7823, -2.6511, -7.2857, 3.8147, -2.6825, -7.3629, 3.841, -2.27, -7.2756, 4.1053, -2.1555, -7.3834, 4.1375, -2.17, -7.3859, 4.1418, -2.27, -7.2756, 4.1053, -2.1464, -7.3475, 4.117, -2.1555, -7.3834, 4.1375, -2.27, -7.2756, 4.1053, -2.1461, -7.3463, 4.1163, -2.1464, -7.3475, 4.117, -2.27, -7.2756, 4.1053, -2.1634, -7.3248, 4.1087, -2.1461, -7.3463, 4.1163, -2.27, -7.2756, 4.1053, -2.2588, -7.2061, 4.0754, -2.1634, -7.3248, 4.1087, -2.2689, -7.1988, 4.074, -2.2588, -7.2061, 4.0754, -2.27, -7.2756, 4.1053, -2.3165, -7.1623, 4.0551, -2.27, -7.2756, 4.1053, -2.45, -7.357, 4.1229, -2.3165, -7.1623, 4.0551, -2.2689, -7.1988, 4.074, -2.27, -7.2756, 4.1053, -2.2615, -7.6365, 3.5531, -2.6187, -7.6052, 3.9471, -2.2552, -7.6554, 3.5756, -2.6733, -7.4995, 3.8454, -2.6187, -7.6052, 3.9471, -2.2615, -7.6365, 3.5531, -2.6733, -7.4995, 3.8454, -2.637, -7.5733, 3.9187, -2.6187, -7.6052, 3.9471 )

[node name="ast_ice_shards_2" instance=ExtResource( 1 )]
script = ExtResource( 2 )

[node name="StaticBody3D" type="StaticBody3D" parent="ast_ice_shards_2" index="0"]

[node name="CollisionShape3D" type="CollisionShape3D" parent="ast_ice_shards_2/StaticBody3D" index="0"]
shape = SubResource( 1 )

[connection signal="input_event" from="ast_ice_shards_2/StaticBody3D" to="." method="_on_StaticBody_input_event"]
