[gd_scene load_steps=4 format=2]

[ext_resource path="res://blokoj/asteroidoj/resursoj/ast_ice_4_cr.glb" type="PackedScene" id=1]
[ext_resource path="res://blokoj/asteroidoj/skriptoj/ast_.gd" type="Script" id=2]

[sub_resource type="ConcavePolygonShape3D" id=1]
data = PackedVector3Array( -2.3366, 11.3904, -6.9687, 3.6717, 12.1816, -4.7266, -1.0207, 12.5371, -3.9284, -2.3366, 11.3904, -6.9687, -1.0207, 12.5371, -3.9284, -6.1361, 10.8196, -5.5709, -6.1361, 10.8196, -5.5709, 0.009, 13.6171, 3.5573, -6.5812, 10.7659, -1.9978, 0.009, 13.6171, 3.5573, -2.3439, 12.6408, 3.4393, -6.5812, 10.7659, -1.9978, -6.5812, 10.7659, -1.9978, -2.3439, 12.6408, 3.4393, -6.2295, 10.1515, 3.0229, -6.5812, 10.7659, -1.9978, -6.2295, 10.1515, 3.0229, -11.3083, 6.4889, -2.6582, 1.5175, 13.652, 1.6734, 6.1017, 13.0413, 2.3091, 4.4911, 13.314, 5.7848, 4.4911, 13.314, 5.7848, 7.9148, 12.2762, 3.5062, 6.9135, 11.7963, 6.1961, -2.3439, 12.6408, 3.4393, 0.009, 13.6171, 3.5573, 1.5223, 13.0378, 7.2974, -4.4043, 10.4776, 6.6152, 1.5223, 13.0378, 7.2974, 0.7117, 10.7748, 11.3594, 4.0613, 10.1378, -7.5217, 6.0117, 7.6641, -8.9343, 6.8552, 9.9815, -5.9674, -1.2361, 8.2726, -10.2812, 1.6423, 6.0152, -12.0467, 4.0613, 10.1378, -7.5217, -1.2361, 8.2726, -10.2812, -6.1361, 10.8196, -5.5709, -10.411, 6.001, -8.033, -11.3083, 6.4889, -2.6582, -7.4549, 6.8551, 9.8109, -9.555, 5.3747, 7.6849, -7.4549, 6.8551, 9.8109, -2.5612, 10.0353, 11.0361, -1.8372, 8.774, 14.2991, 1.5223, 13.0378, 7.2974, 4.4911, 13.314, 5.7848, 3.5175, 11.7939, 9.077, 5.6999, 12.8015, -1.926, 9.9713, 8.5704, -1.8635, 7.9148, 12.2762, 3.5062, 6.8552, 9.9815, -5.9674, 6.0117, 7.6641, -8.9343, 11.4719, 5.9527, -2.4931, 7.2875, -8.0155, 10.9585, 7.5749, -9.8522, 10.018, 4.684, -8.2861, 12.1112, 7.2875, -8.0155, 10.9585, 4.684, -8.2861, 12.1112, -0.3488, -6.2143, 15.4827, 5.0554, -3.7081, 14.2716, 7.2875, -8.0155, 10.9585, -0.3488, -6.2143, 15.4827, 6.0112, 8.092, 11.2194, 0.8748, 9.1709, 13.642, 3.5175, 11.7939, 9.077, 1.9762, 0.1234, 17.0927, 5.0554, -3.7081, 14.2716, -2.2544, -2.5927, 18.2056, 5.8012, 1.1954, 14.3022, 1.9762, 0.1234, 17.0927, 3.0215, 3.8082, 15.9127, 3.0215, 3.8082, 15.9127, -2.3651, 0.5913, 18.4785, -0.935, 6.8304, 16.2573, -0.3488, -6.2143, 15.4827, -3.825, -7.8572, 14.0517, -4.0532, -5.0631, 16.7468, -0.935, 6.8304, 16.2573, -3.7421, 4.4166, 17.3578, -1.8372, 8.774, 14.2991, -2.3651, 0.5913, 18.4785, -7.7094, -3.8828, 15.0646, -7.7712, 0.8373, 15.1102, -3.7421, 4.4166, 17.3578, -7.7712, 0.8373, 15.1102, -5.5925, 5.0743, 15.3422, 9.2529, -1.1527, 10.3826, 5.8012, 1.1954, 14.3022, 9.5002, 4.1339, 8.5805, 3.5175, 11.7939, 9.077, 0.8748, 9.1709, 13.642, 0.7117, 10.7748, 11.3594, 0.8748, 9.1709, 13.642, -1.8372, 8.774, 14.2991, 0.7117, 10.7748, 11.3594, -1.8372, 8.774, 14.2991, -5.5925, 5.0743, 15.3422, -7.4549, 6.8551, 9.8109, -7.4549, 6.8551, 9.8109, -5.5925, 5.0743, 15.3422, -9.555, 5.3747, 7.6849, -5.5925, 5.0743, 15.3422, -7.7712, 0.8373, 15.1102, -9.555, 5.3747, 7.6849, -6.4516, -6.2969, 14.7772, -8.2321, -8.4846, 10.2012, -7.7094, -3.8828, 15.0646, 0.0532, -10.2438, 11.448, -2.9904, -12.0563, 8.515, -3.825, -7.8572, 14.0517, 4.684, -8.2861, 12.1112, 6.1949, -13.2772, 7.5243, 0.0532, -10.2438, 11.448, -9.5408, -6.1875, 9.4584, -11.1691, -8.0635, 2.595, -10.9583, -2.8004, 6.6378, -9.6656, 2.3897, 9.827, -10.9583, -2.8004, 6.6378, -11.9869, 2.5537, 2.7246, -9.555, 5.3747, 7.6849, -9.6656, 2.3897, 9.827, -11.9869, 2.5537, 2.7246, -10.9583, -2.8004, 6.6378, -12.6058, -2.473, -0.7614, -12.929, 0.9328, -1.8963, -11.9869, 2.5537, 2.7246, -10.9583, -2.8004, 6.6378, -12.929, 0.9328, -1.8963, -9.555, 5.3747, 7.6849, -11.9869, 2.5537, 2.7246, -12.8222, 4.1655, -4.3344, -12.6058, -2.473, -0.7614, -11.1691, -8.0635, 2.595, -11.5453, -7.5828, -2.797, -12.929, 0.9328, -1.8963, -12.6058, -2.473, -0.7614, -12.6101, -1.2496, -5.4742, -10.6787, 7.3518, -6.2877, -12.8222, 4.1655, -4.3344, -11.4392, 3.9278, -7.8491, -10.6787, 7.3518, -6.2877, -11.4392, 3.9278, -7.8491, -10.411, 6.001, -8.033, -8.2321, -8.4846, 10.2012, -9.9664, -9.6262, 4.9691, -9.5408, -6.1875, 9.4584, -7.7094, -3.8828, 15.0646, -9.5408, -6.1875, 9.4584, -9.159, -1.4339, 12.4996, -9.555, 5.3747, 7.6849, -7.7712, 0.8373, 15.1102, -9.6656, 2.3897, 9.827, -9.9936, -7.9797, -5.8387, -8.6088, -8.1571, -7.2981, -10.5411, -0.2283, -8.4718, -11.5453, -7.5828, -2.797, -9.4197, -11.6186, -1.8174, -9.9936, -7.9797, -5.8387, -3.0635, -15.4189, -3.0568, -6.0616, -12.8878, -4.2493, -5.4284, -15.3593, -1.0082, -3.0635, -15.4189, -3.0568, -2.5859, -16.1805, 0.0331, 2.0141, -15.3968, -5.1297, 7.6845, -15.7187, -3.3059, 2.0141, -15.3968, -5.1297, 2.7578, -16.1151, 1.1611, 6.8545, -14.97, -5.9004, 2.0141, -15.3968, -5.1297, 7.6845, -15.7187, -3.3059, -2.5859, -16.1805, 0.0331, -5.4284, -15.3593, -1.0082, -2.184, -15.8525, 2.9984, -5.4284, -15.3593, -1.0082, -6.1405, -13.8249, 2.9452, -2.184, -15.8525, 2.9984, 2.7578, -16.1151, 1.1611, -2.5859, -16.1805, 0.0331, -2.184, -15.8525, 2.9984, 2.7578, -16.1151, 1.1611, 2.623, -15.8876, 3.4679, 8.1575, -15.676, 0.8894, 2.7578, -16.1151, 1.1611, -2.184, -15.8525, 2.9984, 2.623, -15.8876, 3.4679, 2.623, -15.8876, 3.4679, -2.184, -15.8525, 2.9984, -1.8437, -14.9908, 4.9411, 2.623, -15.8876, 3.4679, 6.1949, -13.2772, 7.5243, 8.1575, -15.676, 0.8894, -6.1405, -13.8249, 2.9452, -7.5374, -9.7686, 8.9756, -1.8437, -14.9908, 4.9411, -3.2954, -10.6234, -8.9031, -8.6088, -8.1571, -7.2981, -6.0616, -12.8878, -4.2493, -0.3966, -14.2435, -6.8857, -6.0616, -12.8878, -4.2493, -3.0635, -15.4189, -3.0568, -0.3966, -14.2435, -6.8857, -3.0635, -15.4189, -3.0568, 2.0141, -15.3968, -5.1297, 2.901, -11.9295, -10.3878, -0.3966, -14.2435, -6.8857, 4.9693, -13.5123, -8.3982, 4.9693, -13.5123, -8.3982, -0.3966, -14.2435, -6.8857, 2.0141, -15.3968, -5.1297, 6.8545, -14.97, -5.9004, 4.9693, -13.5123, -8.3982, 2.0141, -15.3968, -5.1297, 6.8545, -14.97, -5.9004, 7.6845, -15.7187, -3.3059, 8.7073, -13.9884, -4.8993, 9.7347, -14.1019, 2.5842, 8.1575, -15.676, 0.8894, 6.1949, -13.2772, 7.5243, 8.5465, -10.2627, 8.5971, 6.1949, -13.2772, 7.5243, 7.5749, -9.8522, 10.018, 3.6345, -13.9243, 7.4562, 0.0532, -10.2438, 11.448, 6.1949, -13.2772, 7.5243, -6.1405, -13.8249, 2.9452, -9.9664, -9.6262, 4.9691, -7.5374, -9.7686, 8.9756, -6.0616, -12.8878, -4.2493, -8.6088, -8.1571, -7.2981, -9.4197, -11.6186, -1.8174, 8.7073, -13.9884, -4.8993, 10.1031, -14.2365, 0.7257, 11.2552, -9.7969, -4.5784, 10.5999, -5.7558, -7.9841, 11.2552, -9.7969, -4.5784, 12.7292, -8.0527, -1.0838, 11.4719, 5.9527, -2.4931, 10.9182, -1.0946, -7.2605, 12.3709, 2.5205, -1.6826, 13.1294, -4.7924, 2.2629, 12.7292, -8.0527, -1.0838, 12.6746, -9.201, 1.6396, 12.3709, 2.5205, -1.6826, 12.7292, -8.0527, -1.0838, 13.1294, -4.7924, 2.2629, 11.3652, 7.4628, 3.4649, 12.3709, 2.5205, -1.6826, 13.1294, -4.7924, 2.2629, 11.4719, 5.9527, -2.4931, 12.3709, 2.5205, -1.6826, 11.3652, 7.4628, 3.4649, 9.9713, 8.5704, -1.8635, 11.4719, 5.9527, -2.4931, 11.3652, 7.4628, 3.4649, 12.6746, -9.201, 1.6396, 9.7347, -14.1019, 2.5842, 8.5465, -10.2627, 8.5971, 11.6512, -5.9426, 6.8565, 12.6746, -9.201, 1.6396, 8.5465, -10.2627, 8.5971, 13.1294, -4.7924, 2.2629, 12.6746, -9.201, 1.6396, 11.6512, -5.9426, 6.8565, 11.3652, 7.4628, 3.4649, 13.1294, -4.7924, 2.2629, 12.2667, -3.1894, 5.7474, 6.0117, 7.6641, -8.9343, 7.2152, 2.4463, -10.7669, 11.4719, 5.9527, -2.4931, 6.8552, 9.9815, -5.9674, 11.4719, 5.9527, -2.4931, 9.9713, 8.5704, -1.8635, 7.9148, 12.2762, 3.5062, 9.9713, 8.5704, -1.8635, 9.4088, 10.5092, 3.9948, 7.9148, 12.2762, 3.5062, 9.4088, 10.5092, 3.9948, 6.9135, 11.7963, 6.1961, -7.7094, -3.8828, 15.0646, -4.0532, -5.0631, 16.7468, -6.4516, -6.2969, 14.7772, -7.7094, -3.8828, 15.0646, -2.2544, -2.5927, 18.2056, -4.0532, -5.0631, 16.7468, 10.1031, -14.2365, 0.7257, 8.1575, -15.676, 0.8894, 9.7347, -14.1019, 2.5842, -8.6088, -8.1571, -7.2981, -3.2954, -10.6234, -8.9031, -4.1409, -9.1677, -9.3239, -8.111, -0.7058, -9.9088, 1.4448, 0.4283, -13.8299, -8.5154, 2.355, -9.8123, -8.111, -0.7058, -9.9088, 1.1847, -2.008, -13.6716, 1.4448, 0.4283, -13.8299, -8.5154, 2.355, -9.8123, 1.4448, 0.4283, -13.8299, -6.5399, 5.2651, -10.2249, -4.1409, -9.1677, -9.3239, 3.3731, -6.0891, -13.135, 1.1847, -2.008, -13.6716, -4.3146, -5.2728, -10.6137, -4.1409, -9.1677, -9.3239, 1.1847, -2.008, -13.6716, -3.2954, -10.6234, -8.9031, 2.901, -11.9295, -10.3878, 3.3731, -6.0891, -13.135, 1.1847, -2.008, -13.6716, 3.3731, -6.0891, -13.135, 3.8827, -0.6709, -14.0299, 0.7717, 3.982, -13.0158, 3.8827, -0.6709, -14.0299, 1.6423, 6.0152, -12.0467, 2.901, -11.9295, -10.3878, 4.9693, -13.5123, -8.3982, 4.3941, -10.3339, -11.075, 3.3731, -6.0891, -13.135, 4.3941, -10.3339, -11.075, 5.3799, -5.3844, -13.0918, 3.8827, -0.6709, -14.0299, 6.1793, -2.8104, -13.0028, 7.2152, 2.4463, -10.7669, -8.6088, -8.1571, -7.2981, -4.3146, -5.2728, -10.6137, -8.111, -0.7058, -9.9088, -10.5411, -0.2283, -8.4718, -8.6088, -8.1571, -7.2981, -8.111, -0.7058, -9.9088, 1.6423, 6.0152, -12.0467, 7.2152, 2.4463, -10.7669, 6.0117, 7.6641, -8.9343, 5.3799, -5.3844, -13.0918, 10.5999, -5.7558, -7.9841, 6.1793, -2.8104, -13.0028, -3.2954, -10.6234, -8.9031, -0.3966, -14.2435, -6.8857, 2.901, -11.9295, -10.3878, 4.0613, 10.1378, -7.5217, 6.8552, 9.9815, -5.9674, 3.6717, 12.1816, -4.7266, 4.0613, 10.1378, -7.5217, 3.6717, 12.1816, -4.7266, -2.3366, 11.3904, -6.9687, -6.1361, 10.8196, -5.5709, -10.6787, 7.3518, -6.2877, -10.411, 6.001, -8.033, 3.6717, 12.1816, -4.7266, 6.8552, 9.9815, -5.9674, 5.6999, 12.8015, -1.926, 5.6999, 12.8015, -1.926, -1.0207, 12.5371, -3.9284, 3.6717, 12.1816, -4.7266, -6.1361, 10.8196, -5.5709, -6.5812, 10.7659, -1.9978, -10.6787, 7.3518, -6.2877, 5.6999, 12.8015, -1.926, 7.9148, 12.2762, 3.5062, 6.1017, 13.0413, 2.3091, -1.0207, 12.5371, -3.9284, 5.6999, 12.8015, -1.926, 1.5175, 13.652, 1.6734, -1.0207, 12.5371, -3.9284, 0.009, 13.6171, 3.5573, -6.1361, 10.8196, -5.5709, 5.6999, 12.8015, -1.926, 6.1017, 13.0413, 2.3091, 1.5175, 13.652, 1.6734, 1.5175, 13.652, 1.6734, 0.009, 13.6171, 3.5573, -1.0207, 12.5371, -3.9284, 6.1017, 13.0413, 2.3091, 7.9148, 12.2762, 3.5062, 4.4911, 13.314, 5.7848, 1.5175, 13.652, 1.6734, 4.4911, 13.314, 5.7848, 0.009, 13.6171, 3.5573, -2.3439, 12.6408, 3.4393, -4.4043, 10.4776, 6.6152, -6.2295, 10.1515, 3.0229, 0.009, 13.6171, 3.5573, 4.4911, 13.314, 5.7848, 1.5223, 13.0378, 7.2974, -2.3439, 12.6408, 3.4393, 1.5223, 13.0378, 7.2974, -4.4043, 10.4776, 6.6152, -4.4043, 10.4776, 6.6152, -7.4549, 6.8551, 9.8109, -6.2295, 10.1515, 3.0229, 1.6423, 6.0152, -12.0467, 6.0117, 7.6641, -8.9343, 4.0613, 10.1378, -7.5217, -1.2361, 8.2726, -10.2812, 4.0613, 10.1378, -7.5217, -2.3366, 11.3904, -6.9687, -2.3366, 11.3904, -6.9687, -6.1361, 10.8196, -5.5709, -1.2361, 8.2726, -10.2812, -6.5812, 10.7659, -1.9978, -11.3083, 6.4889, -2.6582, -10.6787, 7.3518, -6.2877, -6.2295, 10.1515, 3.0229, -7.4549, 6.8551, 9.8109, -11.3083, 6.4889, -2.6582, -4.4043, 10.4776, 6.6152, -2.5612, 10.0353, 11.0361, -7.4549, 6.8551, 9.8109, -4.4043, 10.4776, 6.6152, 0.7117, 10.7748, 11.3594, -2.5612, 10.0353, 11.0361, 4.4911, 13.314, 5.7848, 6.9135, 11.7963, 6.1961, 3.5175, 11.7939, 9.077, 1.5223, 13.0378, 7.2974, 3.5175, 11.7939, 9.077, 0.7117, 10.7748, 11.3594, 6.8552, 9.9815, -5.9674, 9.9713, 8.5704, -1.8635, 5.6999, 12.8015, -1.926, 9.2529, -1.1527, 10.3826, 5.0554, -3.7081, 14.2716, 5.8012, 1.1954, 14.3022, 5.8012, 1.1954, 14.3022, 4.571, 6.0576, 14.1482, 9.5002, 4.1339, 8.5805, 4.684, -8.2861, 12.1112, 0.0532, -10.2438, 11.448, -0.3488, -6.2143, 15.4827, 5.8012, 1.1954, 14.3022, 5.0554, -3.7081, 14.2716, 1.9762, 0.1234, 17.0927, 5.8012, 1.1954, 14.3022, 3.0215, 3.8082, 15.9127, 4.571, 6.0576, 14.1482, 4.571, 6.0576, 14.1482, 0.8748, 9.1709, 13.642, 6.0112, 8.092, 11.2194, 5.0554, -3.7081, 14.2716, -0.3488, -6.2143, 15.4827, -2.2544, -2.5927, 18.2056, 3.0215, 3.8082, 15.9127, -0.935, 6.8304, 16.2573, 4.571, 6.0576, 14.1482, 4.571, 6.0576, 14.1482, -0.935, 6.8304, 16.2573, 0.8748, 9.1709, 13.642, -2.2544, -2.5927, 18.2056, -2.3651, 0.5913, 18.4785, 1.9762, 0.1234, 17.0927, 1.9762, 0.1234, 17.0927, -2.3651, 0.5913, 18.4785, 3.0215, 3.8082, 15.9127, -0.935, 6.8304, 16.2573, -1.8372, 8.774, 14.2991, 0.8748, 9.1709, 13.642, 0.0532, -10.2438, 11.448, -3.825, -7.8572, 14.0517, -0.3488, -6.2143, 15.4827, -0.3488, -6.2143, 15.4827, -4.0532, -5.0631, 16.7468, -2.2544, -2.5927, 18.2056, -2.3651, 0.5913, 18.4785, -3.7421, 4.4166, 17.3578, -0.935, 6.8304, 16.2573, -3.7421, 4.4166, 17.3578, -5.5925, 5.0743, 15.3422, -1.8372, 8.774, 14.2991, -3.825, -7.8572, 14.0517, -6.4516, -6.2969, 14.7772, -4.0532, -5.0631, 16.7468, -2.2544, -2.5927, 18.2056, -7.7094, -3.8828, 15.0646, -2.3651, 0.5913, 18.4785, -7.5374, -9.7686, 8.9756, -3.825, -7.8572, 14.0517, -2.9904, -12.0563, 8.515, -6.4516, -6.2969, 14.7772, -3.825, -7.8572, 14.0517, -7.5374, -9.7686, 8.9756, -2.3651, 0.5913, 18.4785, -7.7712, 0.8373, 15.1102, -3.7421, 4.4166, 17.3578, 9.2529, -1.1527, 10.3826, 7.2875, -8.0155, 10.9585, 5.0554, -3.7081, 14.2716, 9.5002, 4.1339, 8.5805, 4.571, 6.0576, 14.1482, 6.0112, 8.092, 11.2194, 6.0112, 8.092, 11.2194, 3.5175, 11.7939, 9.077, 6.9135, 11.7963, 6.1961, 0.7117, 10.7748, 11.3594, -1.8372, 8.774, 14.2991, -2.5612, 10.0353, 11.0361, -7.7094, -3.8828, 15.0646, -9.159, -1.4339, 12.4996, -7.7712, 0.8373, 15.1102, -7.5374, -9.7686, 8.9756, -8.2321, -8.4846, 10.2012, -6.4516, -6.2969, 14.7772, 12.3709, 2.5205, -1.6826, 10.5999, -5.7558, -7.9841, 12.7292, -8.0527, -1.0838, 12.3709, 2.5205, -1.6826, 10.9182, -1.0946, -7.2605, 10.5999, -5.7558, -7.9841, 7.5749, -9.8522, 10.018, 6.1949, -13.2772, 7.5243, 4.684, -8.2861, 12.1112, -9.9664, -9.6262, 4.9691, -11.1691, -8.0635, 2.595, -9.5408, -6.1875, 9.4584, -9.5408, -6.1875, 9.4584, -10.9583, -2.8004, 6.6378, -9.159, -1.4339, 12.4996, -10.9583, -2.8004, 6.6378, -11.1691, -8.0635, 2.595, -12.6058, -2.473, -0.7614, -11.9869, 2.5537, 2.7246, -12.929, 0.9328, -1.8963, -12.8222, 4.1655, -4.3344, -9.555, 5.3747, 7.6849, -12.8222, 4.1655, -4.3344, -11.3083, 6.4889, -2.6582, -11.1691, -8.0635, 2.595, -11.0549, -9.6283, -0.0472, -11.5453, -7.5828, -2.797, -12.6058, -2.473, -0.7614, -11.5453, -7.5828, -2.797, -12.6101, -1.2496, -5.4742, -12.929, 0.9328, -1.8963, -12.6101, -1.2496, -5.4742, -12.8222, 4.1655, -4.3344, -11.3083, 6.4889, -2.6582, -12.8222, 4.1655, -4.3344, -10.6787, 7.3518, -6.2877, -12.8222, 4.1655, -4.3344, -12.6101, -1.2496, -5.4742, -11.4392, 3.9278, -7.8491, -11.5453, -7.5828, -2.797, -9.9936, -7.9797, -5.8387, -12.6101, -1.2496, -5.4742, -12.6101, -1.2496, -5.4742, -10.5411, -0.2283, -8.4718, -11.4392, 3.9278, -7.8491, -8.2321, -8.4846, 10.2012, -9.5408, -6.1875, 9.4584, -7.7094, -3.8828, 15.0646, -9.159, -1.4339, 12.4996, -10.9583, -2.8004, 6.6378, -9.6656, 2.3897, 9.827, -7.7712, 0.8373, 15.1102, -9.159, -1.4339, 12.4996, -9.6656, 2.3897, 9.827, -12.6101, -1.2496, -5.4742, -9.9936, -7.9797, -5.8387, -10.5411, -0.2283, -8.4718, -9.4197, -11.6186, -1.8174, -8.6088, -8.1571, -7.2981, -9.9936, -7.9797, -5.8387, -11.0549, -9.6283, -0.0472, -9.4197, -11.6186, -1.8174, -11.5453, -7.5828, -2.797, -11.0549, -9.6283, -0.0472, -8.8613, -12.6889, 0.7533, -9.4197, -11.6186, -1.8174, -11.1691, -8.0635, 2.595, -9.9664, -9.6262, 4.9691, -11.0549, -9.6283, -0.0472, -8.8613, -12.6889, 0.7533, -11.0549, -9.6283, -0.0472, -9.9664, -9.6262, 4.9691, -7.5374, -9.7686, 8.9756, -9.9664, -9.6262, 4.9691, -8.2321, -8.4846, 10.2012, -5.4284, -15.3593, -1.0082, -2.5859, -16.1805, 0.0331, -3.0635, -15.4189, -3.0568, 2.0141, -15.3968, -5.1297, -2.5859, -16.1805, 0.0331, 2.7578, -16.1151, 1.1611, -8.8613, -12.6889, 0.7533, -6.1405, -13.8249, 2.9452, -5.4284, -15.3593, -1.0082, 2.7578, -16.1151, 1.1611, 8.1575, -15.676, 0.8894, 7.6845, -15.7187, -3.3059, 2.623, -15.8876, 3.4679, 3.6345, -13.9243, 7.4562, 6.1949, -13.2772, 7.5243, -6.1405, -13.8249, 2.9452, -1.8437, -14.9908, 4.9411, -2.184, -15.8525, 2.9984, -1.8437, -14.9908, 4.9411, 3.6345, -13.9243, 7.4562, 2.623, -15.8876, 3.4679, -1.8437, -14.9908, 4.9411, -7.5374, -9.7686, 8.9756, -2.9904, -12.0563, 8.515, -1.8437, -14.9908, 4.9411, -2.9904, -12.0563, 8.515, 3.6345, -13.9243, 7.4562, 6.1949, -13.2772, 7.5243, 8.5465, -10.2627, 8.5971, 9.7347, -14.1019, 2.5842, 3.6345, -13.9243, 7.4562, -2.9904, -12.0563, 8.515, 0.0532, -10.2438, 11.448, -9.9664, -9.6262, 4.9691, -6.1405, -13.8249, 2.9452, -8.8613, -12.6889, 0.7533, -9.4197, -11.6186, -1.8174, -8.8613, -12.6889, 0.7533, -5.4284, -15.3593, -1.0082, -6.0616, -12.8878, -4.2493, -9.4197, -11.6186, -1.8174, -5.4284, -15.3593, -1.0082, 8.7073, -13.9884, -4.8993, 11.2552, -9.7969, -4.5784, 8.0256, -12.019, -7.6497, 8.0256, -12.019, -7.6497, 11.2552, -9.7969, -4.5784, 10.5999, -5.7558, -7.9841, 7.2152, 2.4463, -10.7669, 10.9182, -1.0946, -7.2605, 11.4719, 5.9527, -2.4931, 7.6845, -15.7187, -3.3059, 10.1031, -14.2365, 0.7257, 8.7073, -13.9884, -4.8993, 6.0112, 8.092, 11.2194, 9.4088, 10.5092, 3.9948, 11.3652, 7.4628, 3.4649, 6.9135, 11.7963, 6.1961, 9.4088, 10.5092, 3.9948, 6.0112, 8.092, 11.2194, 11.2552, -9.7969, -4.5784, 10.1031, -14.2365, 0.7257, 12.6746, -9.201, 1.6396, 11.2552, -9.7969, -4.5784, 12.6746, -9.201, 1.6396, 12.7292, -8.0527, -1.0838, 10.1031, -14.2365, 0.7257, 9.7347, -14.1019, 2.5842, 12.6746, -9.201, 1.6396, 9.9713, 8.5704, -1.8635, 11.3652, 7.4628, 3.4649, 9.4088, 10.5092, 3.9948, 13.1294, -4.7924, 2.2629, 11.6512, -5.9426, 6.8565, 12.2667, -3.1894, 5.7474, 12.2667, -3.1894, 5.7474, 11.6512, -5.9426, 6.8565, 9.2529, -1.1527, 10.3826, 11.3652, 7.4628, 3.4649, 12.2667, -3.1894, 5.7474, 9.5002, 4.1339, 8.5805, 12.2667, -3.1894, 5.7474, 9.2529, -1.1527, 10.3826, 9.5002, 4.1339, 8.5805, 7.5749, -9.8522, 10.018, 11.6512, -5.9426, 6.8565, 8.5465, -10.2627, 8.5971, 7.2875, -8.0155, 10.9585, 11.6512, -5.9426, 6.8565, 7.5749, -9.8522, 10.018, 11.3652, 7.4628, 3.4649, 9.5002, 4.1339, 8.5805, 6.0112, 8.092, 11.2194, 6.8545, -14.97, -5.9004, 8.7073, -13.9884, -4.8993, 8.0256, -12.019, -7.6497, 6.1793, -2.8104, -13.0028, 10.5999, -5.7558, -7.9841, 10.9182, -1.0946, -7.2605, 11.6512, -5.9426, 6.8565, 7.2875, -8.0155, 10.9585, 9.2529, -1.1527, 10.3826, 1.6423, 6.0152, -12.0467, -6.5399, 5.2651, -10.2249, 0.7717, 3.982, -13.0158, 1.6423, 6.0152, -12.0467, -1.2361, 8.2726, -10.2812, -6.5399, 5.2651, -10.2249, 7.6845, -15.7187, -3.3059, 8.1575, -15.676, 0.8894, 10.1031, -14.2365, 0.7257, -4.1409, -9.1677, -9.3239, -4.3146, -5.2728, -10.6137, -8.6088, -8.1571, -7.2981, -10.411, 6.001, -8.033, -6.5399, 5.2651, -10.2249, -1.2361, 8.2726, -10.2812, -4.3146, -5.2728, -10.6137, 1.1847, -2.008, -13.6716, -8.111, -0.7058, -9.9088, -3.2954, -10.6234, -8.9031, 3.3731, -6.0891, -13.135, -4.1409, -9.1677, -9.3239, 1.4448, 0.4283, -13.8299, 0.7717, 3.982, -13.0158, -6.5399, 5.2651, -10.2249, 5.3799, -5.3844, -13.0918, 3.8827, -0.6709, -14.0299, 3.3731, -6.0891, -13.135, 6.1793, -2.8104, -13.0028, 3.8827, -0.6709, -14.0299, 5.3799, -5.3844, -13.0918, 1.1847, -2.008, -13.6716, 3.8827, -0.6709, -14.0299, 1.4448, 0.4283, -13.8299, 1.4448, 0.4283, -13.8299, 3.8827, -0.6709, -14.0299, 0.7717, 3.982, -13.0158, 2.901, -11.9295, -10.3878, 4.3941, -10.3339, -11.075, 3.3731, -6.0891, -13.135, -6.5399, 5.2651, -10.2249, -11.4392, 3.9278, -7.8491, -8.5154, 2.355, -9.8123, -6.5399, 5.2651, -10.2249, -10.411, 6.001, -8.033, -11.4392, 3.9278, -7.8491, 3.8827, -0.6709, -14.0299, 7.2152, 2.4463, -10.7669, 1.6423, 6.0152, -12.0467, -8.111, -0.7058, -9.9088, -8.5154, 2.355, -9.8123, -10.5411, -0.2283, -8.4718, -10.5411, -0.2283, -8.4718, -8.5154, 2.355, -9.8123, -11.4392, 3.9278, -7.8491, 6.1793, -2.8104, -13.0028, 10.9182, -1.0946, -7.2605, 7.2152, 2.4463, -10.7669, 8.0256, -12.019, -7.6497, 10.5999, -5.7558, -7.9841, 5.3799, -5.3844, -13.0918, 4.3941, -10.3339, -11.075, 8.0256, -12.019, -7.6497, 5.3799, -5.3844, -13.0918, 4.9693, -13.5123, -8.3982, 8.0256, -12.019, -7.6497, 4.3941, -10.3339, -11.075, 6.8545, -14.97, -5.9004, 8.0256, -12.019, -7.6497, 4.9693, -13.5123, -8.3982, -6.0616, -12.8878, -4.2493, -0.3966, -14.2435, -6.8857, -3.2954, -10.6234, -8.9031 )

[node name="ast_ice_4_cr" instance=ExtResource( 1 )]
script = ExtResource( 2 )

[node name="StaticBody3D" type="StaticBody3D" parent="ast_ice_4" index="0"]

[node name="CollisionShape3D" type="CollisionShape3D" parent="ast_ice_4/StaticBody3D" index="0"]
shape = SubResource( 1 )

[connection signal="input_event" from="ast_ice_4/StaticBody3D" to="." method="_on_StaticBody_input_event"]
