<?xml version="1.0" standalone="no"?>
<!DOCTYPE svg PUBLIC "-//W3C//DTD SVG 1.1//EN" "http://www.w3.org/Graphics/SVG/1.1/DTD/svg11.dtd">
<svg xmlns="http://www.w3.org/2000/svg">
<defs >
<font id="Jura" horiz-adv-x="1112" ><font-face
    font-family="Jura"
    units-per-em="2000"
    panose-1="0 0 0 0 0 0 0 0 0 0"
    ascent="1930"
    descent="-436"
    alphabetic="0" />
<glyph unicode=" " glyph-name="space" horiz-adv-x="502" />
<glyph unicode="!" glyph-name="exclam" horiz-adv-x="446" d="M224 305Q172 305 172 357V1337Q172 1389 224 1389Q277 1389 277 1337V357Q277 305 224 305ZM205 0Q147 0 147 59V97Q147 154 205 154H242Q299 154 299 97V59Q299 0 242 0H205Z" />
<glyph unicode="&quot;" glyph-name="quotedbl" horiz-adv-x="607" d="M196 919Q176 919 162 933T147 968V1376Q147 1397 161 1411T196 1425Q217 1425 231 1411T245 1376V968Q245 948 231 934T196 919ZM411 919Q391 919 377 933T362 968V1376Q362 1397 376 1411T411
1425Q432 1425 446 1411T460 1376V968Q460 948 446 934T411 919Z" />
<glyph unicode="#" glyph-name="numbersign" horiz-adv-x="1158" d="M218 -5Q198 -5 184 9T169 44Q169 48 169 51T171 58L271 417H116Q96 417 82 431T67 466Q67 487 81 501T116 515H299L383 817H228Q208 817 194 831T179 866Q179 887 193 901T228 915H409L511
1278Q516 1294 528 1304T558 1315Q579 1315 593 1301T607 1266Q607 1263 607 1260T605 1252L511 915H769L871 1278Q876 1294 888 1304T918 1315Q939 1315 953 1301T967 1266Q967 1263 967 1260T965 1252L871 915H1082Q1103 915 1117 901T1131 866Q1131 846 1117
832T1082 817H844L760 515H970Q991 515 1005 501T1019 466Q1019 446 1005 432T970 417H733L625 32Q621 17 608 6T578 -5Q558 -5 544 9T529 44Q529 48 529 51T531 58L631 417H373L265 32Q261 17 248 6T218 -5ZM400 515H659L743 817H484L400 515Z" />
<glyph unicode="$" glyph-name="dollar" horiz-adv-x="1281" d="M503 0Q326 0 243 83T160 343Q160 367 174 381T213 395Q237 395 251 381T265 343Q265 209 317 157T503 105H779Q912 105 964 157T1016 343Q1016 477 964 528T779 580H533Q364 580 285 664T206 916Q206
1085 284 1163T531 1241H773Q941 1241 1019 1163T1097 918Q1097 894 1083 880T1045 866Q1021 866 1007 880T992 918Q992 1040 944 1088T773 1136H531Q408 1136 360 1088T311 916Q311 794 359 740T533 685H779Q956 685 1038 603T1121 343Q1121 166 1039 83T779 0H503ZM645
-168Q596 -168 596 -119V618L605 653V1389Q605 1438 654 1438Q703 1438 703 1389V645L694 610V-119Q694 -168 645 -168Z" />
<glyph unicode="%" glyph-name="percent" horiz-adv-x="1513" d="M366 620Q233 620 170 683T107 880V1030Q107 1164 170 1226T366 1289H398Q531 1289 594 1226T657 1030V882Q657 748 594 684T398 620H366ZM209 880Q209 790 243 757T366 723H398Q487 723 521 757T555
882V1030Q555 1119 521 1152T398 1186H366Q277 1186 243 1154T209 1030V880ZM1115 0Q982 0 919 63T856 259V409Q856 544 919 606T1115 668H1147Q1280 668 1343 605T1406 409V261Q1406 127 1343 64T1147 0H1115ZM958 259Q958 170 992 136T1115 102H1147Q1236 102
1270 136T1304 261V409Q1304 498 1270 532T1147 566H1115Q1026 566 992 534T958 409V259ZM288 -8Q266 -8 251 7T236 44Q236 54 239 62T246 77L1168 1297Q1183 1319 1210 1319Q1232 1319 1247 1304T1263 1266Q1263 1258 1260 1250T1253 1234L331 14Q315 -8 288 -8Z"
/>
<glyph unicode="&amp;" glyph-name="ampersand" horiz-adv-x="1225" d="M1170 82Q1135 43 1095 78L432 663Q365 721 328 768T276 865T260 976Q260 1130 333 1203T559 1277H609Q748 1277 820 1218T905 1033Q907 1007 894 993T854 978Q828 978 816 991T799 1030Q790
1110 748 1141T609 1172H559Q450 1172 408 1130T365 976Q365 930 375 896T416 826T502 742L1165 157Q1205 121 1170 82ZM535 -10Q318 -10 219 88T120 404Q120 568 178 664T360 797Q384 806 402 795T425 758Q430 730 419 717T384 695Q299 667 262 599T225 404Q225
289 254 222T351 125T535 95H599Q713 95 781 125T878 222T908 404V506Q908 558 961 558Q1013 558 1013 506V404Q1013 189 914 90T599 -10H535Z" />
<glyph unicode="&apos;" glyph-name="quotesingle" horiz-adv-x="392" d="M196 919Q176 919 162 933T147 968V1376Q147 1397 161 1411T196 1425Q217 1425 231 1411T245 1376V968Q245 948 231 934T196 919Z" />
<glyph unicode="(" glyph-name="parenleft" horiz-adv-x="533" d="M464 -329Q277 -329 192 -224T107 108V878Q107 1117 192 1226T464 1335Q485 1335 499 1321T513 1286Q513 1266 499 1252T464 1237Q369 1237 312 1203T230 1090T205 878V108Q205 -81 263 -156T464
-231Q485 -231 499 -245T513 -280Q513 -300 499 -314T464 -329Z" />
<glyph unicode=")" glyph-name="parenright" horiz-adv-x="533" d="M69 -329Q49 -329 35 -315T20 -280Q20 -259 34 -245T69 -231Q212 -231 270 -156T328 108V878Q328 1011 303 1090T221 1203T69 1237Q49 1237 35 1251T20 1286Q20 1307 34 1321T69 1335Q257 1335
341 1226T426 878V108Q426 -119 342 -224T69 -329Z" />
<glyph unicode="*" glyph-name="asterisk" horiz-adv-x="777" d="M389 704Q339 704 339 753V951L380 926L209 827Q188 816 172 820T142 846Q118 888 160 913L330 1011V965L160 1062Q138 1075 135 1093T142 1130Q155 1152 172 1155T209 1148L380 1049L339 1024V1223Q339
1272 389 1272Q437 1272 437 1223V1025L397 1050L567 1148Q609 1172 634 1130Q659 1087 616 1062L446 965V1011L616 913Q659 887 634 846Q608 803 567 827L397 925L437 950V753Q437 704 389 704Z" />
<glyph unicode="+" glyph-name="plus" horiz-adv-x="1122" d="M491 993Q491 1042 540 1042Q589 1042 589 993V263Q589 214 540 214Q491 214 491 263V993ZM196 605Q147 605 147 654Q147 703 196 703H926Q975 703 975 654Q975 605 926 605H196ZM196 605Q147 605
147 654Q147 703 196 703H926Q975 703 975 654Q975 605 926 605H196Z" />
<glyph unicode="," glyph-name="comma" horiz-adv-x="411" d="M115 -201Q92 -201 77 -188T66 -152L113 104Q117 154 170 154H208Q264 154 264 97V68Q264 49 262 39T255 20L161 -169Q145 -201 115 -201Z" />
<glyph unicode="-" glyph-name="hyphen" horiz-adv-x="944" d="M196 491Q176 491 162 505T147 540Q147 561 161 575T196 589H748Q769 589 783 575T797 540Q797 520 783 506T748 491H196Z" />
<glyph unicode="." glyph-name="period" horiz-adv-x="446" d="M205 0Q147 0 147 59V97Q147 154 205 154H242Q299 154 299 97V59Q299 0 242 0H205Z" />
<glyph unicode="/" glyph-name="slash" horiz-adv-x="682" d="M146 -274Q115 -274 102 -255T96 -207L506 1388Q515 1429 556 1429Q588 1429 601 1411T608 1361L197 -234Q188 -274 146 -274Z" />
<glyph unicode="0" glyph-name="zero" horiz-adv-x="1221" d="M551 -4Q334 -4 234 96T134 413V869Q134 1086 234 1185T551 1283H671Q888 1283 987 1184T1087 867V413Q1087 196 988 96T671 -4H551ZM551 101H671Q786 101 854 131T952 229T982 413V867Q982 982 952
1050T854 1148T671 1178H551Q436 1179 368 1150T269 1052T239 869V413Q239 298 269 230T367 131T551 101ZM593 561Q535 561 535 620V658Q535 715 593 715H630Q687 715 687 658V620Q687 561 630 561H593Z" />
<glyph unicode="1" glyph-name="one" horiz-adv-x="709" d="M457 0Q404 0 404 53V1164L452 1171L235 959Q217 941 199 940T163 957Q129 993 164 1031L401 1262Q425 1289 466 1289Q509 1289 509 1236V53Q509 0 457 0Z" />
<glyph unicode="2" glyph-name="two" horiz-adv-x="1134" d="M960 0H185Q131 0 131 53Q131 167 162 249T252 394T397 514T591 632Q690 689 758 733T861 827T897 950Q897 1081 846 1132T663 1184H449Q333 1184 281 1144T219 1004Q216 978 203 965T165 952Q139 952
125 966T113 1007Q125 1152 207 1220T449 1289H663Q838 1289 920 1207T1002 950Q1002 847 954 777T824 652T643 541Q516 468 430 410T297 282T239 105H960Q1013 105 1013 53Q1013 0 960 0Z" />
<glyph unicode="3" glyph-name="three" horiz-adv-x="1184" d="M463 2Q293 2 206 74T107 303Q105 329 119 343T159 358Q208 358 212 306Q222 195 278 151T463 107H691Q834 107 889 162T945 358Q945 499 890 554T691 610H506Q453 610 453 662Q453 715 506 715H718Q829
716 871 774T913 950Q913 1081 862 1132T679 1184H485Q369 1184 317 1144T255 1004Q249 952 201 952Q175 952 161 966T150 1007Q161 1152 243 1220T485 1289H679Q854 1289 936 1207T1018 950Q1018 749 873 675Q965 636 1007 558T1050 358Q1050 174 964 88T691 2H463Z"
/>
<glyph unicode="4" glyph-name="four" horiz-adv-x="1089" d="M816 0Q763 0 763 53L771 1145L800 1150L191 358L174 384L969 385Q995 385 1008 371T1022 332Q1022 280 969 280H120Q67 280 67 332Q67 357 89 387L758 1256Q772 1275 787 1282T826 1289Q876 1289
876 1236L868 53Q868 0 816 0Z" />
<glyph unicode="5" glyph-name="five" horiz-adv-x="1191" d="M490 0Q320 0 233 73T134 302Q132 328 146 342T186 357Q235 357 239 305Q249 194 305 150T490 105H698Q841 105 896 161T952 359V497Q952 638 896 694T698 750H550Q363 750 291 686Q275 672 259 666T221
667L210 670Q166 682 166 728V1236Q166 1289 218 1289H994Q1046 1289 1046 1236Q1046 1184 994 1184H271V800Q371 855 550 855H698Q884 855 970 769T1057 497V359Q1057 173 971 87T698 0H490Z" />
<glyph unicode="6" glyph-name="six" horiz-adv-x="1193" d="M493 2Q307 2 221 88T134 358V950Q134 1125 216 1207T473 1289H721Q881 1289 963 1221T1056 1007Q1059 981 1046 967T1006 952Q956 952 951 1004Q943 1104 891 1144T721 1184H473Q342 1184 291 1133T239
950V727Q307 853 493 853H701Q887 853 973 767T1059 494V360Q1059 175 973 89T701 2H493ZM493 107H701Q842 107 898 163T954 360V494Q954 636 898 692T701 748H493Q350 748 295 693T239 496V358Q239 218 294 163T493 107Z" />
<glyph unicode="7" glyph-name="seven" horiz-adv-x="951" d="M334 0Q281 0 282 55Q283 196 296 303T340 492T427 641T572 769Q644 820 688 877T753 1007T779 1184H120Q67 1184 67 1236Q67 1289 120 1289H832Q884 1289 884 1236Q884 1101 860 1001T780 825T632
684Q561 634 514 581T440 460T401 293T387 55Q386 0 334 0Z" />
<glyph unicode="8" glyph-name="eight" horiz-adv-x="1213" d="M910 668Q1079 592 1079 357Q1079 172 993 86T721 0H493Q307 0 221 86T134 357Q134 595 310 671Q176 752 176 952Q176 1126 258 1207T515 1289H709Q884 1289 965 1208T1047 952Q1047 747 910 668ZM515
1184Q384 1184 333 1133T281 952Q281 818 332 766T508 713L739 714Q817 714 861 740T924 819T942 952Q942 1081 891 1132T709 1184H515ZM721 105Q863 105 918 160T974 357Q974 498 919 553T721 608H493Q350 608 295 553T239 357Q239 216 294 161T493 105H721Z"
/>
<glyph unicode="9" glyph-name="nine" horiz-adv-x="1193" d="M701 1287Q887 1287 973 1201T1059 931V339Q1059 164 978 82T721 0H473Q313 0 231 69T137 282Q135 308 148 322T187 337Q237 337 242 285Q251 186 303 146T473 105H721Q852 105 903 156T954 339V562Q887
436 701 436H493Q307 436 221 522T134 795V929Q134 1115 220 1201T493 1287H701ZM701 1182H493Q352 1182 296 1126T239 929V795Q239 654 295 598T493 541H701Q843 541 898 596T954 793V931Q954 1072 899 1127T701 1182Z" />
<glyph unicode=":" glyph-name="colon" horiz-adv-x="446" d="M205 0Q147 0 147 59V97Q147 154 205 154H242Q299 154 299 97V59Q299 0 242 0H205ZM205 660Q147 660 147 719V757Q147 814 205 814H242Q299 814 299 757V719Q299 660 242 660H205Z" />
<glyph unicode=";" glyph-name="semicolon" horiz-adv-x="411" d="M115 -201Q92 -201 77 -188T66 -152L113 104Q117 154 170 154H208Q264 154 264 97V68Q264 49 262 39T255 20L161 -169Q145 -201 115 -201ZM171 660Q113 660 113 719V757Q113 814 171 814H208Q265
814 265 757V719Q265 660 208 660H171Z" />
<glyph unicode="&lt;" glyph-name="less" horiz-adv-x="1122" d="M901 282Q875 238 832 263L247 592Q212 611 212 654Q212 691 247 711L832 1037Q875 1061 901 1018Q925 975 881 949L318 637V668L882 350Q925 324 901 282Z" />
<glyph unicode="=" glyph-name="equal" horiz-adv-x="1122" d="M196 729Q147 729 147 778Q147 827 196 827H926Q975 827 975 778Q975 729 926 729H196ZM196 729Q147 729 147 778Q147 827 196 827H926Q975 827 975 778Q975 729 926 729H196Z" />
<glyph unicode="&gt;" glyph-name="greater" horiz-adv-x="1122" d="M220 282Q195 324 239 350L803 668V637L239 949Q196 975 220 1018Q245 1061 288 1037L873 711Q908 691 908 654Q908 611 873 592L288 263Q245 238 220 282Z" />
<glyph unicode="?" glyph-name="question" horiz-adv-x="968" d="M445 280Q392 280 392 332Q392 441 424 507T502 612T594 679Q638 708 672 737T726 813T746 938Q746 1069 695 1120T513 1172H379Q248 1172 197 1120T145 938Q145 886 93 886Q40 886 40 938Q40 1112
122 1194T379 1277H513Q688 1277 769 1195T851 938Q851 829 820 763T741 659T650 591Q606 562 571 533T517 458T497 332Q497 280 445 280ZM428 0Q371 0 371 59V97Q371 154 428 154H466Q522 154 522 97V59Q522 0 466 0H428Z" />
<glyph unicode="@" glyph-name="at" horiz-adv-x="1440" d="M1246 75Q1150 -7 1009 -7H459Q302 -8 231 64T160 300V806Q160 970 231 1042T459 1113H979Q1140 1113 1210 1041T1280 804V413Q1280 322 1235 281T1089 240Q1026 240 986 262T924 349Q884 283 823 260T681
236H667Q537 236 476 297T414 487V617Q414 752 474 813T665 874H747Q797 874 836 861T904 800Q908 845 920 859T949 874Q972 874 985 861T998 825V413Q998 365 1013 352T1089 338Q1150 338 1166 352T1182 413V804Q1182 886 1164 932T1102 996T979 1015H459Q342
1017 300 974T258 806V300Q258 177 300 134T459 91H1009Q1068 91 1106 104T1183 150Q1197 161 1215 161Q1236 161 1250 147T1264 112Q1264 90 1246 75ZM512 487Q512 399 545 367T667 334H681Q794 334 847 372T900 487V615Q900 712 869 744T747 776H665Q577 776
545 744T512 617V487Z" />
<glyph unicode="A" glyph-name="A" horiz-adv-x="1229" d="M86 5Q38 26 57 75L553 1248Q569 1289 612 1289H618Q659 1288 676 1248L1172 75Q1192 26 1144 5Q1095 -15 1076 33L943 348H288L155 33Q135 -15 86 5ZM331 453H899L615 1123L331 453Z" />
<glyph unicode="B" glyph-name="B" horiz-adv-x="1241" d="M240 0Q187 0 187 53V1236Q187 1289 240 1289H762Q909 1289 984 1215T1060 996V942Q1060 785 959 720Q1134 648 1134 408V345Q1134 175 1047 88T788 0H240ZM292 105H788Q915 105 972 162T1029 345V408Q1029
534 973 590T788 646H292V105ZM292 751H777Q868 751 911 797T955 942V996Q955 1096 910 1140T762 1184H292V751Z" />
<glyph unicode="C" glyph-name="C" horiz-adv-x="1331" d="M577 0Q360 0 260 100T160 417V872Q160 1091 259 1190T575 1289H817Q1001 1289 1091 1213T1190 967Q1193 940 1180 926T1140 912Q1090 912 1085 965Q1078 1089 1017 1136T817 1184H575Q460 1184 392 1155T295
1057T265 872V417Q265 301 295 233T393 135T577 105H817Q956 105 1017 152T1085 324Q1090 377 1140 377Q1166 377 1179 363T1190 322Q1181 153 1091 77T817 0H577Z" />
<glyph unicode="D" glyph-name="D" horiz-adv-x="1358" d="M240 0Q187 0 187 53V1236Q187 1289 240 1289H722Q971 1289 1084 1175T1198 812V477Q1198 228 1085 114T722 0H240ZM292 105H722Q858 105 939 141T1057 258T1093 477V812Q1093 948 1057 1029T940 1147T722
1184H292V105Z" />
<glyph unicode="E" glyph-name="E" horiz-adv-x="1122" d="M240 0Q187 0 187 53V1236Q187 1289 240 1289H989Q1042 1289 1042 1236Q1042 1184 989 1184H292V705H753Q806 705 806 653Q806 600 753 600H292V105H989Q1042 105 1042 53Q1042 0 989 0H240Z" />
<glyph unicode="F" glyph-name="F" horiz-adv-x="1013" d="M240 0Q187 0 187 53V1236Q187 1289 240 1289H961Q986 1289 999 1276T1013 1236Q1013 1184 961 1184H292V705H748Q801 705 801 653Q801 600 748 600H292V53Q292 0 240 0Z" />
<glyph unicode="G" glyph-name="G" horiz-adv-x="1333" d="M577 0Q360 0 260 100T160 417V872Q160 1091 259 1190T575 1289H817Q1001 1289 1091 1213T1190 967Q1193 940 1180 926T1140 912Q1090 912 1085 965Q1078 1089 1017 1136T817 1184H575Q460 1184 392 1155T295
1057T265 872V417Q265 301 295 233T393 135T577 105H817Q919 105 978 130T1063 214T1088 377V502L869 504Q817 504 817 557Q817 609 869 609L1141 607Q1193 607 1193 555V377Q1193 179 1104 90T817 0H577Z" />
<glyph unicode="H" glyph-name="H" horiz-adv-x="1423" d="M240 0Q216 0 202 14T187 53V1236Q187 1260 201 1274T240 1289Q264 1289 278 1275T292 1236V706H1131V1236Q1131 1260 1145 1274T1183 1289Q1207 1289 1221 1275T1236 1236V53Q1236 29 1222 15T1183 0Q1159
0 1145 14T1131 53V601H292V53Q292 29 278 15T240 0Z" />
<glyph unicode="I" glyph-name="I" horiz-adv-x="479" d="M240 0Q215 0 201 14T187 53V1237Q187 1262 201 1276T240 1290Q264 1290 278 1276T292 1237V53Q292 28 278 14T240 0Z" />
<glyph unicode="J" glyph-name="J" horiz-adv-x="1060" d="M424 0Q240 0 151 77T50 322Q48 348 61 362T101 377Q151 377 155 324Q163 200 223 153T424 105H506Q609 105 668 130T752 214T778 377V1236Q778 1289 830 1289Q883 1289 883 1236V377Q883 179 794 90T506 0H424Z" />
<glyph unicode="K" glyph-name="K" horiz-adv-x="1102" d="M240 0Q187 0 187 53V1236Q187 1289 240 1289Q292 1289 292 1236V661L886 1270Q922 1307 959 1271Q998 1235 961 1196L513 737L1040 83Q1073 42 1033 9Q992 -24 960 16L440 661L292 510V53Q292 0 240 0Z" />
<glyph unicode="L" glyph-name="L" horiz-adv-x="1000" d="M240 0Q187 0 187 53V1236Q187 1289 240 1289Q292 1289 292 1236V105H900Q953 105 953 53Q953 0 900 0H240Z" />
<glyph unicode="M" glyph-name="M" horiz-adv-x="1569" d="M240 0Q187 0 187 53V1236Q187 1289 240 1289Q278 1289 300 1254L798 493L774 490L1272 1254Q1293 1289 1335 1289Q1382 1289 1382 1236V53Q1382 0 1330 0Q1277 0 1277 53V1131L1308 1121L846 417Q824
383 783 383Q747 383 725 417L263 1121L292 1110V53Q292 0 240 0Z" />
<glyph unicode="N" glyph-name="N" horiz-adv-x="1409" d="M240 0Q187 0 187 53V1236Q187 1289 240 1289Q268 1289 294 1258L1141 170H1117V1236Q1117 1289 1170 1289Q1222 1289 1222 1236V53Q1222 0 1170 0Q1141 0 1116 31L268 1119H292V53Q292 0 240 0Z" />
<glyph unicode="O" glyph-name="O" horiz-adv-x="1393" d="M577 0Q360 0 260 100T160 417V873Q160 1092 260 1191T575 1289H817Q1034 1289 1133 1189T1233 872V417Q1233 200 1134 100T817 0H577ZM577 105H817Q932 105 1000 135T1098 233T1128 417V872Q1128 987
1098 1055T1000 1153T817 1184H575Q460 1185 393 1156T295 1058T265 873V417Q265 301 295 233T393 135T577 105Z" />
<glyph unicode="P" glyph-name="P" horiz-adv-x="1121" d="M240 0Q187 0 187 53V1236Q187 1289 240 1289H708Q879 1289 966 1201T1054 942V882Q1054 712 967 624T708 536H292V53Q292 0 240 0ZM292 641H708Q834 641 891 698T949 882V942Q949 1069 892 1126T708
1184H292V641Z" />
<glyph unicode="Q" glyph-name="Q" horiz-adv-x="1396" d="M1219 -8Q1235 -25 1235 -42T1217 -77Q1182 -111 1147 -77L880 199Q863 216 863 233T880 268Q915 302 951 268L1219 -8ZM577 0Q360 0 260 100T160 417V873Q160 1092 260 1191T575 1289H817Q1034 1289
1133 1189T1233 872V417Q1233 200 1134 100T817 0H577ZM577 105H817Q932 105 1000 135T1098 233T1128 417V872Q1128 987 1098 1055T1000 1153T817 1184H575Q460 1185 393 1156T295 1058T265 873V417Q265 301 295 233T393 135T577 105Z" />
<glyph unicode="R" glyph-name="R" horiz-adv-x="1186" d="M1059 -2Q1037 -15 1019 -11T987 14L659 536H292V53Q292 0 240 0Q187 0 187 53V1236Q187 1289 240 1289H708Q879 1289 966 1201T1054 942V882Q1054 731 985 645T781 540L1076 70Q1104 24 1059 -2ZM292
641H708Q834 641 891 698T949 882V942Q949 1069 892 1126T708 1184H292V641Z" />
<glyph unicode="S" glyph-name="S" horiz-adv-x="1324" d="M518 2Q339 2 253 81T160 332Q159 356 173 370T212 385Q236 385 250 371T266 333Q270 207 326 157T518 107H806Q948 107 1003 162T1059 358Q1059 500 1004 555T806 611H532Q356 611 274 693T192 950Q192
1125 273 1207T530 1289H810Q978 1289 1059 1214T1147 978Q1149 954 1135 940T1095 925Q1072 925 1058 939T1042 977Q1038 1092 986 1138T810 1184H530Q399 1184 348 1133T297 950Q297 819 348 768T532 716H806Q992 716 1078 630T1164 358Q1164 173 1078 88T806
2H518Z" />
<glyph unicode="T" glyph-name="T" horiz-adv-x="1135" d="M568 -1Q544 -1 530 13T515 51V1185H90Q66 1185 52 1199T37 1237Q37 1261 51 1275T90 1290H1046Q1070 1290 1084 1276T1098 1237Q1098 1213 1084 1199T1046 1185H620V51Q620 28 606 14T568 -1Z" />
<glyph unicode="U" glyph-name="U" horiz-adv-x="1427" d="M594 0Q377 0 277 100T177 417V1236Q177 1260 191 1274T230 1289Q254 1289 268 1275T282 1236V417Q282 301 312 233T410 135T594 105H834Q949 105 1017 135T1115 233T1145 417V1236Q1145 1260 1159 1274T1198
1289Q1222 1289 1236 1275T1250 1236V417Q1250 200 1151 100T834 0H594Z" />
<glyph unicode="V" glyph-name="V" horiz-adv-x="1217" d="M601 0Q567 0 552 36L33 1214Q20 1243 33 1262T71 1286Q112 1296 128 1256L628 122H591L1088 1256Q1104 1296 1146 1286Q1172 1281 1184 1262T1184 1214L663 36Q648 0 612 0H601Z" />
<glyph unicode="W" glyph-name="W" horiz-adv-x="1709" d="M463 0Q425 0 412 41L29 1219Q21 1242 35 1265T79 1289Q96 1289 109 1280T128 1251L484 157H455L792 1248Q799 1270 816 1280T853 1290Q873 1290 891 1280T914 1248L1251 157H1222L1578 1251Q1585 1270
1597 1279T1627 1289Q1661 1289 1673 1266T1678 1219L1294 41Q1281 0 1239 0H1235Q1192 0 1180 41L837 1143H866L523 41Q516 16 501 8T463 0Z" />
<glyph unicode="X" glyph-name="X" horiz-adv-x="1152" d="M108 12Q66 42 94 85L496 672L116 1204Q86 1245 129 1277Q171 1307 203 1264L565 756L940 1265Q972 1307 1014 1276Q1056 1245 1025 1203L631 664L1045 86Q1075 44 1032 12Q990 -18 960 25L561 581L181
26Q151 -17 108 12Z" />
<glyph unicode="Y" glyph-name="Y" horiz-adv-x="1080" d="M536 0Q484 0 484 53V498L36 1206Q9 1249 53 1279Q98 1307 126 1262L536 611L953 1263Q967 1284 985 1288T1025 1278Q1070 1251 1041 1206L589 498V53Q589 0 536 0Z" />
<glyph unicode="Z" glyph-name="Z" horiz-adv-x="1237" d="M172 0Q117 0 117 53Q117 67 123 79T142 110L967 1204V1184H380Q294 1184 249 1151T193 1043Q190 1018 177 1005T138 992Q113 992 99 1006T87 1047Q100 1166 174 1227T380 1289H1042Q1095 1289 1095 1236Q1095
1219 1091 1206T1073 1175L249 75V105H856Q944 105 989 138T1044 246Q1048 271 1061 284T1098 297Q1124 297 1138 283T1150 242Q1124 0 856 0H172Z" />
<glyph unicode="[" glyph-name="bracketleft" horiz-adv-x="393" d="M156 -329Q107 -329 107 -280V1286Q107 1335 156 1335H324Q345 1335 359 1321T373 1286Q373 1266 359 1252T324 1237H205V-231H324Q345 -231 359 -245T373 -280Q373 -300 359 -314T324 -329H156Z" />
<glyph unicode="\" glyph-name="backslash" horiz-adv-x="682" d="M536 -274Q494 -274 485 -234L74 1361Q67 1392 80 1410T126 1429Q166 1429 176 1388L586 -207Q594 -235 581 -254T536 -274Z" />
<glyph unicode="]" glyph-name="bracketright" horiz-adv-x="393" d="M237 -329H69Q49 -329 35 -315T20 -280Q20 -259 34 -245T69 -231H188V1237H69Q49 1237 35 1251T20 1286Q20 1307 34 1321T69 1335H237Q286 1335 286 1286V-280Q286 -329 237 -329Z" />
<glyph unicode="^" glyph-name="asciicircum" horiz-adv-x="772" d="M243 861Q238 848 225 839T196 829Q176 829 162 843T147 878Q147 883 148 888T151 897L309 1306Q326 1345 366 1345H407Q447 1345 463 1306L621 897Q623 893 624 888T625 878Q625 858 611 844T576
829Q561 829 548 838T530 861L386 1233L243 861Z" />
<glyph unicode="_" glyph-name="underscore" horiz-adv-x="871" d="M153 -104Q100 -104 100 -52Q100 1 153 1H659Q711 1 711 -52Q711 -104 659 -104H153Z" />
<glyph unicode="`" glyph-name="grave" horiz-adv-x="475" d="M355 1046Q316 1013 285 1053L113 1256Q83 1295 120 1326Q158 1360 190 1320L362 1117Q391 1078 355 1046Z" />
<glyph unicode="a" glyph-name="a" horiz-adv-x="1197" d="M468 0Q312 0 240 72T167 301Q167 457 240 530T468 603H923Q921 735 864 787T668 840H552Q425 840 366 813T293 721Q286 696 275 685T238 673Q212 673 198 687T187 727Q200 841 290 893T552 945H668Q855
945 941 859T1028 585V53Q1028 0 976 0Q923 0 923 53V152Q827 0 580 0H468ZM468 105H580Q677 105 750 126T869 196T923 324V498H468Q357 498 315 456T272 301Q272 190 314 148T468 105Z" />
<glyph unicode="b" glyph-name="b" horiz-adv-x="1232" d="M240 0Q187 0 187 53V1335Q187 1387 240 1387Q292 1387 292 1335V806Q337 875 420 911T636 947H712Q899 947 985 860T1072 586V361Q1072 174 986 87T712 0H636Q504 0 421 35T292 141V53Q292 0 240 0ZM636
105H712Q855 105 911 161T967 361V586Q967 729 911 785T712 842H636Q480 842 386 793T292 644V299Q294 202 388 154T636 105Z" />
<glyph unicode="c" glyph-name="c" horiz-adv-x="1142" d="M521 0Q334 0 247 87T160 361V587Q160 774 246 860T521 945H685Q832 945 909 896T1002 740Q1005 713 991 699T950 685Q926 685 914 697T896 734Q885 792 837 816T685 840H521Q378 842 322 787T265 587V361Q265
218 321 162T521 105H685Q789 105 837 129T896 212Q902 236 914 248T950 261Q976 261 990 247T1002 206Q987 100 910 50T685 0H521Z" />
<glyph unicode="d" glyph-name="d" horiz-adv-x="1214" d="M521 0Q334 0 247 87T160 361V585Q160 772 247 858T521 945H940V1335Q940 1387 993 1387Q1045 1387 1045 1335V53Q1045 0 993 0Q940 0 940 53V139Q897 70 814 35T597 0H521ZM521 105H597Q753 105 846
154T940 303V840H521Q378 840 322 784T265 585V361Q265 218 321 162T521 105Z" />
<glyph unicode="e" glyph-name="e" horiz-adv-x="1205" d="M265 432V359Q265 218 321 162T521 105H685Q811 105 868 137T937 250Q941 275 953 288T992 301Q1018 301 1031 287T1042 246Q1029 120 941 60T685 0H521Q334 0 247 86T160 359V585Q160 774 247 860T521
945H685Q872 945 958 859T1045 585V485Q1045 432 993 432H265ZM521 840Q378 842 322 786T265 585V537H940V585Q940 728 884 784T685 840H521Z" />
<glyph unicode="f" glyph-name="f" horiz-adv-x="657" d="M257 0Q204 0 204 53V840H120Q67 840 67 893Q67 945 120 945H204V1033Q204 1217 289 1302T559 1387Q610 1387 610 1335Q610 1282 559 1282Q419 1282 364 1228T309 1033V945H557Q610 945 610 893Q610 840
557 840H309V53Q309 0 257 0Z" />
<glyph unicode="g" glyph-name="g" horiz-adv-x="1214" d="M417 -400Q299 -400 237 -352T164 -199Q161 -173 175 -158T214 -143Q239 -143 252 -156T269 -195Q276 -253 310 -274T417 -295H789Q877 -295 908 -263T940 -143V143Q894 73 810 37T597 0H521Q334 0 247
86T160 359V585Q160 774 246 859T521 945H685Q783 945 844 919T940 838V893Q940 945 993 945Q1045 945 1045 893V-143Q1045 -275 983 -337T789 -400H417ZM521 105H597Q753 105 846 154T940 303V637Q940 750 877 795T685 840H521Q378 840 322 785T265 585V359Q265
218 321 162T521 105Z" />
<glyph unicode="h" glyph-name="h" horiz-adv-x="1221" d="M240 0Q187 0 187 53V1335Q187 1387 240 1387Q292 1387 292 1335V797Q387 945 636 945H692Q879 945 965 859T1052 585V53Q1052 0 1000 0Q947 0 947 53V585Q947 728 891 784T692 840H636Q481 840 392 791T292
638V53Q292 0 240 0Z" />
<glyph unicode="i" glyph-name="i" horiz-adv-x="479" d="M217 1127Q148 1127 148 1198V1243Q148 1312 217 1312H262Q329 1312 329 1243V1198Q329 1127 262 1127H217ZM240 0Q187 0 187 53V893Q187 945 240 945Q292 945 292 893V53Q292 0 240 0Z" />
<glyph unicode="j" glyph-name="j" horiz-adv-x="479" d="M217 1127Q149 1127 149 1198V1243Q149 1312 217 1312H263Q330 1312 330 1243V1198Q330 1127 263 1127H217ZM20 -400Q-5 -400 -20 -387T-35 -347Q-35 -321 -20 -308T20 -295Q116 -295 151 -259T187 -127V893Q187
945 240 945Q292 945 292 893V-127Q292 -267 226 -333T20 -400Z" />
<glyph unicode="k" glyph-name="k" horiz-adv-x="958" d="M240 0Q187 0 187 53V1335Q187 1387 240 1387Q292 1387 292 1335V504L800 940Q838 974 873 935Q907 896 868 861L500 544L900 90Q935 51 895 16Q857 -18 822 21L419 475L292 366V53Q292 0 240 0Z" />
<glyph unicode="l" glyph-name="l" horiz-adv-x="583" d="M462 0Q320 0 254 66T187 273V1335Q187 1387 240 1387Q292 1387 292 1335V273Q292 176 328 141T461 105Q515 105 515 53Q516 0 462 0Z" />
<glyph unicode="m" glyph-name="m" horiz-adv-x="1715" d="M1246 947Q1407 947 1476 865T1546 594V51Q1546 -1 1494 -1Q1441 -1 1441 51V594Q1441 726 1396 784T1246 842H1163Q1032 842 976 784T919 594V51Q919 -1 867 -1Q814 -1 814 51V594Q814 726 769 784T619
842H536Q405 842 349 784T292 594V51Q292 -1 240 -1Q187 -1 187 51V893Q187 945 240 945Q292 945 292 893V815Q336 886 396 916T550 947H619Q724 947 787 911T888 791Q932 874 996 910T1163 947H1246Z" />
<glyph unicode="n" glyph-name="n" horiz-adv-x="1221" d="M240 0Q187 0 187 53V893Q187 945 240 945Q292 945 292 893V797Q387 945 636 945H692Q879 945 965 859T1052 585V53Q1052 0 1000 0Q947 0 947 53V585Q947 728 891 784T692 840H636Q481 840 392 791T292
638V53Q292 0 240 0Z" />
<glyph unicode="o" glyph-name="o" horiz-adv-x="1205" d="M521 0Q334 0 247 86T160 359V585Q160 774 247 860T521 945H685Q872 945 958 859T1045 585V361Q1045 174 959 87T685 0H521ZM265 359Q265 218 321 162T521 105H685Q828 105 884 161T940 361V585Q940 728
884 784T685 840H521Q425 841 369 817T289 737T265 585V359Z" />
<glyph unicode="p" glyph-name="p" horiz-adv-x="1232" d="M240 -400Q187 -400 187 -347V893Q187 945 240 945Q292 945 292 893V804Q337 874 421 909T636 945H712Q899 945 985 859T1072 585V361Q1072 174 986 87T712 0H292V-347Q292 -400 240 -400ZM292 105H712Q855
105 911 161T967 361V585Q967 728 911 784T712 840H636Q476 840 391 790T292 636V105Z" />
<glyph unicode="q" glyph-name="q" horiz-adv-x="1214" d="M993 -400Q940 -400 940 -347V0H521Q334 0 247 87T160 361V585Q160 772 247 858T521 945H597Q730 945 813 909T940 803V893Q940 945 993 945Q1045 945 1045 893V-347Q1045 -400 993 -400ZM521 105H940V642Q940
742 847 791T597 840H521Q378 840 322 784T265 585V361Q265 218 321 162T521 105Z" />
<glyph unicode="r" glyph-name="r" horiz-adv-x="754" d="M240 0Q187 0 187 53V893Q187 945 240 945Q292 945 292 893V739Q344 839 442 892T676 945Q729 945 729 893Q729 840 676 840Q498 840 400 760T292 530V53Q292 0 240 0Z" />
<glyph unicode="s" glyph-name="s" horiz-adv-x="1117" d="M394 2Q271 2 206 54T128 215Q125 241 139 255T180 270Q205 270 217 257T234 218Q243 156 279 132T394 107H722Q815 107 850 142T885 270Q885 364 850 399T722 434H398Q268 434 205 496T141 689Q141 822
204 884T398 947H712Q938 947 963 747Q967 721 953 707T912 692Q887 692 875 705T857 743Q850 799 817 820T712 842H398Q311 842 279 810T246 689Q246 604 279 572T398 539H722Q860 539 925 474T990 270Q990 133 925 68T722 2H394Z" />
<glyph unicode="t" glyph-name="t" horiz-adv-x="717" d="M573 0Q389 0 304 85T219 353V840H100Q47 840 47 893Q47 945 100 945H219V1160Q219 1213 271 1213Q324 1213 324 1160V945H575Q627 945 627 893Q627 840 575 840H324V353Q324 213 378 159T573 105Q602
105 614 92T627 53Q627 0 573 0Z" />
<glyph unicode="u" glyph-name="u" horiz-adv-x="1221" d="M981 945Q1034 945 1034 893V53Q1034 0 981 0Q929 0 929 53V148Q834 0 585 0H529Q342 0 256 87T169 361V893Q169 945 221 945Q274 945 274 893V361Q274 218 330 162T529 105H585Q740 105 829 155T929
308V893Q929 945 981 945Z" />
<glyph unicode="v" glyph-name="v" horiz-adv-x="1001" d="M550 40Q539 16 523 8T486 0Q442 0 424 41L53 872Q32 921 82 940Q129 960 150 912L520 84H456L850 913Q861 936 879 943T920 940Q969 918 947 870L550 40Z" />
<glyph unicode="w" glyph-name="w" horiz-adv-x="1401" d="M394 0Q347 0 333 43L51 874Q34 925 84 941Q133 956 149 908L423 105H381L643 893Q657 935 703 935Q747 935 760 892L1005 107H961L1249 908Q1269 959 1317 941Q1367 922 1349 873L1040 43Q1024 0 978
0Q927 0 914 43L687 770H707L457 43Q449 18 432 9T394 0Z" />
<glyph unicode="x" glyph-name="x" horiz-adv-x="990" d="M118 14Q76 47 109 89L423 487L135 858Q102 898 143 932Q185 963 217 923L498 562L790 923Q823 966 864 931Q906 898 873 858L563 477L867 88Q900 45 859 15Q817 -19 784 23L490 401L191 24Q158 -19 118 14Z" />
<glyph unicode="y" glyph-name="y" horiz-adv-x="1215" d="M425 -400Q294 -400 232 -337T169 -141Q169 -89 221 -89Q274 -89 274 -141Q274 -231 306 -263T425 -295H771Q859 -295 891 -263T923 -141V134Q866 59 780 29T579 -1H523Q339 -1 254 84T169 351V894Q169
947 221 947Q274 947 274 894V351Q274 212 328 158T523 104H579Q754 104 838 165T923 351V894Q923 947 975 947Q1028 947 1028 894V-141Q1028 -274 966 -337T771 -400H425Z" />
<glyph unicode="z" glyph-name="z" horiz-adv-x="1032" d="M175 0Q122 0 122 53Q122 79 145 108L757 864L797 840H344Q271 840 238 819T196 740Q192 715 180 702T143 689Q116 689 102 703T91 744Q102 848 164 896T344 945H834Q886 945 886 893Q886 864 864 836L262
90L225 106L708 105Q777 105 812 128T855 206Q861 231 873 244T910 257Q937 257 951 243T961 202Q934 0 708 0H175Z" />
<glyph unicode="{" glyph-name="braceleft" horiz-adv-x="653" d="M584 -329Q409 -329 338 -253T267 8V357L146 403Q107 420 107 460V525Q107 564 145 581L267 629V978Q267 1092 293 1171T383 1293T562 1335Q600 1335 616 1324T633 1288Q633 1262 619 1251T584
1237Q540 1233 501 1231T431 1209T383 1137T365 978V604Q365 563 328 547L189 495V489L326 439Q365 424 365 383V8Q365 -101 384 -150T452 -212T584 -231Q609 -232 621 -246T633 -280Q633 -300 619 -314T584 -329Z" />
<glyph unicode="|" glyph-name="bar" horiz-adv-x="425" d="M265 -240Q265 -292 213 -292Q160 -292 160 -240V1347Q160 1399 213 1399Q265 1399 265 1347V-240Z" />
<glyph unicode="}" glyph-name="braceright" horiz-adv-x="653" d="M69 -329Q49 -329 35 -315T20 -280Q20 -261 33 -247T69 -231Q154 -226 201 -213T268 -150T288 8V383Q288 424 327 439L464 489V495L326 547Q288 563 288 604V978Q288 1084 271 1136T223 1208T153
1230T69 1237Q50 1239 35 1250T20 1288Q20 1313 37 1324T92 1335Q207 1335 270 1293T360 1172T386 978V629L509 581Q546 564 546 525V460Q546 420 507 403L386 357V8Q386 -177 316 -253T69 -329Z" />
<glyph unicode="~" glyph-name="asciitilde" horiz-adv-x="1122" d="M234 546Q221 525 196 525Q178 525 166 535T150 562T157 596Q188 648 221 678T295 722T389 736Q457 736 501 718T580 677T649 636T733 618Q784 618 821 639T889 710Q905 736 930 736Q961 736
971 711T966 662Q924 593 867 559T733 525Q668 525 628 543T556 584T486 625T389 643Q352 643 327 635T281 606T234 546Z" />
<glyph unicode="&#xa0;" glyph-name="uni00A0" horiz-adv-x="502" />
<glyph unicode="&#xa1;" glyph-name="exclamdown" horiz-adv-x="446" d="M222 738Q274 738 274 685V-294Q274 -347 222 -347Q169 -347 169 -294V685Q169 738 222 738ZM241 1042Q299 1042 299 983V945Q299 888 241 888H204Q147 888 147 945V983Q147 1042 204 1042H241Z" />
<glyph unicode="&#xa2;" glyph-name="cent" horiz-adv-x="1001" d="M473 130Q301 130 221 209T140 458V624Q140 796 221 876T473 955H585Q736 955 808 897T881 714Q881 692 866 677T829 662Q807 662 792 677T776 714Q776 790 736 820T585 850H473Q345 852 295
803T245 624V458Q245 333 294 284T473 235H585Q696 235 736 264T776 370Q776 392 791 407T829 423Q851 423 866 408T881 370Q881 245 809 188T585 130H473ZM529 -49Q480 -49 480 0V1082Q480 1131 529 1131Q578 1131 578 1082V0Q578 -49 529 -49Z" />
<glyph unicode="&#xa3;" glyph-name="sterling" horiz-adv-x="1189" d="M97 0V105Q173 105 201 146T229 278V860Q229 1079 328 1178T644 1277H686Q884 1277 973 1188T1062 900Q1062 848 1010 848Q957 848 957 900Q957 1003 932 1062T848 1147T686 1172H644Q529
1172 462 1143T364 1045T334 860V278Q334 223 324 180T291 105H1050Q1102 105 1102 53Q1102 0 1050 0H97ZM108 439Q59 439 59 488Q59 537 108 537H697Q746 537 746 488Q746 439 697 439H108Z" />
<glyph unicode="&#xa4;" glyph-name="currency" horiz-adv-x="1082" d="M181 274Q159 274 144 289T128 326Q128 348 143 364L248 468Q213 515 194 572T175 694Q175 759 194 815T248 918L144 1024Q129 1040 129 1062Q129 1084 144 1099T181 1114Q204 1114 219 1099L323
993Q370 1027 427 1046T547 1065Q611 1065 668 1046T771 992L876 1098Q891 1113 913 1113Q935 1113 950 1098T966 1061Q966 1039 951 1024L846 917Q880 871 899 815T918 694Q918 631 899 574T846 470L952 363Q967 348 967 326Q967 304 952 289T915 274Q893 274
877 289L772 395Q726 360 669 341T547 322Q482 322 425 341T323 395L218 289Q202 274 181 274ZM547 427Q622 427 682 462T778 557T813 694Q813 769 778 829T683 925T547 960Q471 960 411 925T315 830T280 694Q280 618 315 558T410 462T547 427Z" />
<glyph unicode="&#xa5;" glyph-name="yen" horiz-adv-x="1083" d="M590 53Q590 0 537 0Q485 0 485 53V497L38 1205Q9 1250 53 1278Q98 1306 125 1262L563 563H510L956 1263Q983 1307 1029 1279Q1073 1249 1044 1206L590 497V53ZM253 457Q232 457 220 469T207 503Q207
523 219 535T253 548H822Q843 548 855 536T868 503Q868 482 856 470T822 457H253ZM253 279Q232 279 220 291T207 325Q207 345 219 357T253 370H822Q843 370 855 358T868 325Q868 304 856 292T822 279H253Z" />
<glyph unicode="&#xa6;" glyph-name="brokenbar" horiz-adv-x="425" d="M265 -240Q265 -262 250 -277T213 -292Q191 -292 176 -277T160 -240V334Q160 356 175 371T213 387Q235 387 250 372T265 334V-240ZM265 778Q265 756 250 741T213 726Q191 726 176 741T160
778V1348Q160 1370 175 1385T213 1401Q235 1401 250 1386T265 1348V778Z" />
<glyph unicode="&#xa7;" glyph-name="section" horiz-adv-x="1090" d="M910 564Q910 442 845 380T653 317Q631 320 617 324T602 334Q602 356 616 370T653 385Q736 385 772 426T808 564Q808 641 774 682T647 756L449 826Q335 865 282 929T228 1092Q228 1192 288
1243T465 1295H661Q894 1295 894 1060Q894 1037 881 1023T843 1009Q820 1009 806 1023T792 1060Q792 1137 765 1165T661 1193H465Q390 1193 360 1170T330 1092Q330 1028 364 990T482 923L680 853Q803 809 856 742T910 564ZM435 -153Q298 -153 233 -88T168 114Q168
138 182 151T219 165Q243 165 256 152T270 114Q270 21 306 -15T435 -51H663Q757 -51 792 -15T828 114Q828 159 816 186T765 235T649 282L401 362Q268 404 214 469T160 656Q160 781 227 840T435 900L486 882Q486 860 472 846T435 831Q337 831 300 794T262 656Q262
599 276 564T326 504T430 459L678 379Q776 347 831 314T908 233T930 114Q930 -23 866 -88T663 -153H435Z" />
<glyph unicode="&#xa8;" glyph-name="dieresis" horiz-adv-x="650" d="M184 1114Q126 1114 126 1173V1211Q126 1268 184 1268H221Q278 1268 278 1211V1173Q278 1114 221 1114H184ZM482 1114Q424 1114 424 1173V1211Q424 1268 482 1268H519Q576 1268 576 1211V1173Q576
1114 519 1114H482Z" />
<glyph unicode="&#xa9;" glyph-name="copyright" horiz-adv-x="1594" d="M1434 643Q1434 457 1352 313T1127 87T797 4Q611 4 468 86T242 313T160 643Q160 829 242 973T467 1199T797 1282Q983 1282 1126 1200T1352 973T1434 643ZM258 643Q258 485 327 363T517 172T797
102Q955 102 1076 171T1267 363T1336 643Q1336 801 1267 923T1077 1114T797 1184Q639 1184 518 1115T327 923T258 643ZM761 286Q621 286 555 352T488 557V723Q488 866 554 931T761 996H852Q969 996 1029 953T1095 818Q1097 796 1084 782T1046 768Q1024 768 1012
781T995 814Q991 861 960 879T852 898H761Q662 898 624 862T586 723V557Q586 460 624 422T761 384H852Q929 384 960 403T995 468Q1000 489 1012 502T1046 515Q1069 515 1083 501T1095 464Q1088 373 1029 330T852 286H761Z" />
<glyph unicode="&#xaa;" glyph-name="ordfeminine" horiz-adv-x="860" d="M325 628Q214 628 161 681T107 845Q107 957 160 1010T325 1063H653Q649 1141 614 1171T495 1201H383Q308 1201 272 1189T225 1145Q214 1120 204 1110T172 1100Q147 1100 134 1114T125 1153Q152
1300 383 1300H495Q627 1300 690 1238T753 1042V677Q753 628 703 628Q653 628 653 677V720Q588 628 435 628H325ZM325 727H435Q531 727 592 753T653 835V964H325Q256 964 232 940T207 845Q207 777 231 752T325 727Z" />
<glyph unicode="&#xab;" glyph-name="guillemotleft" horiz-adv-x="1209" d="M995 235Q977 235 963 247L591 553Q548 588 591 623L963 930Q977 941 995 941Q1015 941 1029 927T1044 892Q1044 881 1039 872T1025 855L702 588L1025 322Q1034 315 1039 306T1044 284Q1044
264 1030 250T995 235ZM592 235Q574 235 560 247L188 553Q145 588 188 623L560 930Q574 941 592 941Q612 941 626 927T641 892Q641 881 636 872T622 855L299 588L622 322Q631 315 636 306T641 284Q641 264 627 250T592 235Z" />
<glyph unicode="&#xac;" glyph-name="logicalnot" horiz-adv-x="1122" d="M981 477Q981 455 968 442T933 429Q911 429 898 442T885 477V661H194Q172 661 159 673T146 708Q146 730 159 743T194 756H933Q981 756 981 708V477Z" />
<glyph unicode="&#xad;" glyph-name="uni00AD" horiz-adv-x="944" d="M196 491Q176 491 162 505T147 540Q147 561 161 575T196 589H748Q769 589 783 575T797 540Q797 520 783 506T748 491H196Z" />
<glyph unicode="&#xae;" glyph-name="registered" horiz-adv-x="1594" d="M1434 641Q1434 455 1352 312T1127 86T797 4Q611 4 468 86T242 311T160 641Q160 826 242 970T467 1196T797 1278Q983 1278 1126 1196T1352 970T1434 641ZM258 641Q258 482 327 361T517
171T797 102Q955 102 1076 171T1267 361T1336 641Q1336 799 1267 920T1077 1111T797 1180Q639 1180 518 1111T327 921T258 641ZM668 359Q668 310 619 310Q570 310 570 359V945Q570 994 619 994H839Q934 994 985 943T1036 797V767Q1036 620 922 581L1031 380Q1054
335 1010 314Q967 292 944 335L819 568H668V359ZM668 666H839Q892 666 915 689T938 767V797Q938 851 915 873T839 896H668V666Z" />
<glyph unicode="&#xaf;" glyph-name="overscore" horiz-adv-x="811" d="M153 1158Q100 1158 100 1210Q100 1263 153 1263H659Q711 1263 711 1210Q711 1158 659 1158H153Z" />
<glyph unicode="&#xb0;" glyph-name="degree" horiz-adv-x="557" d="M256 889Q181 889 141 929T100 1044V1188Q100 1264 140 1304T256 1344H302Q377 1344 417 1304T457 1188V1044Q457 970 417 930T302 889H256ZM191 1044Q191 1009 205 995T256 980H302Q338 980
352 994T366 1044V1188Q366 1225 352 1239T302 1253H256Q220 1253 206 1239T191 1188V1044Z" />
<glyph unicode="&#xb1;" glyph-name="plusminus" horiz-adv-x="1122" d="M489 991Q489 1013 502 1026T538 1040Q560 1040 573 1027T587 991V456Q587 434 574 421T538 407Q516 407 503 420T489 456V991ZM196 678Q147 678 147 727Q147 776 196 776H926Q975 776 975
727Q975 678 926 678H196ZM196 261Q147 261 147 310Q147 359 196 359H926Q975 359 975 310Q975 261 926 261H196Z" />
<glyph unicode="&#xb2;" glyph-name="uni00B2" horiz-adv-x="711" d="M543 628H177Q153 628 139 640T125 679Q125 764 157 816T238 903T337 967Q413 1012 446 1036T479 1103Q479 1152 464 1168T398 1184H298Q263 1184 245 1176T219 1145Q208 1120 197 1109T164
1098Q139 1098 125 1112T114 1152Q140 1286 298 1286H398Q581 1286 581 1103Q581 1043 553 1004T482 937T390 880Q326 844 286 814T233 730H543Q594 730 594 679Q594 628 543 628Z" />
<glyph unicode="&#xb3;" glyph-name="uni00B3" horiz-adv-x="696" d="M300 629Q133 629 108 769Q104 795 117 809T157 823Q181 823 191 813T211 776Q218 750 239 741T300 731H406Q463 731 481 750T500 823Q500 880 482 897T406 915H345Q294 915 294 967Q294 1018
345 1018H406Q602 1018 602 823Q602 629 406 629H300ZM400 957V1018Q449 1018 467 1040T486 1101Q486 1152 469 1168T402 1185H303Q267 1185 249 1177T224 1147Q215 1126 205 1114T170 1101Q142 1101 129 1115T120 1154Q143 1287 303 1287H402Q495 1287 541 1242T588
1108Q588 1039 542 1001T400 957Z" />
<glyph unicode="&#xb4;" glyph-name="acute" horiz-adv-x="473" d="M118 1046Q82 1078 112 1117L283 1320Q316 1360 354 1326Q390 1295 360 1256L189 1053Q157 1013 118 1046Z" />
<glyph unicode="&#xb5;" glyph-name="uni00B5" horiz-adv-x="1256" d="M1034 236Q1034 168 1055 139T1136 105Q1163 103 1176 91T1189 53Q1189 -2 1134 0Q1059 4 1013 41T944 140Q894 73 804 37T585 1H529Q437 1 374 31T274 127V-124Q274 -153 261 -168T221 -184Q169
-184 169 -131V893Q169 945 221 945Q274 945 274 893V361Q274 218 330 162T529 106H585Q741 106 835 154T929 304V893Q929 945 981 945Q1034 945 1034 893V236Z" />
<glyph unicode="&#xb6;" glyph-name="paragraph" horiz-adv-x="1068" d="M621 -326Q621 -346 607 -360T572 -375Q552 -375 538 -361T523 -326V573H400Q236 573 152 657T67 904V962Q67 1127 151 1211T400 1295H832Q881 1295 881 1246V-326Q881 -346 867 -360T832
-375Q812 -375 798 -361T783 -326V1197H621V-326Z" />
<glyph unicode="&#xb7;" glyph-name="middot" horiz-adv-x="446" d="M205 500Q147 500 147 559V597Q147 654 205 654H242Q299 654 299 597V559Q299 500 242 500H205Z" />
<glyph unicode="&#xb8;" glyph-name="cedilla" horiz-adv-x="586" d="M273 -407Q100 -407 100 -234Q100 -185 149 -185Q198 -185 198 -234Q198 -279 213 -294T273 -309Q341 -309 364 -285T388 -194Q388 -173 379 -161T339 -127Q320 -115 298 -96T259 -47T242 30Q242
79 291 79Q340 79 340 30Q340 5 350 -9T393 -46Q420 -64 453 -96T486 -194Q486 -303 435 -355T273 -407Z" />
<glyph unicode="&#xb9;" glyph-name="uni00B9" horiz-adv-x="590" d="M378 628Q325 628 325 680V1157L364 1163L238 1037Q201 1000 164 1038Q128 1076 164 1112L319 1262Q335 1277 349 1283T384 1289Q430 1289 430 1243V680Q430 628 378 628Z" />
<glyph unicode="&#xba;" glyph-name="ordmasculine" horiz-adv-x="839" d="M354 628Q221 628 157 691T93 888V1031Q93 1166 157 1229T354 1291H486Q619 1291 682 1228T746 1031V890Q746 756 683 692T486 628H354ZM354 733H486Q575 733 608 766T641 890V1031Q641
1119 608 1152T486 1186H354Q265 1187 232 1155T198 1031V888Q198 799 231 766T354 733Z" />
<glyph unicode="&#xbb;" glyph-name="guillemotright" horiz-adv-x="1209" d="M617 235Q598 235 583 249T568 284Q568 297 573 306T587 322L910 588L587 855Q579 862 574 871T568 892Q568 913 583 927T617 941Q635 941 649 930L1021 623Q1065 588 1021 553L649
247Q635 235 617 235ZM215 235Q196 235 181 249T166 284Q166 297 171 306T185 322L508 588L185 855Q176 862 171 871T166 892Q166 913 181 927T215 941Q233 941 247 930L619 623Q662 588 619 553L247 247Q233 235 215 235Z" />
<glyph unicode="&#xbc;" glyph-name="onequarter" horiz-adv-x="1476" d="M378 628Q325 628 325 680V1157L364 1163L238 1037Q201 1000 164 1038Q128 1076 164 1112L319 1262Q335 1277 349 1283T384 1289Q430 1289 430 1243V680Q430 628 378 628ZM316 -8Q294 -8
279 7T263 44Q263 54 266 62T273 77L1195 1297Q1211 1319 1238 1319Q1260 1319 1275 1304T1290 1266Q1290 1258 1287 1250T1280 1234L358 14Q342 -8 316 -8ZM1181 5Q1130 5 1130 56L1134 546L1180 550L892 187L879 236H1293Q1344 236 1344 185Q1344 134 1293 134H845Q794
134 794 185Q794 213 816 240L1127 634Q1140 651 1154 658T1189 666Q1236 666 1236 615L1232 56Q1232 5 1181 5Z" />
<glyph unicode="&#xbd;" glyph-name="onehalf" horiz-adv-x="1508" d="M378 628Q325 628 325 680V1157L364 1163L238 1037Q201 1000 164 1038Q128 1076 164 1112L319 1262Q335 1277 349 1283T384 1289Q430 1289 430 1243V680Q430 628 378 628ZM316 -8Q294 -8 279
7T263 44Q263 54 266 62T273 77L1195 1297Q1211 1319 1238 1319Q1260 1319 1275 1304T1290 1266Q1290 1258 1287 1250T1280 1234L358 14Q342 -8 316 -8ZM1337 1H971Q947 1 933 13T919 52Q919 137 951 189T1032 276T1131 340Q1207 385 1240 409T1273 476Q1273 525
1258 541T1192 557H1092Q1057 557 1039 549T1013 518Q1002 493 991 482T958 471Q933 471 919 485T908 525Q934 659 1092 659H1192Q1375 659 1375 476Q1375 416 1347 377T1276 310T1184 253Q1120 217 1080 187T1027 103H1337Q1388 103 1388 52Q1388 1 1337 1Z" />
<glyph unicode="&#xbe;" glyph-name="threequarters" horiz-adv-x="1581" d="M300 629Q133 629 108 769Q104 795 117 809T157 823Q181 823 191 813T211 776Q218 750 239 741T300 731H406Q463 731 481 750T500 823Q500 880 482 897T406 915H345Q294 915 294 967Q294
1018 345 1018H406Q602 1018 602 823Q602 629 406 629H300ZM400 957V1018Q449 1018 467 1040T486 1101Q486 1152 469 1168T402 1185H303Q267 1185 249 1177T224 1147Q215 1126 205 1114T170 1101Q142 1101 129 1115T120 1154Q143 1287 303 1287H402Q495 1287 541
1242T588 1108Q588 1039 542 1001T400 957ZM422 -8Q400 -8 385 7T369 44Q369 54 372 62T379 77L1301 1297Q1317 1319 1344 1319Q1366 1319 1381 1304T1396 1266Q1396 1258 1393 1250T1386 1234L464 14Q448 -8 422 -8ZM1286 5Q1235 5 1235 56L1239 546L1285 550L997
187L984 236H1398Q1449 236 1449 185Q1449 134 1398 134H950Q899 134 899 185Q899 213 921 240L1232 634Q1245 651 1259 658T1294 666Q1341 666 1341 615L1337 56Q1337 5 1286 5Z" />
<glyph unicode="&#xbf;" glyph-name="questiondown" horiz-adv-x="955" d="M527 741Q579 741 579 688Q579 579 548 513T469 409T378 341Q334 312 299 283T245 208T225 82Q225 -49 276 -100T459 -151H593Q724 -151 775 -100T826 82Q826 135 879 135Q931 135 931
82Q931 -91 849 -173T593 -256H459Q284 -256 202 -175T120 82Q120 191 152 257T230 362T322 429Q366 458 400 487T454 563T474 688Q474 741 527 741ZM543 1020Q601 1020 601 961V923Q601 866 543 866H506Q449 866 449 923V961Q449 1020 506 1020H543Z" />
<glyph unicode="&#xc0;" glyph-name="Agrave" horiz-adv-x="1229" d="M86 5Q38 26 57 75L553 1248Q569 1289 612 1289H618Q659 1288 676 1248L1172 75Q1192 26 1144 5Q1095 -15 1076 33L943 348H288L155 33Q135 -15 86 5ZM331 453H899L615 1123L331 453ZM678 1404Q639
1371 608 1411L436 1614Q406 1653 443 1684Q481 1718 513 1678L685 1475Q714 1436 678 1404Z" />
<glyph unicode="&#xc1;" glyph-name="Aacute" horiz-adv-x="1229" d="M592 1404Q555 1435 585 1474L757 1677Q789 1717 827 1684Q864 1652 834 1613L662 1410Q630 1370 592 1404ZM86 5Q38 26 57 75L553 1248Q569 1289 612 1289H618Q659 1288 676 1248L1172 75Q1192
26 1144 5Q1095 -15 1076 33L943 348H288L155 33Q135 -15 86 5ZM331 453H899L615 1123L331 453Z" />
<glyph unicode="&#xc2;" glyph-name="Acircumflex" horiz-adv-x="1229" d="M86 5Q38 26 57 75L553 1248Q569 1289 612 1289H618Q659 1288 676 1248L1172 75Q1192 26 1144 5Q1095 -15 1076 33L943 348H288L155 33Q135 -15 86 5ZM331 453H899L615 1123L331 453ZM370
1407Q348 1407 334 1421T319 1457Q319 1482 340 1498L538 1663Q566 1686 600 1686H623Q657 1686 685 1663L883 1498Q904 1482 904 1457Q904 1436 890 1422T854 1407Q834 1407 819 1420L621 1585H602L405 1420Q389 1407 370 1407Z" />
<glyph unicode="&#xc3;" glyph-name="Atilde" horiz-adv-x="1229" d="M86 5Q38 26 57 75L553 1248Q569 1289 612 1289H618Q659 1288 676 1248L1172 75Q1192 26 1144 5Q1095 -15 1076 33L943 348H288L155 33Q135 -15 86 5ZM331 453H899L615 1123L331 453ZM739 1449Q682
1449 648 1475T591 1523Q568 1547 550 1559T502 1572Q465 1572 447 1552T414 1487Q407 1470 395 1460T361 1453Q331 1457 323 1478T322 1516Q348 1594 392 1631T502 1668Q564 1668 601 1641T660 1590Q687 1564 702 1555T739 1546Q772 1546 791 1565T824 1627Q831
1646 842 1655T878 1663Q907 1659 915 1638T917 1601Q890 1528 848 1489T739 1449Z" />
<glyph unicode="&#xc4;" glyph-name="Adieresis" horiz-adv-x="1229" d="M86 5Q38 26 57 75L553 1248Q569 1289 612 1289H618Q659 1288 676 1248L1172 75Q1192 26 1144 5Q1095 -15 1076 33L943 348H288L155 33Q135 -15 86 5ZM331 453H899L615 1123L331 453ZM448
1458Q390 1458 390 1517V1555Q390 1612 448 1612H485Q542 1612 542 1555V1517Q542 1458 485 1458H448ZM746 1458Q688 1458 688 1517V1555Q688 1612 746 1612H783Q840 1612 840 1555V1517Q840 1458 783 1458H746Z" />
<glyph unicode="&#xc5;" glyph-name="Aring" horiz-adv-x="1229" d="M86 5Q38 26 57 75L553 1248Q569 1289 612 1289H618Q659 1288 676 1248L1172 75Q1192 26 1144 5Q1095 -15 1076 33L943 348H288L155 33Q135 -15 86 5ZM331 453H899L615 1123L331 453ZM607 1407Q534
1407 494 1447T454 1560Q454 1633 494 1672T607 1712Q680 1712 720 1673T760 1560Q760 1487 720 1447T607 1407ZM607 1499Q643 1499 655 1511T668 1560Q668 1596 656 1608T607 1621Q571 1621 559 1609T546 1560Q546 1524 558 1512T607 1499Z" />
<glyph unicode="&#xc6;" glyph-name="AE" horiz-adv-x="1655" d="M868 0Q815 0 815 53V348L334 349L153 29Q126 -18 81 8Q35 36 61 80L723 1252Q734 1272 749 1280T785 1289H1522Q1574 1289 1574 1236Q1574 1184 1522 1184H920V705H1286Q1338 705 1338 653Q1338
600 1286 600H920V105H1522Q1574 105 1574 53Q1574 0 1522 0H868ZM392 453H815V1174H796L392 453Z" />
<glyph unicode="&#xc7;" glyph-name="Ccedilla" horiz-adv-x="1331" d="M577 0Q360 0 260 100T160 417V872Q160 1091 259 1190T575 1289H817Q1001 1289 1091 1213T1190 967Q1193 940 1180 926T1140 912Q1090 912 1085 965Q1078 1089 1017 1136T817 1184H575Q460
1184 392 1155T295 1057T265 872V417Q265 301 295 233T393 135T577 105H817Q956 105 1017 152T1085 324Q1090 377 1140 377Q1166 377 1179 363T1190 322Q1181 153 1091 77T817 0H577ZM727 -407Q554 -407 554 -234Q554 -185 603 -185Q652 -185 652 -234Q652 -279
667 -294T727 -309Q795 -309 818 -285T842 -194Q842 -173 833 -161T793 -127Q774 -115 752 -96T713 -47T696 30Q696 79 745 79Q794 79 794 30Q794 5 804 -9T847 -46Q874 -64 907 -96T940 -194Q940 -303 889 -355T727 -407Z" />
<glyph unicode="&#xc8;" glyph-name="Egrave" horiz-adv-x="1122" d="M240 0Q187 0 187 53V1236Q187 1289 240 1289H989Q1042 1289 1042 1236Q1042 1184 989 1184H292V705H753Q806 705 806 653Q806 600 753 600H292V105H989Q1042 105 1042 53Q1042 0 989 0H240ZM713
1404Q674 1371 643 1411L471 1614Q441 1653 478 1684Q516 1718 548 1678L720 1475Q749 1436 713 1404Z" />
<glyph unicode="&#xc9;" glyph-name="Eacute" horiz-adv-x="1122" d="M596 1413Q559 1444 589 1483L761 1686Q793 1726 831 1693Q868 1661 838 1622L666 1419Q634 1379 596 1413ZM240 0Q187 0 187 53V1236Q187 1289 240 1289H989Q1042 1289 1042 1236Q1042 1184
989 1184H292V705H753Q806 705 806 653Q806 600 753 600H292V105H989Q1042 105 1042 53Q1042 0 989 0H240Z" />
<glyph unicode="&#xca;" glyph-name="Ecircumflex" horiz-adv-x="1122" d="M240 0Q187 0 187 53V1236Q187 1289 240 1289H989Q1042 1289 1042 1236Q1042 1184 989 1184H292V705H753Q806 705 806 653Q806 600 753 600H292V105H989Q1042 105 1042 53Q1042 0 989
0H240ZM404 1407Q382 1407 368 1421T353 1457Q353 1482 374 1498L572 1663Q600 1686 634 1686H657Q691 1686 719 1663L917 1498Q938 1482 938 1457Q938 1436 924 1422T888 1407Q868 1407 853 1420L655 1585H636L439 1420Q423 1407 404 1407Z" />
<glyph unicode="&#xcb;" glyph-name="Edieresis" horiz-adv-x="1122" d="M240 0Q187 0 187 53V1236Q187 1289 240 1289H989Q1042 1289 1042 1236Q1042 1184 989 1184H292V705H753Q806 705 806 653Q806 600 753 600H292V105H989Q1042 105 1042 53Q1042 0 989 0H240ZM482
1458Q424 1458 424 1517V1555Q424 1612 482 1612H519Q576 1612 576 1555V1517Q576 1458 519 1458H482ZM780 1458Q722 1458 722 1517V1555Q722 1612 780 1612H817Q874 1612 874 1555V1517Q874 1458 817 1458H780Z" />
<glyph unicode="&#xcc;" glyph-name="Igrave" horiz-adv-x="479" d="M240 0Q215 0 201 14T187 53V1237Q187 1262 201 1276T240 1290Q264 1290 278 1276T292 1237V53Q292 28 278 14T240 0ZM304 1404Q265 1371 234 1411L62 1614Q32 1653 69 1684Q107 1718 139 1678L311
1475Q340 1436 304 1404Z" />
<glyph unicode="&#xcd;" glyph-name="Iacute" horiz-adv-x="479" d="M187 1413Q150 1444 180 1483L352 1686Q384 1726 422 1693Q459 1661 429 1622L257 1419Q225 1379 187 1413ZM240 0Q215 0 201 14T187 53V1237Q187 1262 201 1276T240 1290Q264 1290 278 1276T292
1237V53Q292 28 278 14T240 0Z" />
<glyph unicode="&#xce;" glyph-name="Icircumflex" horiz-adv-x="479" d="M240 0Q215 0 201 14T187 53V1237Q187 1262 201 1276T240 1290Q264 1290 278 1276T292 1237V53Q292 28 278 14T240 0ZM53 1401Q33 1401 19 1415T4 1450Q4 1460 7 1467T15 1482L169 1674Q192
1703 228 1703H258Q294 1703 318 1674L471 1482Q476 1475 479 1468T482 1450Q482 1430 468 1416T433 1401Q408 1401 395 1420L251 1605H236L91 1420Q77 1401 53 1401Z" />
<glyph unicode="&#xcf;" glyph-name="Idieresis" horiz-adv-x="479" d="M240 0Q215 0 201 14T187 53V1237Q187 1262 201 1276T240 1290Q264 1290 278 1276T292 1237V53Q292 28 278 14T240 0ZM73 1458Q15 1458 15 1517V1555Q15 1612 73 1612H110Q167 1612 167 1555V1517Q167
1458 110 1458H73ZM371 1458Q313 1458 313 1517V1555Q313 1612 371 1612H408Q465 1612 465 1555V1517Q465 1458 408 1458H371Z" />
<glyph unicode="&#xd0;" glyph-name="Eth" horiz-adv-x="1358" d="M240 0Q187 0 187 53V1236Q187 1289 240 1289H722Q971 1289 1084 1175T1198 812V477Q1198 228 1085 114T722 0H240ZM292 105H722Q858 105 939 141T1057 258T1093 477V812Q1093 948 1057 1029T940
1147T722 1184H292V105ZM319 602Q270 602 270 651Q270 700 319 700H837Q886 700 886 651Q886 602 837 602H319Z" />
<glyph unicode="&#xd1;" glyph-name="Ntilde" horiz-adv-x="1409" d="M240 0Q187 0 187 53V1236Q187 1289 240 1289Q268 1289 294 1258L1141 170H1117V1236Q1117 1289 1170 1289Q1222 1289 1222 1236V53Q1222 0 1170 0Q1141 0 1116 31L268 1119H292V53Q292 0 240
0ZM842 1449Q785 1449 751 1475T694 1523Q671 1547 653 1559T605 1572Q568 1572 550 1552T517 1487Q510 1470 498 1460T464 1453Q434 1457 426 1478T425 1516Q451 1594 495 1631T605 1668Q667 1668 704 1641T763 1590Q790 1564 805 1555T842 1546Q875 1546 894
1565T927 1627Q934 1646 945 1655T981 1663Q1010 1659 1018 1638T1020 1601Q993 1528 951 1489T842 1449Z" />
<glyph unicode="&#xd2;" glyph-name="Ograve" horiz-adv-x="1393" d="M577 0Q360 0 260 100T160 417V873Q160 1092 260 1191T575 1289H817Q1034 1289 1133 1189T1233 872V417Q1233 200 1134 100T817 0H577ZM577 105H817Q932 105 1000 135T1098 233T1128 417V872Q1128
987 1098 1055T1000 1153T817 1184H575Q460 1185 393 1156T295 1058T265 873V417Q265 301 295 233T393 135T577 105ZM761 1404Q722 1371 691 1411L519 1614Q489 1653 526 1684Q564 1718 596 1678L768 1475Q797 1436 761 1404Z" />
<glyph unicode="&#xd3;" glyph-name="Oacute" horiz-adv-x="1393" d="M644 1413Q607 1444 637 1483L809 1686Q841 1726 879 1693Q916 1661 886 1622L714 1419Q682 1379 644 1413ZM577 0Q360 0 260 100T160 417V873Q160 1092 260 1191T575 1289H817Q1034 1289 1133
1189T1233 872V417Q1233 200 1134 100T817 0H577ZM577 105H817Q932 105 1000 135T1098 233T1128 417V872Q1128 987 1098 1055T1000 1153T817 1184H575Q460 1185 393 1156T295 1058T265 873V417Q265 301 295 233T393 135T577 105Z" />
<glyph unicode="&#xd4;" glyph-name="Ocircumflex" horiz-adv-x="1393" d="M577 0Q360 0 260 100T160 417V873Q160 1092 260 1191T575 1289H817Q1034 1289 1133 1189T1233 872V417Q1233 200 1134 100T817 0H577ZM577 105H817Q932 105 1000 135T1098 233T1128 417V872Q1128
987 1098 1055T1000 1153T817 1184H575Q460 1185 393 1156T295 1058T265 873V417Q265 301 295 233T393 135T577 105ZM452 1407Q430 1407 416 1421T401 1457Q401 1482 422 1498L620 1663Q648 1686 682 1686H705Q739 1686 767 1663L965 1498Q986 1482 986 1457Q986
1436 972 1422T936 1407Q916 1407 901 1420L703 1585H684L487 1420Q471 1407 452 1407Z" />
<glyph unicode="&#xd5;" glyph-name="Otilde" horiz-adv-x="1393" d="M577 0Q360 0 260 100T160 417V873Q160 1092 260 1191T575 1289H817Q1034 1289 1133 1189T1233 872V417Q1233 200 1134 100T817 0H577ZM577 105H817Q932 105 1000 135T1098 233T1128 417V872Q1128
987 1098 1055T1000 1153T817 1184H575Q460 1185 393 1156T295 1058T265 873V417Q265 301 295 233T393 135T577 105ZM821 1449Q764 1449 730 1475T673 1523Q650 1547 632 1559T584 1572Q547 1572 529 1552T496 1487Q489 1470 477 1460T443 1453Q413 1457 405 1478T404
1516Q430 1594 474 1631T584 1668Q646 1668 683 1641T742 1590Q769 1564 784 1555T821 1546Q854 1546 873 1565T906 1627Q913 1646 924 1655T960 1663Q989 1659 997 1638T999 1601Q972 1528 930 1489T821 1449Z" />
<glyph unicode="&#xd6;" glyph-name="Odieresis" horiz-adv-x="1393" d="M577 0Q360 0 260 100T160 417V873Q160 1092 260 1191T575 1289H817Q1034 1289 1133 1189T1233 872V417Q1233 200 1134 100T817 0H577ZM577 105H817Q932 105 1000 135T1098 233T1128 417V872Q1128
987 1098 1055T1000 1153T817 1184H575Q460 1185 393 1156T295 1058T265 873V417Q265 301 295 233T393 135T577 105ZM530 1458Q472 1458 472 1517V1555Q472 1612 530 1612H567Q624 1612 624 1555V1517Q624 1458 567 1458H530ZM828 1458Q770 1458 770 1517V1555Q770
1612 828 1612H865Q922 1612 922 1555V1517Q922 1458 865 1458H828Z" />
<glyph unicode="&#xd7;" glyph-name="multiply" horiz-adv-x="1122" d="M769 927Q804 961 838 927Q873 892 838 857L322 341Q287 306 253 341Q218 376 253 410L769 927ZM285 861Q251 896 285 930Q320 965 355 930L871 414Q906 379 871 345Q836 310 802 345L285 861Z" />
<glyph unicode="&#xd8;" glyph-name="Oslash" horiz-adv-x="1393" d="M577 0Q360 0 260 100T160 417V873Q160 1092 260 1191T575 1289H817Q1034 1289 1133 1189T1233 872V417Q1233 200 1134 100T817 0H577ZM577 105H817Q932 105 1000 135T1098 233T1128 417V872Q1128
987 1098 1055T1000 1153T817 1184H575Q460 1185 393 1156T295 1058T265 873V417Q265 301 295 233T393 135T577 105ZM249 -79Q205 -53 232 -8L1069 1362Q1095 1406 1139 1379Q1183 1353 1156 1309L320 -62Q293 -106 249 -79Z" />
<glyph unicode="&#xd9;" glyph-name="Ugrave" horiz-adv-x="1427" d="M594 0Q377 0 277 100T177 417V1236Q177 1260 191 1274T230 1289Q254 1289 268 1275T282 1236V417Q282 301 312 233T410 135T594 105H834Q949 105 1017 135T1115 233T1145 417V1236Q1145 1260
1159 1274T1198 1289Q1222 1289 1236 1275T1250 1236V417Q1250 200 1151 100T834 0H594ZM778 1404Q739 1371 708 1411L536 1614Q506 1653 543 1684Q581 1718 613 1678L785 1475Q814 1436 778 1404Z" />
<glyph unicode="&#xda;" glyph-name="Uacute" horiz-adv-x="1427" d="M661 1413Q624 1444 654 1483L826 1686Q858 1726 896 1693Q933 1661 903 1622L731 1419Q699 1379 661 1413ZM594 0Q377 0 277 100T177 417V1236Q177 1260 191 1274T230 1289Q254 1289 268 1275T282
1236V417Q282 301 312 233T410 135T594 105H834Q949 105 1017 135T1115 233T1145 417V1236Q1145 1260 1159 1274T1198 1289Q1222 1289 1236 1275T1250 1236V417Q1250 200 1151 100T834 0H594Z" />
<glyph unicode="&#xdb;" glyph-name="Ucircumflex" horiz-adv-x="1427" d="M594 0Q377 0 277 100T177 417V1236Q177 1260 191 1274T230 1289Q254 1289 268 1275T282 1236V417Q282 301 312 233T410 135T594 105H834Q949 105 1017 135T1115 233T1145 417V1236Q1145
1260 1159 1274T1198 1289Q1222 1289 1236 1275T1250 1236V417Q1250 200 1151 100T834 0H594ZM469 1407Q447 1407 433 1421T418 1457Q418 1482 439 1498L637 1663Q665 1686 699 1686H722Q756 1686 784 1663L982 1498Q1003 1482 1003 1457Q1003 1436 989 1422T953
1407Q933 1407 918 1420L720 1585H701L504 1420Q488 1407 469 1407Z" />
<glyph unicode="&#xdc;" glyph-name="Udieresis" horiz-adv-x="1427" d="M594 0Q377 0 277 100T177 417V1236Q177 1260 191 1274T230 1289Q254 1289 268 1275T282 1236V417Q282 301 312 233T410 135T594 105H834Q949 105 1017 135T1115 233T1145 417V1236Q1145
1260 1159 1274T1198 1289Q1222 1289 1236 1275T1250 1236V417Q1250 200 1151 100T834 0H594ZM547 1458Q489 1458 489 1517V1555Q489 1612 547 1612H584Q641 1612 641 1555V1517Q641 1458 584 1458H547ZM845 1458Q787 1458 787 1517V1555Q787 1612 845 1612H882Q939
1612 939 1555V1517Q939 1458 882 1458H845Z" />
<glyph unicode="&#xdd;" glyph-name="Yacute" horiz-adv-x="1080" d="M488 1413Q452 1444 482 1483L653 1686Q686 1726 724 1693Q760 1661 730 1622L559 1419Q527 1379 488 1413ZM536 0Q484 0 484 53V498L36 1206Q9 1249 53 1279Q98 1307 126 1262L536 611L953
1263Q967 1284 985 1288T1025 1278Q1070 1251 1041 1206L589 498V53Q589 0 536 0Z" />
<glyph unicode="&#xde;" glyph-name="Thorn" horiz-adv-x="1025" d="M240 0Q187 0 187 53V1236Q187 1289 240 1289Q292 1289 292 1236V1104H612Q783 1104 870 1016T958 757V697Q958 527 871 439T612 351H292V53Q292 0 240 0ZM292 456H612Q738 456 795 513T853
697V757Q853 884 796 941T612 999H292V456Z" />
<glyph unicode="&#xdf;" glyph-name="germandbls" horiz-adv-x="1069" d="M240 2Q187 2 187 54V1049Q187 1224 269 1305T526 1387Q700 1387 781 1306T862 1051Q862 965 831 898T729 789Q863 760 922 682T982 463V358Q982 173 897 88T626 2H504Q451 2 451 54Q451
107 504 107H626Q767 107 822 162T877 358V463Q877 604 822 659T626 714H578Q526 714 526 767Q526 817 578 822Q678 831 717 883T757 1051Q757 1180 706 1231T526 1282Q395 1282 344 1231T292 1049V54Q292 2 240 2Z" />
<glyph unicode="&#xe0;" glyph-name="agrave" horiz-adv-x="1197" d="M468 0Q312 0 240 72T167 301Q167 457 240 530T468 603H923Q921 735 864 787T668 840H552Q425 840 366 813T293 721Q286 696 275 685T238 673Q212 673 198 687T187 727Q200 841 290 893T552
945H668Q855 945 941 859T1028 585V53Q1028 0 976 0Q923 0 923 53V152Q827 0 580 0H468ZM468 105H580Q677 105 750 126T869 196T923 324V498H468Q357 498 315 456T272 301Q272 190 314 148T468 105ZM666 1060Q627 1027 596 1067L424 1270Q394 1309 431 1340Q469
1374 501 1334L673 1131Q702 1092 666 1060Z" />
<glyph unicode="&#xe1;" glyph-name="aacute" horiz-adv-x="1197" d="M549 1069Q512 1101 542 1140L714 1343Q746 1383 784 1349Q821 1318 791 1279L619 1076Q587 1036 549 1069ZM468 0Q312 0 240 72T167 301Q167 457 240 530T468 603H923Q921 735 864 787T668
840H552Q425 840 366 813T293 721Q286 696 275 685T238 673Q212 673 198 687T187 727Q200 841 290 893T552 945H668Q855 945 941 859T1028 585V53Q1028 0 976 0Q923 0 923 53V152Q827 0 580 0H468ZM468 105H580Q677 105 750 126T869 196T923 324V498H468Q357 498
315 456T272 301Q272 190 314 148T468 105Z" />
<glyph unicode="&#xe2;" glyph-name="acircumflex" horiz-adv-x="1197" d="M468 0Q312 0 240 72T167 301Q167 457 240 530T468 603H923Q921 735 864 787T668 840H552Q425 840 366 813T293 721Q286 696 275 685T238 673Q212 673 198 687T187 727Q200 841 290 893T552
945H668Q855 945 941 859T1028 585V53Q1028 0 976 0Q923 0 923 53V152Q827 0 580 0H468ZM468 105H580Q677 105 750 126T869 196T923 324V498H468Q357 498 315 456T272 301Q272 190 314 148T468 105ZM415 1057Q395 1057 381 1071T366 1106Q366 1116 369 1123T377
1138L531 1330Q554 1359 590 1359H620Q656 1359 680 1330L833 1138Q838 1131 841 1124T844 1106Q844 1086 830 1072T795 1057Q770 1057 757 1076L613 1261H598L453 1076Q439 1057 415 1057Z" />
<glyph unicode="&#xe3;" glyph-name="atilde" horiz-adv-x="1197" d="M468 0Q312 0 240 72T167 301Q167 457 240 530T468 603H923Q921 735 864 787T668 840H552Q425 840 366 813T293 721Q286 696 275 685T238 673Q212 673 198 687T187 727Q200 841 290 893T552
945H668Q855 945 941 859T1028 585V53Q1028 0 976 0Q923 0 923 53V152Q827 0 580 0H468ZM468 105H580Q677 105 750 126T869 196T923 324V498H468Q357 498 315 456T272 301Q272 190 314 148T468 105ZM726 1106Q669 1106 635 1132T578 1180Q555 1204 537 1216T489
1229Q452 1229 434 1209T401 1144Q394 1127 382 1117T348 1110Q318 1114 310 1135T309 1173Q335 1251 379 1288T489 1325Q551 1325 588 1298T647 1247Q674 1221 689 1212T726 1203Q759 1203 778 1222T811 1284Q818 1303 829 1312T865 1320Q894 1316 902 1295T904
1258Q877 1185 835 1146T726 1106Z" />
<glyph unicode="&#xe4;" glyph-name="adieresis" horiz-adv-x="1197" d="M468 0Q312 0 240 72T167 301Q167 457 240 530T468 603H923Q921 735 864 787T668 840H552Q425 840 366 813T293 721Q286 696 275 685T238 673Q212 673 198 687T187 727Q200 841 290 893T552
945H668Q855 945 941 859T1028 585V53Q1028 0 976 0Q923 0 923 53V152Q827 0 580 0H468ZM468 105H580Q677 105 750 126T869 196T923 324V498H468Q357 498 315 456T272 301Q272 190 314 148T468 105ZM435 1114Q377 1114 377 1173V1211Q377 1268 435 1268H472Q529
1268 529 1211V1173Q529 1114 472 1114H435ZM733 1114Q675 1114 675 1173V1211Q675 1268 733 1268H770Q827 1268 827 1211V1173Q827 1114 770 1114H733Z" />
<glyph unicode="&#xe5;" glyph-name="aring" horiz-adv-x="1197" d="M468 0Q312 0 240 72T167 301Q167 457 240 530T468 603H923Q921 735 864 787T668 840H552Q425 840 366 813T293 721Q286 696 275 685T238 673Q212 673 198 687T187 727Q200 841 290 893T552
945H668Q855 945 941 859T1028 585V53Q1028 0 976 0Q923 0 923 53V152Q827 0 580 0H468ZM468 105H580Q677 105 750 126T869 196T923 324V498H468Q357 498 315 456T272 301Q272 190 314 148T468 105ZM594 1064Q521 1064 481 1104T441 1217Q441 1290 481 1329T594
1369Q667 1369 707 1330T747 1217Q747 1144 707 1104T594 1064ZM594 1156Q630 1156 642 1168T655 1217Q655 1253 643 1265T594 1278Q558 1278 546 1266T533 1217Q533 1181 545 1169T594 1156Z" />
<glyph unicode="&#xe6;" glyph-name="ae" horiz-adv-x="1868" d="M1234 -12Q1000 -12 926 164Q816 -8 540 -8H468Q312 -8 240 64T167 292Q167 444 239 516T468 588H883Q880 724 823 777T628 830H552Q404 830 348 797T290 710Q288 688 274 673T237 657Q215 657
200 672T185 710Q185 817 275 876T552 935H628Q854 935 936 776Q1014 936 1236 933H1356Q1538 933 1623 837T1708 535Q1708 483 1655 483H988V352Q988 208 1043 151T1234 93H1356Q1496 93 1549 131T1603 268Q1603 290 1618 305T1656 320Q1678 320 1693 305T1708
268Q1708 121 1623 55T1356 -12H1234ZM468 97H540Q715 97 799 158T883 344V483H468Q357 483 315 442T272 292Q272 181 314 139T468 97ZM989 588H1602Q1593 721 1537 774T1356 828H1236Q1102 830 1047 777T989 588Z" />
<glyph unicode="&#xe7;" glyph-name="ccedilla" horiz-adv-x="1142" d="M521 0Q334 0 247 87T160 361V587Q160 774 246 860T521 945H685Q832 945 909 896T1002 740Q1005 713 991 699T950 685Q926 685 914 697T896 734Q885 792 837 816T685 840H521Q378 842 322
787T265 587V361Q265 218 321 162T521 105H685Q789 105 837 129T896 212Q902 236 914 248T950 261Q976 261 990 247T1002 206Q987 100 910 50T685 0H521ZM635 -407Q462 -407 462 -234Q462 -185 511 -185Q560 -185 560 -234Q560 -279 575 -294T635 -309Q703 -309
726 -285T750 -194Q750 -173 741 -161T701 -127Q682 -115 660 -96T621 -47T604 30Q604 79 653 79Q702 79 702 30Q702 5 712 -9T755 -46Q782 -64 815 -96T848 -194Q848 -303 797 -355T635 -407Z" />
<glyph unicode="&#xe8;" glyph-name="egrave" horiz-adv-x="1205" d="M265 432V359Q265 218 321 162T521 105H685Q811 105 868 137T937 250Q941 275 953 288T992 301Q1018 301 1031 287T1042 246Q1029 120 941 60T685 0H521Q334 0 247 86T160 359V585Q160 774
247 860T521 945H685Q872 945 958 859T1045 585V485Q1045 432 993 432H265ZM521 840Q378 842 322 786T265 585V537H940V585Q940 728 884 784T685 840H521ZM679 1060Q640 1027 609 1067L437 1270Q407 1309 444 1340Q482 1374 514 1334L686 1131Q715 1092 679 1060Z"
/>
<glyph unicode="&#xe9;" glyph-name="eacute" horiz-adv-x="1205" d="M562 1069Q526 1101 556 1140L727 1343Q760 1383 798 1349Q834 1318 804 1279L633 1076Q601 1036 562 1069ZM265 432V359Q265 218 321 162T521 105H685Q811 105 868 137T937 250Q941 275 953
288T992 301Q1018 301 1031 287T1042 246Q1029 120 941 60T685 0H521Q334 0 247 86T160 359V585Q160 774 247 860T521 945H685Q872 945 958 859T1045 585V485Q1045 432 993 432H265ZM521 840Q378 842 322 786T265 585V537H940V585Q940 728 884 784T685 840H521Z"
/>
<glyph unicode="&#xea;" glyph-name="ecircumflex" horiz-adv-x="1205" d="M265 432V359Q265 218 321 162T521 105H685Q811 105 868 137T937 250Q941 275 953 288T992 301Q1018 301 1031 287T1042 246Q1029 120 941 60T685 0H521Q334 0 247 86T160 359V585Q160
774 247 860T521 945H685Q872 945 958 859T1045 585V485Q1045 432 993 432H265ZM521 840Q378 842 322 786T265 585V537H940V585Q940 728 884 784T685 840H521ZM429 1057Q409 1057 395 1071T380 1106Q380 1116 383 1123T391 1138L545 1330Q568 1359 604 1359H634Q670
1359 694 1330L847 1138Q852 1131 855 1124T858 1106Q858 1086 844 1072T809 1057Q784 1057 771 1076L627 1261H612L467 1076Q453 1057 429 1057Z" />
<glyph unicode="&#xeb;" glyph-name="edieresis" horiz-adv-x="1205" d="M265 432V359Q265 218 321 162T521 105H685Q811 105 868 137T937 250Q941 275 953 288T992 301Q1018 301 1031 287T1042 246Q1029 120 941 60T685 0H521Q334 0 247 86T160 359V585Q160 774
247 860T521 945H685Q872 945 958 859T1045 585V485Q1045 432 993 432H265ZM521 840Q378 842 322 786T265 585V537H940V585Q940 728 884 784T685 840H521ZM449 1114Q391 1114 391 1173V1211Q391 1268 449 1268H486Q543 1268 543 1211V1173Q543 1114 486 1114H449ZM747
1114Q689 1114 689 1173V1211Q689 1268 747 1268H784Q841 1268 841 1211V1173Q841 1114 784 1114H747Z" />
<glyph unicode="&#xec;" glyph-name="igrave" horiz-adv-x="479" d="M240 0Q187 0 187 53V893Q187 945 240 945Q292 945 292 893V53Q292 0 240 0ZM559 1060Q520 1027 489 1067L317 1270Q287 1309 324 1340Q362 1374 394 1334L566 1131Q595 1092 559 1060Z" />
<glyph unicode="&#xed;" glyph-name="iacute" horiz-adv-x="479" d="M186 1069Q150 1101 180 1140L351 1343Q384 1383 422 1349Q458 1318 428 1279L257 1076Q225 1036 186 1069ZM240 0Q187 0 187 53V893Q187 945 240 945Q292 945 292 893V53Q292 0 240 0Z" />
<glyph unicode="&#xee;" glyph-name="icircumflex" horiz-adv-x="479" d="M240 0Q187 0 187 53V893Q187 945 240 945Q292 945 292 893V53Q292 0 240 0ZM309 1057Q289 1057 275 1071T260 1106Q260 1116 263 1123T271 1138L425 1330Q448 1359 484 1359H514Q550 1359
574 1330L727 1138Q732 1131 735 1124T738 1106Q738 1086 724 1072T689 1057Q664 1057 651 1076L507 1261H492L347 1076Q333 1057 309 1057Z" />
<glyph unicode="&#xef;" glyph-name="idieresis" horiz-adv-x="479" d="M240 0Q187 0 187 53V893Q187 945 240 945Q292 945 292 893V53Q292 0 240 0ZM73 1114Q15 1114 15 1173V1211Q15 1268 73 1268H110Q167 1268 167 1211V1173Q167 1114 110 1114H73ZM371 1114Q313
1114 313 1173V1211Q313 1268 371 1268H408Q465 1268 465 1211V1173Q465 1114 408 1114H371Z" />
<glyph unicode="&#xf0;" glyph-name="eth" horiz-adv-x="1205" d="M521 2Q334 2 247 88T160 360V586Q160 775 247 861T521 947H685Q762 947 824 924T929 851Q918 971 896 1047T839 1163T754 1216L291 1332Q241 1347 253 1397Q265 1449 317 1435L780 1317Q917 1283
979 1124T1045 636V362Q1045 175 959 89T685 2H521ZM521 107H685Q828 107 884 163T940 362V617Q940 703 911 751T824 821T685 842H521Q425 842 369 818T289 738T265 586V360Q265 219 321 163T521 107ZM442 1131Q405 1096 372 1133Q338 1170 374 1204L677 1488Q714
1522 747 1486Q780 1449 745 1415L442 1131Z" />
<glyph unicode="&#xf1;" glyph-name="ntilde" horiz-adv-x="1221" d="M240 0Q187 0 187 53V893Q187 945 240 945Q292 945 292 893V797Q387 945 636 945H692Q879 945 965 859T1052 585V53Q1052 0 1000 0Q947 0 947 53V585Q947 728 891 784T692 840H636Q481 840
392 791T292 638V53Q292 0 240 0ZM786 1106Q729 1106 695 1132T638 1180Q615 1204 597 1216T549 1229Q512 1229 494 1209T461 1144Q454 1127 442 1117T408 1110Q378 1114 370 1135T369 1173Q395 1251 439 1288T549 1325Q611 1325 648 1298T707 1247Q734 1221 749
1212T786 1203Q819 1203 838 1222T871 1284Q878 1303 889 1312T925 1320Q954 1316 962 1295T964 1258Q937 1185 895 1146T786 1106Z" />
<glyph unicode="&#xf2;" glyph-name="ograve" horiz-adv-x="1205" d="M521 0Q334 0 247 86T160 359V585Q160 774 247 860T521 945H685Q872 945 958 859T1045 585V361Q1045 174 959 87T685 0H521ZM265 359Q265 218 321 162T521 105H685Q828 105 884 161T940 361V585Q940
728 884 784T685 840H521Q425 841 369 817T289 737T265 585V359ZM667 1060Q628 1027 597 1067L425 1270Q395 1309 432 1340Q470 1374 502 1334L674 1131Q703 1092 667 1060Z" />
<glyph unicode="&#xf3;" glyph-name="oacute" horiz-adv-x="1205" d="M550 1069Q513 1101 543 1140L715 1343Q747 1383 785 1349Q822 1318 792 1279L620 1076Q588 1036 550 1069ZM521 0Q334 0 247 86T160 359V585Q160 774 247 860T521 945H685Q872 945 958 859T1045
585V361Q1045 174 959 87T685 0H521ZM265 359Q265 218 321 162T521 105H685Q828 105 884 161T940 361V585Q940 728 884 784T685 840H521Q425 841 369 817T289 737T265 585V359Z" />
<glyph unicode="&#xf4;" glyph-name="ocircumflex" horiz-adv-x="1205" d="M521 0Q334 0 247 86T160 359V585Q160 774 247 860T521 945H685Q872 945 958 859T1045 585V361Q1045 174 959 87T685 0H521ZM265 359Q265 218 321 162T521 105H685Q828 105 884 161T940
361V585Q940 728 884 784T685 840H521Q425 841 369 817T289 737T265 585V359ZM416 1057Q396 1057 382 1071T367 1106Q367 1116 370 1123T378 1138L532 1330Q555 1359 591 1359H621Q657 1359 681 1330L834 1138Q839 1131 842 1124T845 1106Q845 1086 831 1072T796
1057Q771 1057 758 1076L614 1261H599L454 1076Q440 1057 416 1057Z" />
<glyph unicode="&#xf5;" glyph-name="otilde" horiz-adv-x="1205" d="M521 0Q334 0 247 86T160 359V585Q160 774 247 860T521 945H685Q872 945 958 859T1045 585V361Q1045 174 959 87T685 0H521ZM265 359Q265 218 321 162T521 105H685Q828 105 884 161T940 361V585Q940
728 884 784T685 840H521Q425 841 369 817T289 737T265 585V359ZM727 1106Q670 1106 636 1132T579 1180Q556 1204 538 1216T490 1229Q453 1229 435 1209T402 1144Q395 1127 383 1117T349 1110Q319 1114 311 1135T310 1173Q336 1251 380 1288T490 1325Q552 1325
589 1298T648 1247Q675 1221 690 1212T727 1203Q760 1203 779 1222T812 1284Q819 1303 830 1312T866 1320Q895 1316 903 1295T905 1258Q878 1185 836 1146T727 1106Z" />
<glyph unicode="&#xf6;" glyph-name="odieresis" horiz-adv-x="1205" d="M521 0Q334 0 247 86T160 359V585Q160 774 247 860T521 945H685Q872 945 958 859T1045 585V361Q1045 174 959 87T685 0H521ZM265 359Q265 218 321 162T521 105H685Q828 105 884 161T940
361V585Q940 728 884 784T685 840H521Q425 841 369 817T289 737T265 585V359ZM436 1114Q378 1114 378 1173V1211Q378 1268 436 1268H473Q530 1268 530 1211V1173Q530 1114 473 1114H436ZM734 1114Q676 1114 676 1173V1211Q676 1268 734 1268H771Q828 1268 828 1211V1173Q828
1114 771 1114H734Z" />
<glyph unicode="&#xf7;" glyph-name="divide" horiz-adv-x="1122" d="M196 684Q147 684 147 733Q147 782 196 782H926Q975 782 975 733Q975 684 926 684H196ZM541 325Q483 325 483 384V422Q483 479 541 479H578Q635 479 635 422V384Q635 325 578 325H541ZM541
985Q483 985 483 1044V1082Q483 1139 541 1139H578Q635 1139 635 1082V1044Q635 985 578 985H541Z" />
<glyph unicode="&#xf8;" glyph-name="oslash" horiz-adv-x="1205" d="M240 -126Q215 -117 210 -97T218 -54L303 83L316 99L795 877L805 894L883 1025Q905 1061 944 1044Q998 1022 968 971L894 851L879 830L410 67L396 44L302 -107Q280 -144 240 -126ZM521 0Q334
0 247 86T160 359V585Q160 774 247 860T521 945H685Q872 945 958 859T1045 585V361Q1045 174 959 87T685 0H521ZM265 359Q265 218 321 162T521 105H685Q828 105 884 161T940 361V585Q940 728 884 784T685 840H521Q425 841 369 817T289 737T265 585V359Z" />
<glyph unicode="&#xf9;" glyph-name="ugrave" horiz-adv-x="1221" d="M981 945Q1034 945 1034 893V53Q1034 0 981 0Q929 0 929 53V148Q834 0 585 0H529Q342 0 256 87T169 361V893Q169 945 221 945Q274 945 274 893V361Q274 218 330 162T529 105H585Q740 105 829
155T929 308V893Q929 945 981 945ZM657 1060Q618 1027 587 1067L415 1270Q385 1309 422 1340Q460 1374 492 1334L664 1131Q693 1092 657 1060Z" />
<glyph unicode="&#xfa;" glyph-name="uacute" horiz-adv-x="1221" d="M981 945Q1034 945 1034 893V53Q1034 0 981 0Q929 0 929 53V148Q834 0 585 0H529Q342 0 256 87T169 361V893Q169 945 221 945Q274 945 274 893V361Q274 218 330 162T529 105H585Q740 105 829
155T929 308V893Q929 945 981 945ZM540 1069Q504 1101 534 1140L705 1343Q738 1383 776 1349Q812 1318 782 1279L611 1076Q579 1036 540 1069Z" />
<glyph unicode="&#xfb;" glyph-name="ucircumflex" horiz-adv-x="1221" d="M981 945Q1034 945 1034 893V53Q1034 0 981 0Q929 0 929 53V148Q834 0 585 0H529Q342 0 256 87T169 361V893Q169 945 221 945Q274 945 274 893V361Q274 218 330 162T529 105H585Q740 105
829 155T929 308V893Q929 945 981 945ZM407 1057Q386 1057 372 1071T358 1106Q358 1116 361 1123T369 1138L522 1330Q546 1359 582 1359H612Q647 1359 671 1330L825 1138Q830 1131 833 1124T836 1106Q836 1086 822 1072T787 1057Q762 1057 749 1076L604 1261H589L445
1076Q431 1057 407 1057Z" />
<glyph unicode="&#xfc;" glyph-name="udieresis" horiz-adv-x="1221" d="M981 945Q1034 945 1034 893V53Q1034 0 981 0Q929 0 929 53V148Q834 0 585 0H529Q342 0 256 87T169 361V893Q169 945 221 945Q274 945 274 893V361Q274 218 330 162T529 105H585Q740 105
829 155T929 308V893Q929 945 981 945ZM426 1114Q369 1114 369 1173V1211Q369 1268 426 1268H464Q520 1268 520 1211V1173Q520 1114 464 1114H426ZM724 1114Q667 1114 667 1173V1211Q667 1268 724 1268H762Q818 1268 818 1211V1173Q818 1114 762 1114H724Z" />
<glyph unicode="&#xfd;" glyph-name="yacute" horiz-adv-x="1215" d="M545 1069Q509 1101 539 1140L710 1343Q743 1383 781 1349Q817 1318 787 1279L616 1076Q584 1036 545 1069ZM425 -400Q294 -400 232 -337T169 -141Q169 -89 221 -89Q274 -89 274 -141Q274 -231
306 -263T425 -295H771Q859 -295 891 -263T923 -141V134Q866 59 780 29T579 -1H523Q339 -1 254 84T169 351V894Q169 947 221 947Q274 947 274 894V351Q274 212 328 158T523 104H579Q754 104 838 165T923 351V894Q923 947 975 947Q1028 947 1028 894V-141Q1028 -274
966 -337T771 -400H425Z" />
<glyph unicode="&#xfe;" glyph-name="thorn" horiz-adv-x="1232" d="M240 -400Q212 -400 200 -388T187 -347V1257Q187 1284 199 1296T240 1309Q267 1309 279 1297T292 1257V797Q406 945 636 945H712Q899 945 985 859T1072 585V363Q1072 176 986 89T712 2H292V-347Q292
-375 280 -387T240 -400ZM292 107H712Q855 107 911 163T967 363V585Q967 728 911 784T712 840H636Q461 840 377 779T292 593V107Z" />
<glyph unicode="&#xff;" glyph-name="ydieresis" horiz-adv-x="1215" d="M425 -400Q294 -400 232 -337T169 -141Q169 -89 221 -89Q274 -89 274 -141Q274 -231 306 -263T425 -295H771Q859 -295 891 -263T923 -141V134Q866 59 780 29T579 -1H523Q339 -1 254 84T169
351V894Q169 947 221 947Q274 947 274 894V351Q274 212 328 158T523 104H579Q754 104 838 165T923 351V894Q923 947 975 947Q1028 947 1028 894V-141Q1028 -274 966 -337T771 -400H425ZM432 1114Q374 1114 374 1173V1211Q374 1268 432 1268H469Q526 1268 526 1211V1173Q526
1114 469 1114H432ZM730 1114Q672 1114 672 1173V1211Q672 1268 730 1268H767Q824 1268 824 1211V1173Q824 1114 767 1114H730Z" />
<glyph unicode="&#x2013;" glyph-name="endash" horiz-adv-x="1122" d="M196 493Q147 493 147 542Q147 591 196 591H926Q975 591 975 542Q975 493 926 493H196Z" />
<glyph unicode="&#x2014;" glyph-name="emdash" horiz-adv-x="1631" d="M196 491Q176 491 162 505T147 540Q147 560 161 574T196 589H1435Q1456 589 1470 575T1484 540Q1484 519 1470 505T1435 491H196Z" />
<glyph unicode="&#x2018;" glyph-name="quoteleft" horiz-adv-x="449" d="M245 1372Q276 1372 288 1350T288 1298L194 1096L104 1135L198 1336Q206 1354 217 1363T245 1372ZM194 1168Q252 1168 252 1109V1071Q252 1014 194 1014H157Q100 1014 100 1071V1109Q100
1168 157 1168H194Z" />
<glyph unicode="&#x2019;" glyph-name="quoteright" horiz-adv-x="407" d="M115 1007Q84 1007 72 1029T72 1081L166 1283L256 1244L162 1042Q154 1024 144 1016T115 1007ZM166 1211Q108 1211 108 1270V1308Q108 1365 166 1365H203Q260 1365 260 1308V1270Q260
1211 203 1211H166Z" />
<glyph unicode="&#x201a;" glyph-name="quotesinglbase" horiz-adv-x="407" d="M115 -205Q84 -205 72 -183T72 -131L166 71L256 32L162 -170Q154 -188 144 -196T115 -205ZM166 -1Q108 -1 108 58V96Q108 153 166 153H203Q260 153 260 96V58Q260 -1 203 -1H166Z" />
<glyph unicode="&#x201c;" glyph-name="quotedblleft" horiz-adv-x="729" d="M525 1372Q556 1372 568 1350T568 1298L474 1096L384 1135L478 1336Q486 1354 497 1363T525 1372ZM474 1168Q532 1168 532 1109V1071Q532 1014 474 1014H437Q380 1014 380 1071V1109Q380
1168 437 1168H474ZM245 1372Q276 1372 288 1350T288 1298L194 1096L104 1135L198 1336Q206 1354 217 1363T245 1372ZM194 1168Q252 1168 252 1109V1071Q252 1014 194 1014H157Q100 1014 100 1071V1109Q100 1168 157 1168H194Z" />
<glyph unicode="&#x201d;" glyph-name="quotedblright" horiz-adv-x="707" d="M415 1007Q384 1007 372 1029T372 1081L466 1283L556 1244L462 1042Q454 1024 444 1016T415 1007ZM466 1211Q408 1211 408 1270V1308Q408 1365 466 1365H503Q560 1365 560 1308V1270Q560
1211 503 1211H466ZM115 1007Q84 1007 72 1029T72 1081L166 1283L256 1244L162 1042Q154 1024 144 1016T115 1007ZM166 1211Q108 1211 108 1270V1308Q108 1365 166 1365H203Q260 1365 260 1308V1270Q260 1211 203 1211H166Z" />
<glyph unicode="&#x201e;" glyph-name="quotedblbase" horiz-adv-x="707" d="M415 -205Q384 -205 372 -183T372 -131L466 71L556 32L462 -170Q454 -188 444 -196T415 -205ZM466 -1Q408 -1 408 58V96Q408 153 466 153H503Q560 153 560 96V58Q560 -1 503 -1H466ZM115
-205Q84 -205 72 -183T72 -131L166 71L256 32L162 -170Q154 -188 144 -196T115 -205ZM166 -1Q108 -1 108 58V96Q108 153 166 153H203Q260 153 260 96V58Q260 -1 203 -1H166Z" />
<glyph unicode="&#x2022;" glyph-name="bullet" horiz-adv-x="597" d="M262 364Q147 364 147 482V558Q147 672 262 672H337Q450 672 450 558V482Q450 364 337 364H262Z" />
<glyph unicode="&#x2039;" glyph-name="guilsinglleft" horiz-adv-x="807" d="M592 235Q574 235 560 247L188 553Q145 588 188 623L560 930Q574 941 592 941Q612 941 626 927T641 892Q641 881 636 872T622 855L299 588L622 322Q631 315 636 306T641 284Q641 264
627 250T592 235Z" />
<glyph unicode="&#x203a;" glyph-name="guilsinglright" horiz-adv-x="807" d="M215 235Q196 235 181 249T166 284Q166 297 171 306T185 322L508 588L185 855Q176 862 171 871T166 892Q166 913 181 927T215 941Q233 941 247 930L619 623Q662 588 619 553L247 247Q233
235 215 235Z" />
</font>
</defs>
</svg>
